{
	"author": "alexander graham bell",
	"description": "RST Tables : Allows to create and edit restructuredText tables easily [unicode]",
	"homepage": "http://www.vim.org/scripts/script.php?script_id=3450",
	"name": "RST_Tables_works_with_non-english_langu",
	"vim-script-nr": 3450
}