{
	"repository": {
		"file-name": "dynamic-explorer.vim",
		"type": "file",
		"url": "http://www.vim.org/scripts/download_script.php?src_id=7099",
		"vim-directory": "plugin"
	},
	"version": "1.0.1"
}