{
	"author": "A. G. Madi",
	"description": "Simple and lightweight comment toggle scripts",
	"homepage": "http://www.vim.org/scripts/script.php?script_id=5458",
	"name": "vim_comment_toggle",
	"vim-script-nr": 5458
}