{
	"author": "P\u00e9ntek G\u00e1bor",
	"description": "Drupal 5.0 function name dictionary for Ctrl-X Ctrl-K completition",
	"homepage": "http://www.vim.org/scripts/script.php?script_id=1675",
	"name": "Drupal_5.0_function_dictionary",
	"vim-script-nr": 1675
}