{
	"repository": {
		"file-name": "mkvimball.vba",
		"type": "archive",
		"unpack-sequence": [
			"vmb"
		],
		"url": "http://www.vim.org/scripts/download_script.php?src_id=18945"
	},
	"version": "1.0"
}