{
	"repository": {
		"file-name": "rainbow_csv-master.zip",
		"strip-components": 1,
		"type": "archive",
		"unpack-sequence": [
			"zip"
		],
		"url": "http://www.vim.org/scripts/download_script.php?src_id=24083"
	},
	"version": "2.0"
}