{
	"author": "Jerome Reybert",
	"description": "This script adds syntax for Mind component files",
	"homepage": "http://www.vim.org/scripts/script.php?script_id=3421",
	"name": "Mind_syntax",
	"vim-script-nr": 3421
}