{
	"repository": {
		"file-name": "vimtips_with_comments.tar.bz2",
		"type": "archive",
		"unpack-sequence": [
			"bz2",
			"tar"
		],
		"url": "http://www.vim.org/scripts/download_script.php?src_id=5998"
	},
	"version": "1.0"
}