{
	"repository": {
		"file-name": "vim-prettier-0.2.2.zip",
		"strip-components": 1,
		"type": "archive",
		"unpack-sequence": [
			"zip"
		],
		"url": "http://www.vim.org/scripts/download_script.php?src_id=25603"
	},
	"version": "0.2.2"
}