{
	"author": "Gaston Tonietti",
	"description": "Shows all your <Leader> mappings in a readable table including the descriptions",
	"homepage": "http://www.vim.org/scripts/script.php?script_id=5244",
	"name": "vim-follow-my-lead",
	"vim-script-nr": 5244
}