{
	"author": "Rajesh Kallingal",
	"description": "This is a file type plugin for Oracle SQL files.",
	"homepage": "http://www.vim.org/scripts/script.php?script_id=142",
	"name": "sql",
	"vim-script-nr": 142
}