{
	"author": "Sergio Ivanuzzo",
	"description": "plugin provides dialog for choicing command and process it by prefix option",
	"homepage": "http://www.vim.org/scripts/script.php?script_id=5276",
	"name": "optcmd",
	"vim-script-nr": 5276
}