{
	"author": "Kevin Scannell",
	"description": "Interface to an Irish language grammar checker",
	"homepage": "http://www.vim.org/scripts/script.php?script_id=802",
	"name": "gramadoir",
	"vim-script-nr": 802
}