{
	"author": "Edwin Manuel Cerrón Angeles",
	"description": "Word by word search in dictionaries over cursor.",
	"homepage": "http://www.vim.org/scripts/script.php?script_id=5442",
	"name": "wordbyword",
	"vim-script-nr": 5442
}