{
	"repository": {
		"file-name": "javacomplete.zip",
		"type": "archive",
		"unpack-sequence": [
			"zip"
		],
		"url": "http://www.vim.org/scripts/download_script.php?src_id=6712"
	},
	"version": "0.74"
}