{
	"author": "Marty Grenfell",
	"description": "A tree explorer plugin for navigating the filesystem",
	"homepage": "http://www.vim.org/scripts/script.php?script_id=1658",
	"name": "The_NERD_tree",
	"vim-script-nr": 1658
}