{
	"repository": {
		"file-name": "twitvim-0.4.1.vba",
		"type": "archive",
		"unpack-sequence": [
			"vmb"
		],
		"url": "http://www.vim.org/scripts/download_script.php?src_id=10325"
	},
	"version": "0.4.1"
}