{
	"author": "Alexander Noriega",
	"description": "Plugin for the Elm programming language",
	"homepage": "http://www.vim.org/scripts/script.php?script_id=4992",
	"name": "elm",
	"vim-script-nr": 4992
}