{
	"repository": {
		"file-name": "IniParser.zip",
		"type": "archive",
		"unpack-sequence": [
			"zip"
		],
		"url": "http://www.vim.org/scripts/download_script.php?src_id=16654"
	},
	"version": "0..2.1"
}