{
	"repository": {
		"file-name": "cecutil.vba.gz",
		"type": "archive",
		"unpack-sequence": [
			"gz",
			"vmb"
		],
		"url": "http://www.vim.org/scripts/download_script.php?src_id=7618"
	},
	"version": "17"
}