{
	"author": "J\u00f6rn Horstmann",
	"description": "A colorscheme with a light grey background",
	"homepage": "http://www.vim.org/scripts/script.php?script_id=1131",
	"name": "jhlight",
	"vim-script-nr": 1131
}