{
	"repository": {
		"file-name": "number_thousands_separator.vim",
		"type": "file",
		"url": "http://www.vim.org/scripts/download_script.php?src_id=9864",
		"vim-directory": "plugin"
	},
	"version": "1.0"
}