{
	"author": "Steve Hall",
	"description": "Test and interpret keyboard characters returned by your hardware/software.",
	"homepage": "http://www.vim.org/scripts/script.php?script_id=488",
	"name": "cream-keytest",
	"vim-script-nr": 488
}