{
	"repository": {
		"file-name": "libperl-vim-0.6.tar.gz",
		"type": "archive",
		"unpack-sequence": [
			"gz",
			"tar"
		],
		"url": "http://www.vim.org/scripts/download_script.php?src_id=11758"
	},
	"version": "0.6"
}