{
	"repository": {
		"file-name": "fly.tgz",
		"type": "archive",
		"unpack-sequence": [
			"gz",
			"tar"
		],
		"url": "http://www.vim.org/scripts/download_script.php?src_id=9741"
	},
	"version": "1.0"
}