{
	"repository": {
		"file-name": "vim2ansi.v1.1.zip",
		"type": "archive",
		"unpack-sequence": [
			"zip"
		],
		"url": "http://www.vim.org/scripts/download_script.php?src_id=3617"
	},
	"version": "1.1"
}