{
	"author": "Armin Ronacher",
	"description": "Adds support for Genshi HTMl Templates to vim",
	"homepage": "http://www.vim.org/scripts/script.php?script_id=1869",
	"name": "genshi",
	"vim-script-nr": 1869
}