{
	"author": "David Croal",
	"description": "Syntax highlighting for ArnoldC language",
	"homepage": "http://www.vim.org/scripts/script.php?script_id=4965",
	"name": "arnoldc",
	"vim-script-nr": 4965
}