{
	"repository": {
		"file-name": "flake8-vim.zip",
		"type": "archive",
		"unpack-sequence": [
			"zip"
		],
		"url": "http://www.vim.org/scripts/download_script.php?src_id=19554"
	},
	"version": "0.2"
}