{
	"repository": {
		"file-name": "MixCase.zip",
		"type": "archive",
		"unpack-sequence": [
			"zip"
		],
		"url": "http://www.vim.org/scripts/download_script.php?src_id=2510"
	},
	"version": "0.2"
}