{
	"author": "Shuhei Kubota",
	"description": "Searches a string that you selected in visual mode with * or #.",
	"homepage": "http://www.vim.org/scripts/script.php?script_id=2542",
	"name": "StarRange",
	"vim-script-nr": 2542
}