{
	"repository": {
		"file-name": "tms_1_12.tar.gz",
		"type": "archive",
		"unpack-sequence": [
			"gz",
			"tar"
		],
		"url": "http://www.vim.org/scripts/download_script.php?src_id=3333"
	},
	"version": "1.12"
}