{
	"author": "Hermann Schwarting",
	"description": "Syntax highlighting for the WikkiTikkiTavi ('Tavi) wiki engine",
	"homepage": "http://www.vim.org/scripts/script.php?script_id=1665",
	"name": "tavi",
	"vim-script-nr": 1665
}