{
	"author": "Henri Bourcereau",
	"description": "Links manipulation and navigation in markdown pages",
	"homepage": "http://www.vim.org/scripts/script.php?script_id=5138",
	"name": "vim-markdown-wiki",
	"vim-script-nr": 5138
}