{
	"author": "Eugene Minkovskii",
	"description": "This is utility to easy access to vim buffer. For pythonic macrowriters",
	"homepage": "http://www.vim.org/scripts/script.php?script_id=840",
	"name": "text.py",
	"vim-script-nr": 840
}