{
	"author": "Marius Groleo",
	"description": "Tries to implement code completion.",
	"homepage": "http://www.vim.org/scripts/script.php?script_id=1347",
	"name": "cxxcomplete",
	"vim-script-nr": 1347
}