{
	"author": "sunsol zn",
	"description": "\u770b\u4e2d\u6587txt\u5c0f\u8bf4\u63d2\u4ef6",
	"homepage": "http://www.vim.org/scripts/script.php?script_id=4013",
	"name": "readnovel",
	"vim-script-nr": 4013
}