{
	"author": "Salman Halim",
	"description": "Localize register contents based on filetype",
	"homepage": "http://www.vim.org/scripts/script.php?script_id=994",
	"name": "FiletypeRegisters",
	"vim-script-nr": 994
}