{
	"repository": {
		"file-name": "vim-ku-0.1.7.zip",
		"strip-components": 1,
		"type": "archive",
		"unpack-sequence": [
			"zip"
		],
		"url": "http://www.vim.org/scripts/download_script.php?src_id=9646"
	},
	"version": "0.1.7"
}