{
	"repository": {
		"file-name": "bufexplorer-7.4.2.zip",
		"type": "archive",
		"unpack-sequence": [
			"zip"
		],
		"url": "http://www.vim.org/scripts/download_script.php?src_id=20953"
	},
	"version": "7.4.2"
}