{
	"author": "Bruno Silva",
	"description": "The \"HTML Source Explorer\" plugin is meant to aid on the html source exploring.",
	"homepage": "http://www.vim.org/scripts/script.php?script_id=3794",
	"name": "html-source-explorer",
	"vim-script-nr": 3794
}