{
	"repository": {
		"file-name": "vim-xkbswitch-0.9.1.tgz",
		"type": "archive",
		"unpack-sequence": [
			"gz",
			"tar"
		],
		"url": "http://www.vim.org/scripts/download_script.php?src_id=20105"
	},
	"version": "0.9.1"
}