{
	"repository": {
		"file-name": "mark.vba.gz",
		"type": "archive",
		"unpack-sequence": [
			"gz",
			"vmb"
		],
		"url": "http://www.vim.org/scripts/download_script.php?src_id=17644"
	},
	"version": "2.6.1"
}