{
	"author": "Ingo Karkat",
	"description": "Comfortable examination of multiple parallel logfiles.",
	"homepage": "http://www.vim.org/scripts/script.php?script_id=4156",
	"name": "LogViewer",
	"vim-script-nr": 4156
}