{
	"repository": {
		"file-name": "EnhancedCommentify-2.3.tar.gz",
		"strip-components": 1,
		"type": "archive",
		"unpack-sequence": [
			"gz",
			"tar"
		],
		"url": "http://www.vim.org/scripts/download_script.php?src_id=8319"
	},
	"version": "2.3"
}