{
	"repository": {
		"file-name": "perl-support.zip",
		"type": "archive",
		"unpack-sequence": [
			"zip"
		],
		"url": "http://www.vim.org/scripts/download_script.php?src_id=6107"
	},
	"version": "3.2.1"
}