{
	"author": "Gary Calvin",
	"description": "Indent script for jBASE (Pick) Basic",
	"homepage": "http://www.vim.org/scripts/script.php?script_id=1505",
	"name": "jbase%1505",
	"vim-script-nr": 1505
}