{
	"repository": {
		"file-name": "svk.tar.gz",
		"type": "archive",
		"unpack-sequence": [
			"gz",
			"tar"
		],
		"url": "http://www.vim.org/scripts/download_script.php?src_id=10366"
	},
	"version": "0.1"
}