{
	"repository": {
		"file-name": "vim-www.zip",
		"strip-components": 1,
		"type": "archive",
		"unpack-sequence": [
			"zip"
		],
		"url": "http://www.vim.org/scripts/download_script.php?src_id=23556"
	},
	"version": "0.0.4"
}