{
	"author": "Sudipta Ghorui",
	"description": "removes the trailing space from the file",
	"homepage": "http://www.vim.org/scripts/script.php?script_id=1701",
	"name": "Remove_Trailing_Spaces",
	"vim-script-nr": 1701
}