{
	"repository": {
		"file-name": "Align.vba.gz",
		"type": "archive",
		"unpack-sequence": [
			"gz",
			"vmb"
		],
		"url": "http://www.vim.org/scripts/download_script.php?src_id=6210"
	},
	"version": "30-35"
}