{
	"author": "Mikel Ward",
	"description": "a simple color scheme that only highlights strings, comments, and errors",
	"homepage": "http://www.vim.org/scripts/script.php?script_id=2123",
	"name": "basic_colors",
	"vim-script-nr": 2123
}