{
	"repository": {
		"file-name": "SrcExpl-5.2.zip",
		"type": "archive",
		"unpack-sequence": [
			"zip"
		],
		"url": "http://www.vim.org/scripts/download_script.php?src_id=19701"
	},
	"version": "5.2"
}