{
	"repository": {
		"file-name": "maplesyrup.tar.gz",
		"type": "archive",
		"unpack-sequence": [
			"gz",
			"tar"
		],
		"url": "http://www.vim.org/scripts/download_script.php?src_id=3588"
	},
	"version": "1"
}