{
	"author": "Paul Zimmer",
	"description": "Syntax file for Synopsys DesignCompiler tcl",
	"homepage": "http://www.vim.org/scripts/script.php?script_id=71",
	"name": "dctl.vim.gz",
	"vim-script-nr": 71
}