{
	"author": "kf _",
	"description": "Simple plugin for checking the latest version of the Python package in Vim.",
	"homepage": "http://www.vim.org/scripts/script.php?script_id=5233",
	"name": "pypi",
	"vim-script-nr": 5233
}