{
	"author": "brook hong",
	"description": "let you quickly run external command, and show the result in a scratch window.",
	"homepage": "http://www.vim.org/scripts/script.php?script_id=4619",
	"name": "K",
	"vim-script-nr": 4619
}