{
	"author": "Grzegorz Dymarek",
	"description": "Script that parses and provides signature of instructions",
	"homepage": "http://www.vim.org/scripts/script.php?script_id=1222",
	"name": "OCaml_instructions_signature__parser",
	"vim-script-nr": 1222
}