{
	"repository": {
		"file-name": "vim4accurev-1.1.1.zip",
		"type": "archive",
		"unpack-sequence": [
			"zip"
		],
		"url": "http://www.vim.org/scripts/download_script.php?src_id=11212"
	},
	"version": "1.1.1"
}