{
	"author": "Tomas Restrepo",
	"description": "A port of the monokai scheme for TextMate",
	"homepage": "http://www.vim.org/scripts/script.php?script_id=2340",
	"name": "molokai",
	"vim-script-nr": 2340
}