{
	"author": "Dugan Chen",
	"description": "Syntax file for Google Closure templates",
	"homepage": "http://www.vim.org/scripts/script.php?script_id=3587",
	"name": "vim-soy",
	"vim-script-nr": 3587
}