{
	"repository": {
		"file-name": "vimya-0.4.zip",
		"strip-components": 1,
		"type": "archive",
		"unpack-sequence": [
			"zip"
		],
		"url": "http://www.vim.org/scripts/download_script.php?src_id=21472"
	},
	"version": "0.4+"
}