{
	"author": "Jan Christoph Ebersbach",
	"description": "Make quickfix entries editable",
	"homepage": "http://www.vim.org/scripts/script.php?script_id=3557",
	"name": "editqf",
	"vim-script-nr": 3557
}