{
	"author": "Ingo Karkat",
	"description": "Attach names to search patterns for easier recall.",
	"homepage": "http://www.vim.org/scripts/script.php?script_id=4123",
	"name": "TaggedSearchPattern",
	"vim-script-nr": 4123
}