{
	"author": "Pavol Juhas",
	"description": "global plugin for variable-width tab stops",
	"homepage": "http://www.vim.org/scripts/script.php?script_id=133",
	"name": "TableTab",
	"vim-script-nr": 133
}