{
	"author": "Kevin Dahlhausen",
	"description": "Complete word from Python src files.",
	"homepage": "http://www.vim.org/scripts/script.php?script_id=44",
	"name": "completeWord.py",
	"vim-script-nr": 44
}