{
	"author": "joey twiddle",
	"description": "Provides [count]\\. to repeat the last group of actions you performed.",
	"homepage": "http://www.vim.org/scripts/script.php?script_id=4381",
	"name": "RepeatLast",
	"vim-script-nr": 4381
}