{
	"repository": {
		"file-name": "vim-checksum.zip",
		"type": "archive",
		"unpack-sequence": [
			"zip"
		],
		"url": "http://www.vim.org/scripts/download_script.php?src_id=24028"
	},
	"version": "0.0.1"
}