{
	"author": "Charles Campbell",
	"description": "Math keymap and a menu for inserting math symbols",
	"homepage": "http://www.vim.org/scripts/script.php?script_id=2723",
	"name": "math",
	"vim-script-nr": 2723
}