{
	"repository": {
		"file-name": "vim-webdevicons-v0.4.1.zip",
		"type": "archive",
		"unpack-sequence": [
			"zip"
		],
		"url": "http://www.vim.org/scripts/download_script.php?src_id=23389"
	},
	"version": "v0.4.1"
}