{
	"repository": {
		"file-name": "sessions-1.0.0.vba.gz",
		"type": "archive",
		"unpack-sequence": [
			"gz",
			"vmb"
		],
		"url": "http://www.vim.org/scripts/download_script.php?src_id=13272"
	},
	"version": "1.0.0"
}