{
	"repository": {
		"file-name": "sqlutil_137.zip",
		"type": "archive",
		"unpack-sequence": [
			"zip"
		],
		"url": "http://www.vim.org/scripts/download_script.php?src_id=3257"
	},
	"version": "1.3.7"
}