{
	"repository": {
		"file-name": "ferm.vim.zip",
		"type": "archive",
		"unpack-sequence": [
			"zip"
		],
		"url": "http://www.vim.org/scripts/download_script.php?src_id=19338"
	},
	"version": "0.03"
}