{
	"author": "thinca  ",
	"description": "Run a command and show its result quickly.",
	"homepage": "http://www.vim.org/scripts/script.php?script_id=3146",
	"name": "quickrun%3146",
	"vim-script-nr": 3146
}