{
	"author": "Yakov Lerner",
	"description": "search for the next syntax error detected by the vim highlighting mechanism",
	"homepage": "http://www.vim.org/scripts/script.php?script_id=1851",
	"name": "SearchSyntaxError",
	"vim-script-nr": 1851
}