{
	"repository": {
		"file-name": "LargeFile.vim.gz",
		"type": "file",
		"unpack-sequence": [
			"gz"
		],
		"url": "http://www.vim.org/scripts/download_script.php?src_id=5500",
		"vim-directory": "plugin"
	},
	"version": "2"
}