{
	"author": "Augusto Dantas",
	"description": " Define your own surround patterns ",
	"homepage": "http://www.vim.org/scripts/script.php?script_id=5547",
	"name": "vim-custom-surround",
	"vim-script-nr": 5547
}