{
	"author": "Ingo Karkat",
	"description": "Create a duplicate clone of the current buffer.",
	"homepage": "http://www.vim.org/scripts/script.php?script_id=4896",
	"name": "clone",
	"vim-script-nr": 4896
}