{
	"repository": {
		"file-name": "histwin.vba",
		"type": "archive",
		"unpack-sequence": [
			"vmb"
		],
		"url": "http://www.vim.org/scripts/download_script.php?src_id=12146"
	},
	"version": "0.7.2."
}