{
	"author": "Narinder Claire",
	"description": "IDE like Project explorer ( plugin for winmanager )",
	"homepage": "http://www.vim.org/scripts/script.php?script_id=2060",
	"name": "winwkspaceexplorer",
	"vim-script-nr": 2060
}