{
	"repository": {
		"file-name": "translit3-2.0.tar.gz",
		"type": "archive",
		"unpack-sequence": [
			"gz",
			"tar"
		],
		"url": "http://www.vim.org/scripts/download_script.php?src_id=13542"
	},
	"version": "2.0"
}