{
	"author": "Hans Fugal",
	"description": "A template to make coming up with your own color scheme a bit easier.",
	"homepage": "http://www.vim.org/scripts/script.php?script_id=106",
	"name": "colorscheme_template",
	"vim-script-nr": 106
}