{
	"author": "Salman Halim",
	"description": "Data structures and utility functions",
	"homepage": "http://www.vim.org/scripts/script.php?script_id=4193",
	"name": "UtilityFunctions",
	"vim-script-nr": 4193
}