{
	"author": "Jens Berlips",
	"description": "Simple syntax highlighting for Maxscript",
	"homepage": "http://www.vim.org/scripts/script.php?script_id=977",
	"name": "Maxscript",
	"vim-script-nr": 977
}