{
	"repository": {
		"file-name": "vim-r-plugin-101107.zip",
		"type": "archive",
		"unpack-sequence": [
			"zip"
		],
		"url": "http://www.vim.org/scripts/download_script.php?src_id=14203"
	},
	"version": "101107"
}