{
	"author": "Rom Grk",
	"description": "move along vertical axis, to next/previous character-blocks end/start",
	"homepage": "http://www.vim.org/scripts/script.php?script_id=5402",
	"name": "columnMove",
	"vim-script-nr": 5402
}