{
	"author": "Masaaki Nakamura",
	"description": "Bring cursor vertically in similar ways as line-wise commands.",
	"homepage": "http://www.vim.org/scripts/script.php?script_id=4880",
	"name": "columnmove",
	"vim-script-nr": 4880
}