{
	"author": "Gerald Williams",
	"description": "low contrast scheme, light or dark",
	"homepage": "http://www.vim.org/scripts/script.php?script_id=1922",
	"name": "ChocolatePapaya",
	"vim-script-nr": 1922
}