{
	"author": "Dee Sub Wun .",
	"description": "A clean and dark color scheme for developers (Vim/GVim)",
	"homepage": "http://www.vim.org/scripts/script.php?script_id=3079",
	"name": "CodeFactory",
	"vim-script-nr": 3079
}