{
	"repository": {
		"file-name": "visual_studio.zip",
		"type": "archive",
		"unpack-sequence": [
			"zip"
		],
		"url": "http://www.vim.org/scripts/download_script.php?src_id=2626"
	},
	"version": "1.0"
}