{
	"author": "wei ko kao",
	"description": "Automatic CoffeeScript syntax validation checker for Vim",
	"homepage": "http://www.vim.org/scripts/script.php?script_id=3901",
	"name": "coffee-check%3901",
	"vim-script-nr": 3901
}