{
	"repository": {
		"file-name": "VimOrganizer_v030.zip",
		"strip-components": 1,
		"type": "archive",
		"unpack-sequence": [
			"zip"
		],
		"url": "http://www.vim.org/scripts/download_script.php?src_id=16789"
	},
	"version": "0.30"
}