{
	"author": "Sureshkumar Manimuthu",
	"description": "C/C++ File navigation - using omnicppcomplete",
	"homepage": "http://www.vim.org/scripts/script.php?script_id=4763",
	"name": "cppnav",
	"vim-script-nr": 4763
}