{
	"author": "Andy Wokula",
	"description": "For given karma print how users possibly voted",
	"homepage": "http://www.vim.org/scripts/script.php?script_id=2005",
	"name": "karma",
	"vim-script-nr": 2005
}