{
	"author": "Hideyuki HIRAUCHI",
	"description": "Six low contrast dark colorschemes for happy hacking.",
	"homepage": "http://www.vim.org/scripts/script.php?script_id=817",
	"name": "HHCS",
	"vim-script-nr": 817
}