{
	"repository": {
		"file-name": "yamlvim-1.4.3.tar.gz",
		"type": "archive",
		"unpack-sequence": [
			"gz",
			"tar"
		],
		"url": "http://www.vim.org/scripts/download_script.php?src_id=13864"
	},
	"version": "1.4.3"
}