{
	"author": "Henry So, Jr.",
	"description": "A slightly-modified desert theme, for 88- and 256-color xterms.",
	"homepage": "http://www.vim.org/scripts/script.php?script_id=1243",
	"name": "desert256",
	"vim-script-nr": 1243
}