{
	"repository": {
		"file-name": "vim-lemon-syntax.zip",
		"strip-components": 1,
		"type": "archive",
		"unpack-sequence": [
			"zip"
		],
		"url": "http://www.vim.org/scripts/download_script.php?src_id=16125"
	},
	"version": "1.1"
}