{
	"author": "Densel Santhmayor",
	"description": "Formats the gvim instance titlebar string for efficiency",
	"homepage": "http://www.vim.org/scripts/script.php?script_id=3033",
	"name": "Vim_Title_Formatter",
	"vim-script-nr": 3033
}