{
	"repository": {
		"file-name": "phpqa.tgz",
		"type": "archive",
		"unpack-sequence": [
			"gz",
			"tar"
		],
		"url": "http://www.vim.org/scripts/download_script.php?src_id=17664"
	},
	"version": "0.3"
}