{
	"repository": {
		"file-name": "gen_tags.vim-0.8.zip",
		"strip-components": 1,
		"type": "archive",
		"unpack-sequence": [
			"zip"
		],
		"url": "http://www.vim.org/scripts/download_script.php?src_id=24809"
	},
	"version": "0.8"
}