{
	"author": "Ingo Karkat",
	"description": "autocmds for IndentConsistencyCop.vim",
	"homepage": "http://www.vim.org/scripts/script.php?script_id=1691",
	"name": "IndentConsistencyCopAutoCmds",
	"vim-script-nr": 1691
}