{
	"repository": {
		"file-name": "publish.zip",
		"type": "archive",
		"unpack-sequence": [
			"zip"
		],
		"url": "http://www.vim.org/scripts/download_script.php?src_id=16970"
	},
	"version": "1.7.7"
}