{
	"repository": {
		"file-name": "neocomplcache-2.40.tar.gz",
		"strip-components": 1,
		"type": "archive",
		"unpack-sequence": [
			"gz",
			"tar"
		],
		"url": "http://www.vim.org/scripts/download_script.php?src_id=10541"
	},
	"version": "2.40+"
}