{
	"author": "Cristian Constantin",
	"description": "highlights files containing assembly for UDVM",
	"homepage": "http://www.vim.org/scripts/script.php?script_id=1315",
	"name": "udvm",
	"vim-script-nr": 1315
}