{
	"author": "Tomasz Kalkosinski",
	"description": "Syntax script for WarSoW player config and HUD files",
	"homepage": "http://www.vim.org/scripts/script.php?script_id=1595",
	"name": "warsow",
	"vim-script-nr": 1595
}