{
	"repository": {
		"file-name": "perl-completion.vim-2.3.tar.gz",
		"type": "archive",
		"unpack-sequence": [
			"gz",
			"tar"
		],
		"url": "http://www.vim.org/scripts/download_script.php?src_id=12737"
	},
	"version": "2.3"
}