{
	"author": "ujihisa .",
	"description": "The only one vim script which handles Blogger. Powered by Metarw.",
	"homepage": "http://www.vim.org/scripts/script.php?script_id=2638",
	"name": "blogger",
	"vim-script-nr": 2638
}