{
	"repository": {
		"file-name": "vim-stardict-0.3.0.zip",
		"strip-components": 1,
		"type": "archive",
		"unpack-sequence": [
			"zip"
		],
		"url": "http://www.vim.org/scripts/download_script.php?src_id=22963"
	},
	"version": "0.3.0"
}