{
	"repository": {
		"file-name": "RegImap.vmb",
		"type": "archive",
		"unpack-sequence": [
			"vmb"
		],
		"url": "http://www.vim.org/scripts/download_script.php?src_id=16231"
	},
	"version": "0.53"
}