{
	"author": "Peter Bagyinszki",
	"description": "Provides database access to many DBMS (Oracle, Sybase, Microsoft, MySQL, DBI,..)",
	"homepage": "http://www.vim.org/scripts/script.php?script_id=356",
	"name": "dbext",
	"vim-script-nr": 356
}