{
	"author": "Edwin Manuel Cerrón Angeles",
	"description": "Audio note - voice recorder ",
	"homepage": "http://www.vim.org/scripts/script.php?script_id=5421",
	"name": "audionote",
	"vim-script-nr": 5421
}