{
	"repository": {
		"file-name": "gtk-mode-0.1.tar.gz",
		"type": "archive",
		"unpack-sequence": [
			"gz",
			"tar"
		],
		"url": "http://www.vim.org/scripts/download_script.php?src_id=17267"
	},
	"version": "20120120"
}