{
	"repository": {
		"file-name": "sadic.tgz",
		"strip-components": 1,
		"type": "archive",
		"unpack-sequence": [
			"gz",
			"tar"
		],
		"url": "http://www.vim.org/scripts/download_script.php?src_id=4306"
	},
	"version": "1.0"
}