{
	"author": "Carl Mueller",
	"description": "(x)emacs style quick copy and paste",
	"homepage": "http://www.vim.org/scripts/script.php?script_id=2064",
	"name": "xemacs_mouse_drag-copy",
	"vim-script-nr": 2064
}