{
	"repository": {
		"file-name": "rubytest.tar.bz2",
		"type": "archive",
		"unpack-sequence": [
			"bz2",
			"tar"
		],
		"url": "http://www.vim.org/scripts/download_script.php?src_id=12735"
	},
	"version": "1.0.1"
}