{
	"author": "Salman Halim",
	"description": "Allows multiple windows to have specific vertical sizes",
	"homepage": "http://www.vim.org/scripts/script.php?script_id=997",
	"name": "Window_Sizes",
	"vim-script-nr": 997
}