{
	"author": "Tom Link",
	"description": "Scan certain buffers for a regexp and save the result as quickfix list",
	"homepage": "http://www.vim.org/scripts/script.php?script_id=3653",
	"name": "brep",
	"vim-script-nr": 3653
}