{
	"author": "   ",
	"description": "Create HTML email from HTML and linked CSS",
	"homepage": "http://www.vim.org/scripts/script.php?script_id=3698",
	"name": "html_emogrifier",
	"vim-script-nr": 3698
}