{
	"author": "Dumidu Handakumbura",
	"description": "Provides ballerina support to vim, when coupled with the bal syntax plugin. ",
	"homepage": "http://www.vim.org/scripts/script.php?script_id=5562",
	"name": "bal",
	"vim-script-nr": 5562
}