{
	"author": "Beau Gunderson",
	"description": "Wouldn't it be nice if you could view epoch dates in a format that made sense?",
	"homepage": "http://www.vim.org/scripts/script.php?script_id=3976",
	"name": "vim-human-dates",
	"vim-script-nr": 3976
}