{
	"author": "Douglas Potts",
	"description": "[Defunct] Part of functionality for Vim 6.0",
	"homepage": "http://www.vim.org/scripts/script.php?script_id=16",
	"name": "compiler.tar.gz",
	"vim-script-nr": 16
}