{
	"author": "Yakov Lerner",
	"description": "dump vimscript string to clearly see multi-byte chars, bytes, and codes of both",
	"homepage": "http://www.vim.org/scripts/script.php?script_id=961",
	"name": "DumpStr",
	"vim-script-nr": 961
}