{
	"repository": {
		"file-name": "Rykka-ColorV-2.5.6.zip",
		"strip-components": 1,
		"type": "archive",
		"unpack-sequence": [
			"zip"
		],
		"url": "http://www.vim.org/scripts/download_script.php?src_id=17818"
	},
	"version": "2.5.6+"
}