{
	"repository": {
		"file-name": "SnippetComplete-2.10.vmb.gz",
		"type": "archive",
		"unpack-sequence": [
			"gz",
			"vmb"
		],
		"url": "http://www.vim.org/scripts/download_script.php?src_id=18840"
	},
	"version": "2.10"
}