{
	"author": "Ingo Karkat",
	"description": "Quick search without affecting 'hlsearch', search pattern and history.",
	"homepage": "http://www.vim.org/scripts/script.php?script_id=5619",
	"name": "SearchAsQuickJump",
	"vim-script-nr": 5619
}