{
	"author": "Charles Campbell",
	"description": "Imaps to provide active stubs  (currently: c, LaTeX, sh, vim)",
	"homepage": "http://www.vim.org/scripts/script.php?script_id=1269",
	"name": "drcstubs",
	"vim-script-nr": 1269
}