{
	"repository": {
		"file-name": "bufexplorer.zip",
		"type": "archive",
		"unpack-sequence": [
			"zip"
		],
		"url": "http://www.vim.org/scripts/download_script.php?src_id=9128"
	},
	"version": "7.2.0"
}