{
	"repository": {
		"file-name": "krl_for_vim_v124_20160727.zip",
		"type": "archive",
		"unpack-sequence": [
			"zip"
		],
		"url": "http://www.vim.org/scripts/download_script.php?src_id=24406"
	},
	"version": "1.2.4"
}