{
	"author": "jesse dailey",
	"description": "Syntax definitions for Google's \"Go\" language.",
	"homepage": "http://www.vim.org/scripts/script.php?script_id=2867",
	"name": "Go_Syntax",
	"vim-script-nr": 2867
}