{
	"repository": {
		"file-name": "unite-colorscheme-1.1.zip",
		"strip-components": 1,
		"type": "archive",
		"unpack-sequence": [
			"zip"
		],
		"url": "http://www.vim.org/scripts/download_script.php?src_id=14229"
	},
	"version": "1.1"
}