{
	"repository": {
		"file-name": "context_complete.tar",
		"type": "archive",
		"unpack-sequence": [
			"tar"
		],
		"url": "http://www.vim.org/scripts/download_script.php?src_id=3818"
	},
	"version": "0.4"
}