{
	"repository": {
		"file-name": "glowshi-ft.vim.zip",
		"strip-components": 1,
		"type": "archive",
		"unpack-sequence": [
			"zip"
		],
		"url": "http://www.vim.org/scripts/download_script.php?src_id=22205"
	},
	"version": "1.0.0"
}