{
	"author": "nicolaie george",
	"description": "vim script for color palette etc.",
	"homepage": "http://www.vim.org/scripts/script.php?script_id=596",
	"name": "colorpalette",
	"vim-script-nr": 596
}