{
	"repository": {
		"file-name": "yaposting_v2.tar.gz",
		"strip-components": 1,
		"type": "archive",
		"unpack-sequence": [
			"gz",
			"tar"
		],
		"url": "http://www.vim.org/scripts/download_script.php?src_id=19664"
	},
	"version": "2"
}