{
	"author": "Mark Woodward",
	"description": "Textmate like Ruby snippets for Vim",
	"homepage": "http://www.vim.org/scripts/script.php?script_id=1726",
	"name": "ruby_imaps",
	"vim-script-nr": 1726
}