{
	"author": "Jan Zwiener",
	"description": "Light color scheme (white background, Visual Studio and Python colors)",
	"homepage": "http://www.vim.org/scripts/script.php?script_id=3328",
	"name": "Blueshift",
	"vim-script-nr": 3328
}