{
	"author": "Robert KellyIV",
	"description": "On-The-Fly coloring of patterns, Inspired by MultipleSearch.vim",
	"homepage": "http://www.vim.org/scripts/script.php?script_id=634",
	"name": "otf",
	"vim-script-nr": 634
}