{
	"author": "Diego Ongaro",
	"description": "Syntax highlighting for the Murphi model checker",
	"homepage": "http://www.vim.org/scripts/script.php?script_id=3932",
	"name": "murphi",
	"vim-script-nr": 3932
}