{
	"repository": {
		"file-name": "rythm.zip",
		"type": "archive",
		"unpack-sequence": [
			"zip"
		],
		"url": "http://www.vim.org/scripts/download_script.php?src_id=19515"
	},
	"version": "1.01"
}