{
	"repository": {
		"file-name": "parameter_objects.vim",
		"type": "file",
		"url": "http://www.vim.org/scripts/download_script.php?src_id=12640",
		"vim-directory": "plugin"
	},
	"version": "0.2a"
}