{
	"author": "Tatu Tarvainen",
	"description": "Shows line that matches the entered curlybrace",
	"homepage": "http://www.vim.org/scripts/script.php?script_id=296",
	"name": "showbrace",
	"vim-script-nr": 296
}