{
	"repository": {
		"file-name": "sessions-0.1.1.vba.gz",
		"type": "archive",
		"unpack-sequence": [
			"gz",
			"vmb"
		],
		"url": "http://www.vim.org/scripts/download_script.php?src_id=12996"
	},
	"version": "0.1.1"
}