{
	"repository": {
		"file-name": "muttaliasescomplete.vim",
		"type": "file",
		"url": "http://www.vim.org/scripts/download_script.php?src_id=11299",
		"vim-directory": "plugin"
	},
	"version": "0.2"
}