{
	"repository": {
		"file-name": "RemoveTrailingSpace.vim",
		"type": "file",
		"url": "http://www.vim.org/scripts/download_script.php?src_id=7065",
		"vim-directory": "plugin"
	},
	"version": "1.1"
}