{
	"author": "Thomas Baruchel",
	"description": "A pop-up menu for inserting APL characters",
	"homepage": "http://www.vim.org/scripts/script.php?script_id=4857",
	"name": "APL_character_picker",
	"vim-script-nr": 4857
}