{
	"author": "Anubhav Srivastava",
	"description": "Adds directory shortcuts to winmanager for faster traversal across file system",
	"homepage": "http://www.vim.org/scripts/script.php?script_id=187",
	"name": "win_manager_Improved",
	"vim-script-nr": 187
}