{
	"repository": {
		"file-name": "breakpts-4.0.zip",
		"type": "archive",
		"unpack-sequence": [
			"zip"
		],
		"url": "http://www.vim.org/scripts/download_script.php?src_id=8142"
	},
	"version": "4.0"
}