{
	"author": "Charles Campbell",
	"description": "Helps plugin writers find trouble-causing options before their users do",
	"homepage": "http://www.vim.org/scripts/script.php?script_id=1489",
	"name": "PluginKiller",
	"vim-script-nr": 1489
}