{
	"repository": {
		"file-name": "trag.vba.gz",
		"type": "archive",
		"unpack-sequence": [
			"gz",
			"vmb"
		],
		"url": "http://www.vim.org/scripts/download_script.php?src_id=11546"
	},
	"version": "0.6"
}