{
	"repository": {
		"file-name": "lh-map-tools-0.6.1.vba",
		"type": "archive",
		"unpack-sequence": [
			"vmb"
		],
		"url": "http://www.vim.org/scripts/download_script.php?src_id=8321"
	},
	"version": "0.6.1"
}