{
	"author": "Dmitry Geurkov",
	"description": "plugin for interacting with Mac OS X pastebuffer",
	"homepage": "http://www.vim.org/scripts/script.php?script_id=4157",
	"name": "pb",
	"vim-script-nr": 4157
}