{
	"repository": {
		"file-name": "webapi-vim.zip",
		"type": "archive",
		"unpack-sequence": [
			"zip"
		],
		"url": "http://www.vim.org/scripts/download_script.php?src_id=17780"
	},
	"version": "0.1"
}