{
	"author": "Scott Updike",
	"description": "plugin for appending to the default register",
	"homepage": "http://www.vim.org/scripts/script.php?script_id=5118",
	"name": "AppendToClip",
	"vim-script-nr": 5118
}