{
	"author": "Shawn Axsom",
	"description": "A simplistic blue Color Scheme tailored for the 16-color Terminal",
	"homepage": "http://www.vim.org/scripts/script.php?script_id=1495",
	"name": "derefined",
	"vim-script-nr": 1495
}