{
	"author": "ChonBin Liao",
	"description": "Hitachi H8S, H8/300 assemble language syntax",
	"homepage": "http://www.vim.org/scripts/script.php?script_id=1373",
	"name": "asmh8300",
	"vim-script-nr": 1373
}