{
	"author": "t9 md",
	"description": "Maniplate(duplicate, move) selected text easily",
	"homepage": "http://www.vim.org/scripts/script.php?script_id=3491",
	"name": "textmanip",
	"vim-script-nr": 3491
}