{
	"author": "Alexander Belyaev",
	"description": "The plugin provides ability to work with rubygems.org inside Vim",
	"homepage": "http://www.vim.org/scripts/script.php?script_id=5004",
	"name": "vim-rubygems",
	"vim-script-nr": 5004
}