{
	"author": "Benji Fisher",
	"description": "Support files for editing plain TeX documents",
	"homepage": "http://www.vim.org/scripts/script.php?script_id=1685",
	"name": "plaintex",
	"vim-script-nr": 1685
}