{
	"author": "Aydar Khabibullin",
	"description": "Obsidian2 Color scheme based on Notepad++ obsidian Color scheme",
	"homepage": "http://www.vim.org/scripts/script.php?script_id=3428",
	"name": "obsidian2",
	"vim-script-nr": 3428
}