{
	"repository": {
		"file-name": "blogger-2.4.zip",
		"type": "archive",
		"unpack-sequence": [
			"zip"
		],
		"url": "http://www.vim.org/scripts/download_script.php?src_id=14247"
	},
	"version": "2.4"
}