{
	"repository": {
		"file-name": "vimconfig-1.4.tar.gz",
		"strip-components": 1,
		"type": "archive",
		"unpack-sequence": [
			"gz",
			"tar"
		],
		"url": "http://www.vim.org/scripts/download_script.php?src_id=608"
	},
	"version": "1.4"
}