{
	"author": "Mikhail Wolfson",
	"description": "improved python compiler script",
	"homepage": "http://www.vim.org/scripts/script.php?script_id=3044",
	"name": "compilerpython%3044",
	"vim-script-nr": 3044
}