{
	"repository": {
		"file-name": "Viki.vba.gz",
		"type": "archive",
		"unpack-sequence": [
			"gz",
			"vmb"
		],
		"url": "http://www.vim.org/scripts/download_script.php?src_id=7132"
	},
	"version": "2.0"
}