{
	"author": "Matt C",
	"description": "Syntax highlighting for MediaWiki articles",
	"homepage": "http://www.vim.org/scripts/script.php?script_id=1787",
	"name": "wikipedia",
	"vim-script-nr": 1787
}