{
	"author": "Vincent B",
	"description": "Syntax for wavefront's obj file format",
	"homepage": "http://www.vim.org/scripts/script.php?script_id=2953",
	"name": "Wavefronts_obj",
	"vim-script-nr": 2953
}