{
	"author": "Rui Carlos Gon\u00e7alves",
	"description": "A dark background color scheme for GUI",
	"homepage": "http://www.vim.org/scripts/script.php?script_id=2073",
	"name": "rcg_gui",
	"vim-script-nr": 2073
}