{
	"repository": {
		"file-name": "vim-wwdc16-theme-1.2.0.tar.gz",
		"strip-components": 1,
		"type": "archive",
		"unpack-sequence": [
			"gz",
			"tar"
		],
		"url": "http://www.vim.org/scripts/download_script.php?src_id=25625"
	},
	"version": "v1.2.0"
}