{
	"author": "\u013dubom\u00edr Host",
	"description": "Database client - connect directly to database without external utility",
	"homepage": "http://www.vim.org/scripts/script.php?script_id=933",
	"name": "database-client",
	"vim-script-nr": 933
}