{
	"author": "J\u00f6rg Tretter",
	"description": "Reindent a complete file based on indent information taken out of indent file.",
	"homepage": "http://www.vim.org/scripts/script.php?script_id=633",
	"name": "Reindent",
	"vim-script-nr": 633
}