{
	"author": "Hong Xu",
	"description": "This plugin provides functions to read and write ini files for vimscript.",
	"homepage": "http://www.vim.org/scripts/script.php?script_id=3434",
	"name": "IniParser",
	"vim-script-nr": 3434
}