{
	"author": "Ye Ding",
	"description": "an ack/ag powered global code search and view tool",
	"homepage": "http://www.vim.org/scripts/script.php?script_id=5189",
	"name": "ctrlsf",
	"vim-script-nr": 5189
}