{
	"author": "Scott Peshak",
	"description": "Compiler file for the perlcritic syntax checker",
	"homepage": "http://www.vim.org/scripts/script.php?script_id=1731",
	"name": "perlcritic_compiler_script",
	"vim-script-nr": 1731
}