{
	"repository": {
		"file-name": "NERD_tree.zip",
		"type": "archive",
		"unpack-sequence": [
			"zip"
		],
		"url": "http://www.vim.org/scripts/download_script.php?src_id=8701"
	},
	"version": "2.9.0"
}