{
	"author": "Charles Campbell",
	"description": "Spelling checker: On-the-fly spell checking, multi-language, alternate spellings",
	"homepage": "http://www.vim.org/scripts/script.php?script_id=195",
	"name": "Engspchk",
	"vim-script-nr": 195
}