{
	"repository": {
		"file-name": "pcpheader-1.0.0.tar.gz",
		"type": "archive",
		"unpack-sequence": [
			"gz",
			"tar"
		],
		"url": "http://www.vim.org/scripts/download_script.php?src_id=1335"
	},
	"version": "1.0"
}