{
	"repository": {
		"file-name": "SudoEdit-0.21.vmb",
		"type": "archive",
		"unpack-sequence": [
			"vmb"
		],
		"url": "http://www.vim.org/scripts/download_script.php?src_id=22796"
	},
	"version": "21"
}