{
	"repository": {
		"file-name": "vcscommand.zip",
		"type": "archive",
		"unpack-sequence": [
			"zip"
		],
		"url": "http://www.vim.org/scripts/download_script.php?src_id=11044"
	},
	"version": "beta30"
}