{
	"author": "Robert Sarkozi",
	"description": "Lightweight plugin for viewing mappings from vimrc",
	"homepage": "http://www.vim.org/scripts/script.php?script_id=5487",
	"name": "ViewMaps",
	"vim-script-nr": 5487
}