{
	"repository": {
		"file-name": "blogit-1.4.1.tar.bz2",
		"type": "archive",
		"unpack-sequence": [
			"bz2",
			"tar"
		],
		"url": "http://www.vim.org/scripts/download_script.php?src_id=11408"
	},
	"version": "1.4.1"
}