{
	"repository": {
		"file-name": "project.tar.gz",
		"type": "archive",
		"unpack-sequence": [
			"gz",
			"tar"
		],
		"url": "http://www.vim.org/scripts/download_script.php?src_id=236"
	},
	"version": "1.0pre2"
}