{
	"repository": {
		"file-name": "literatevimrc.tar.gz",
		"type": "archive",
		"unpack-sequence": [
			"gz",
			"tar"
		],
		"url": "http://www.vim.org/scripts/download_script.php?src_id=25312"
	},
	"version": "0.0.1"
}