{
	"repository": {
		"file-name": "mjbrownie-vim-htmldjango_omnicomplete-7c6d8c7.tar.gz",
		"strip-components": 1,
		"type": "archive",
		"unpack-sequence": [
			"gz",
			"tar"
		],
		"url": "http://www.vim.org/scripts/download_script.php?src_id=18003"
	},
	"version": "0.8"
}