{
	"repository": {
		"file-name": "toggle_unit_tests.vba",
		"type": "archive",
		"unpack-sequence": [
			"vmb"
		],
		"url": "http://www.vim.org/scripts/download_script.php?src_id=9739"
	},
	"version": "1.0"
}