{
	"author": "Benoit Cerrina",
	"description": "Creates a menu of tags (functions, fields...) keep track of the current function",
	"homepage": "http://www.vim.org/scripts/script.php?script_id=100",
	"name": "TagsBase.zip",
	"vim-script-nr": 100
}