{
	"author": "Taku Miyakawa",
	"description": "Vim Plugin for Kink Programming Language",
	"homepage": "http://www.vim.org/scripts/script.php?script_id=4618",
	"name": "kink",
	"vim-script-nr": 4618
}