{
	"repository": {
		"file-name": "NrrwRgn-0.24.vmb",
		"type": "archive",
		"unpack-sequence": [
			"vmb"
		],
		"url": "http://www.vim.org/scripts/download_script.php?src_id=16734"
	},
	"version": "24"
}