{
	"author": "Christian Habermann",
	"description": "ascii table with some nice features",
	"homepage": "http://www.vim.org/scripts/script.php?script_id=898",
	"name": "CharTab",
	"vim-script-nr": 898
}