{
	"author": "kaustubh p",
	"description": "Aotomatically generates Doxygen style documentation template for C functions",
	"homepage": "http://www.vim.org/scripts/script.php?script_id=1657",
	"name": "doxygenerator",
	"vim-script-nr": 1657
}