{
	"author": "   ",
	"description": "Persistent settings for gVim (Mac/Linux/Win)",
	"homepage": "http://www.vim.org/scripts/script.php?script_id=3626",
	"name": "AutoSaveSetting",
	"vim-script-nr": 3626
}