{
	"author": "Leonid Fedorenchik",
	"description": "Plugin that provides a convenient interactive calculator inside a Vim buffer",
	"homepage": "http://www.vim.org/scripts/script.php?script_id=5590",
	"name": "VimCalc3",
	"vim-script-nr": 5590
}