{
	"author": "Alexander Tsygankov",
	"description": "Efficient way to edit remote files on multiple environments",
	"homepage": "http://www.vim.org/scripts/script.php?script_id=5204",
	"name": "mirror",
	"vim-script-nr": 5204
}