{
	"author": "tocer deng",
	"description": "Display Python code calltips and allows you to auto-complete your Python code",
	"homepage": "http://www.vim.org/scripts/script.php?script_id=1074",
	"name": "python_calltips",
	"vim-script-nr": 1074
}