{
	"repository": {
		"file-name": "xpt-0.4.7.tgz",
		"type": "archive",
		"unpack-sequence": [
			"gz",
			"tar"
		],
		"url": "http://www.vim.org/scripts/download_script.php?src_id=12910"
	},
	"version": "0.4.7-r807"
}