{
	"repository": {
		"file-name": "pytest-compiler-v0.5.1.zip",
		"type": "archive",
		"unpack-sequence": [
			"zip"
		],
		"url": "http://www.vim.org/scripts/download_script.php?src_id=20550"
	},
	"version": "0.5.1"
}