{
	"author": "Dirk Wallenstein",
	"description": "Search the current buffer for completions",
	"homepage": "http://www.vim.org/scripts/script.php?script_id=4590",
	"name": "localcomplete",
	"vim-script-nr": 4590
}