{
	"author": "David Larson",
	"description": "Want to mark up your files with a highlighter?",
	"homepage": "http://www.vim.org/scripts/script.php?script_id=1539",
	"name": "Highlighter",
	"vim-script-nr": 1539
}