{
	"author": "Marc Weber",
	"description": "some coding aids for writing vim scripts",
	"homepage": "http://www.vim.org/scripts/script.php?script_id=1963",
	"name": "vimscript_coding_aids",
	"vim-script-nr": 1963
}