{
	"author": "Michael McCutcheon",
	"description": "visual 'cvs diff -r version' utility for vim diffsplit",
	"homepage": "http://www.vim.org/scripts/script.php?script_id=3095",
	"name": "cvsdiff%3095",
	"vim-script-nr": 3095
}