{
	"author": "Tom Link",
	"description": "a wrapper for the glark command (a grep-like utility)",
	"homepage": "http://www.vim.org/scripts/script.php?script_id=1460",
	"name": "glark",
	"vim-script-nr": 1460
}