{
	"repository": {
		"file-name": "symfind-2.0.tgz",
		"strip-components": 1,
		"type": "archive",
		"unpack-sequence": [
			"gz",
			"tar"
		],
		"url": "http://www.vim.org/scripts/download_script.php?src_id=20443"
	},
	"version": "2.0"
}