{
	"repository": {
		"file-name": "mlessnau_bisectional_movement.vim",
		"type": "file",
		"url": "http://www.vim.org/scripts/download_script.php?src_id=20461",
		"vim-directory": "plugin"
	},
	"version": "0.1"
}