{
	"repository": {
		"file-name": "vim-diction.tar.gz",
		"type": "archive",
		"unpack-sequence": [
			"gz",
			"tar"
		],
		"url": "http://www.vim.org/scripts/download_script.php?src_id=24203"
	},
	"version": "2"
}