{
	"author": "Charles Campbell",
	"description": "Some utilities used by several of my scripts (window positioning, mark handling)",
	"homepage": "http://www.vim.org/scripts/script.php?script_id=1066",
	"name": "cecutil",
	"vim-script-nr": 1066
}