{
	"repository": {
		"file-name": "vim-publish-helper-0.8.1.tgz",
		"type": "archive",
		"unpack-sequence": [
			"gz",
			"tar"
		],
		"url": "http://www.vim.org/scripts/download_script.php?src_id=21467"
	},
	"version": "0.8.1"
}