{
	"author": "Dave Vehrs",
	"description": "A script to automate folding based on markers and syntax.",
	"homepage": "http://www.vim.org/scripts/script.php?script_id=925",
	"name": "AutoFold",
	"vim-script-nr": 925
}