{
	"repository": {
		"file-name": "vide-1.0.0.tar",
		"strip-components": 1,
		"type": "archive",
		"unpack-sequence": [
			"tar"
		],
		"url": "http://www.vim.org/scripts/download_script.php?src_id=21636"
	},
	"version": "1.0.0"
}