{
	"author": "wei ko kao",
	"description": "Syntax for popular JavasSript libs",
	"homepage": "http://www.vim.org/scripts/script.php?script_id=4428",
	"name": "JavaScript_Libraries_Syntax",
	"vim-script-nr": 4428
}