{
	"repository": {
		"file-name": "code2html_vim.gz",
		"type": "file",
		"unpack-sequence": [
			"gz"
		],
		"url": "http://www.vim.org/scripts/download_script.php?src_id=1105",
		"vim-directory": "plugin"
	},
	"version": "1.2"
}