{
	"repository": {
		"file-name": "thesaurus_query.vim-0.5.0.tar.gz",
		"strip-components": 1,
		"type": "archive",
		"unpack-sequence": [
			"gz",
			"tar"
		],
		"url": "http://www.vim.org/scripts/download_script.php?src_id=24389"
	},
	"version": "v0.5.0"
}