{
	"author": "Vissale NEANG",
	"description": "C/C++ omni-completion with ctags database",
	"homepage": "http://www.vim.org/scripts/script.php?script_id=1520",
	"name": "OmniCppComplete",
	"vim-script-nr": 1520
}