{
	"author": "Kris Jenkins",
	"description": "SQL syntax-highlighting within .java files.",
	"homepage": "http://www.vim.org/scripts/script.php?script_id=4206",
	"name": "vim-java-sql",
	"vim-script-nr": 4206
}