{
	"author": "Colin Keith",
	"description": "Automate creating perl modules via h2xs",
	"homepage": "http://www.vim.org/scripts/script.php?script_id=466",
	"name": "perl_h2xs",
	"vim-script-nr": 466
}