{
	"repository": {
		"file-name": "unite-font-1.0.zip",
		"type": "archive",
		"unpack-sequence": [
			"zip"
		],
		"url": "http://www.vim.org/scripts/download_script.php?src_id=14239"
	},
	"version": "1.0"
}