{
	"repository": {
		"file-name": "mrswin.vim.bz2",
		"type": "file",
		"unpack-sequence": [
			"bz2"
		],
		"url": "http://www.vim.org/scripts/download_script.php?src_id=3241",
		"vim-directory": "plugin"
	},
	"version": "3"
}