{
	"repository": {
		"file-name": "vim-r-plugin2-100719.zip",
		"type": "archive",
		"unpack-sequence": [
			"zip"
		],
		"url": "http://www.vim.org/scripts/download_script.php?src_id=13353"
	},
	"version": "100719"
}