{
	"author": "Mathias Panzenb\u00f6ck",
	"description": "brainfuck syntax support",
	"homepage": "http://www.vim.org/scripts/script.php?script_id=716",
	"name": "brainfuck_syntax",
	"vim-script-nr": 716
}