{
	"repository": {
		"file-name": "vim-ultimate-colorscheme-utility-v0.2.0a.tar",
		"strip-components": 1,
		"type": "archive",
		"unpack-sequence": [
			"tar"
		],
		"url": "http://www.vim.org/scripts/download_script.php?src_id=20749"
	},
	"version": "0.2.0a"
}