{
	"author": "Dmitry Ermolov",
	"description": "AutoCpp types complex C++ typenames for you.",
	"homepage": "http://www.vim.org/scripts/script.php?script_id=3648",
	"name": "AutoCpp",
	"vim-script-nr": 3648
}