{
	"repository": {
		"file-name": "greplace.zip",
		"type": "archive",
		"unpack-sequence": [
			"zip"
		],
		"url": "http://www.vim.org/scripts/download_script.php?src_id=6828"
	},
	"version": "1.0b1"
}