{
	"repository": {
		"file-name": "cvscommand.zip",
		"type": "archive",
		"unpack-sequence": [
			"zip"
		],
		"url": "http://www.vim.org/scripts/download_script.php?src_id=4987"
	},
	"version": "1.72"
}