{
	"author": "Martin Kopischke",
	"description": "A spelling suggestion source for unite.vim",
	"homepage": "http://www.vim.org/scripts/script.php?script_id=4929",
	"name": "unite-spell-suggest",
	"vim-script-nr": 4929
}