{
	"author": "Niels Aan de Brugh",
	"description": "Minimal but smart parentheses handling for programming",
	"homepage": "http://www.vim.org/scripts/script.php?script_id=3210",
	"name": "Smart_Parentheses",
	"vim-script-nr": 3210
}