{
	"author": "Dave Vehrs",
	"description": "A script to help keep an organized collection of notes with linking.",
	"homepage": "http://www.vim.org/scripts/script.php?script_id=828",
	"name": "VimNotes",
	"vim-script-nr": 828
}