{
	"author": "Christophe Gouiran",
	"description": "Convert vim usrguide txt files to latex",
	"homepage": "http://www.vim.org/scripts/script.php?script_id=130",
	"name": "usr2latex.pl",
	"vim-script-nr": 130
}