{
	"repository": {
		"file-name": "vim-rubygems.zip",
		"type": "archive",
		"unpack-sequence": [
			"zip"
		],
		"url": "http://www.vim.org/scripts/download_script.php?src_id=22335"
	},
	"version": "0.0.1"
}