{
	"repository": {
		"file-name": "yankring_70.zip",
		"type": "archive",
		"unpack-sequence": [
			"zip"
		],
		"url": "http://www.vim.org/scripts/download_script.php?src_id=9504"
	},
	"version": "7.0"
}