{
	"author": "Connor Berry",
	"description": "Dark background colorscheme designed for console and Gui.",
	"homepage": "http://www.vim.org/scripts/script.php?script_id=1570",
	"name": "redstring",
	"vim-script-nr": 1570
}