{
	"repository": {
		"file-name": "quickfont-1.16.tar.gz",
		"type": "archive",
		"unpack-sequence": [
			"gz",
			"tar"
		],
		"url": "http://www.vim.org/scripts/download_script.php?src_id=798"
	},
	"version": "1.16"
}