{
	"repository": {
		"file-name": "command-t-1.1b2.vba",
		"type": "archive",
		"unpack-sequence": [
			"vmb"
		],
		"url": "http://www.vim.org/scripts/download_script.php?src_id=15305"
	},
	"version": "1.1b2"
}