{
	"author": "Tim Pope",
	"description": "A Git wrapper so awesome, it should be illegal",
	"homepage": "http://www.vim.org/scripts/script.php?script_id=2975",
	"name": "fugitive",
	"vim-script-nr": 2975
}