{
	"repository": {
		"file-name": "IndentConsistencyCopAutoCmds-1.40.vmb.gz",
		"type": "archive",
		"unpack-sequence": [
			"gz",
			"vmb"
		],
		"url": "http://www.vim.org/scripts/download_script.php?src_id=18695"
	},
	"version": "1.40"
}