{
	"author": "Alexandre Lima",
	"description": "Syntax highlighting for txt2tags documents",
	"homepage": "http://www.vim.org/scripts/script.php?script_id=1157",
	"name": "txt2tags",
	"vim-script-nr": 1157
}