{
	"author": "Jon Raphaelson",
	"description": "A port of the Tutti Colori theme from the Espresso editor",
	"homepage": "http://www.vim.org/scripts/script.php?script_id=2670",
	"name": "TuttiColori_Colorscheme",
	"vim-script-nr": 2670
}