{
	"author": "Alex Lance",
	"description": "A filetype plugin to enable easy screenplay writing",
	"homepage": "http://www.vim.org/scripts/script.php?script_id=1842",
	"name": "screenplay",
	"vim-script-nr": 1842
}