{
	"repository": {
		"file-name": "outlookvim_v7.zip",
		"type": "archive",
		"unpack-sequence": [
			"zip"
		],
		"url": "http://www.vim.org/scripts/download_script.php?src_id=18768"
	},
	"version": "7.0"
}