{
	"author": "Steven Mueller",
	"description": "Functions and mappings to close open HTML/XML tags",
	"homepage": "http://www.vim.org/scripts/script.php?script_id=13",
	"name": "closetag",
	"vim-script-nr": 13
}