{
	"author": "Tim Pope",
	"description": "Interface with pastie.org; read and create pastes",
	"homepage": "http://www.vim.org/scripts/script.php?script_id=1624",
	"name": "pastie",
	"vim-script-nr": 1624
}