{
	"repository": {
		"file-name": "coq_IDE-0.94b.tgz",
		"type": "archive",
		"unpack-sequence": [
			"gz",
			"tar"
		],
		"url": "http://www.vim.org/scripts/download_script.php?src_id=19811"
	},
	"version": "0.94b"
}