{
	"author": "Dave Long",
	"description": "ColdFusion (CF) syntax highlighting and utilities for Vim",
	"homepage": "http://www.vim.org/scripts/script.php?script_id=4397",
	"name": "CF_Utils",
	"vim-script-nr": 4397
}