{
	"repository": {
		"file-name": "taglist_41.zip",
		"type": "archive",
		"unpack-sequence": [
			"zip"
		],
		"url": "http://www.vim.org/scripts/download_script.php?src_id=6158"
	},
	"version": "4.1"
}