{
	"author": "Franz Schanovsky",
	"description": "Marker-based alginment of small chunks of text.",
	"homepage": "http://www.vim.org/scripts/script.php?script_id=5326",
	"name": "Quickalign",
	"vim-script-nr": 5326
}