{
	"repository": {
		"file-name": "ctrlp-funky-0.8.2.zip",
		"type": "archive",
		"unpack-sequence": [
			"zip"
		],
		"url": "http://www.vim.org/scripts/download_script.php?src_id=21520"
	},
	"version": "0.8.2"
}