{
	"author": "St\u00e9phane PY",
	"description": "Integrate php-cs-fixer created by fabpot.",
	"homepage": "http://www.vim.org/scripts/script.php?script_id=4083",
	"name": "php-cs-fixer",
	"vim-script-nr": 4083
}