{
	"author": "Aug F",
	"description": "TF2 .cfg syntax highlighting. https://github.com/au/vim-tf2",
	"homepage": "http://www.vim.org/scripts/script.php?script_id=5414",
	"name": "vim-tf2",
	"vim-script-nr": 5414
}