{
	"repository": {
		"file-name": "orgmode.vba",
		"type": "archive",
		"unpack-sequence": [
			"vmb"
		],
		"url": "http://www.vim.org/scripts/download_script.php?src_id=15974"
	},
	"version": "0.2"
}