{
	"author": "Nate Peterson",
	"description": "Cursor line number color = Airline mode color",
	"homepage": "http://www.vim.org/scripts/script.php?script_id=5219",
	"name": "airline-colornum",
	"vim-script-nr": 5219
}