{
	"repository": {
		"file-name": "AutomaticTexPlugin_12.3.vmb",
		"type": "archive",
		"unpack-sequence": [
			"vmb"
		],
		"url": "http://www.vim.org/scripts/download_script.php?src_id=19965"
	},
	"version": "12.3"
}