{
	"author": "Bidit Mazumder",
	"description": "An easy-breezy colorscheme that captures the look and feel of Xcode.",
	"homepage": "http://www.vim.org/scripts/script.php?script_id=4072",
	"name": "sonoma",
	"vim-script-nr": 4072
}