{
	"author": "Gary Holloway",
	"description": "Show syntax highlighting attributes of character under cursor.",
	"homepage": "http://www.vim.org/scripts/script.php?script_id=383",
	"name": "SyntaxAttr",
	"vim-script-nr": 383
}