{
	"repository": {
		"file-name": "vim-exjumplist-0.0.0.zip",
		"strip-components": 1,
		"type": "archive",
		"unpack-sequence": [
			"zip"
		],
		"url": "http://www.vim.org/scripts/download_script.php?src_id=11763"
	},
	"version": "0.0.0"
}