{
	"author": "Robert Melton",
	"description": "Evening & Torte + Special Sauce == Good",
	"homepage": "http://www.vim.org/scripts/script.php?script_id=985",
	"name": "metacosm",
	"vim-script-nr": 985
}