{
	"author": "Yakov Lerner",
	"description": "convenient, browser-like scrolling for viewing readonly files",
	"homepage": "http://www.vim.org/scripts/script.php?script_id=718",
	"name": "browser-like-scrolling-for-readonly-file",
	"vim-script-nr": 718
}