{
	"author": "Dmitry Frank",
	"description": "Plugin for managing options for different projects",
	"homepage": "http://www.vim.org/scripts/script.php?script_id=3872",
	"name": "vimprj",
	"vim-script-nr": 3872
}