{
	"repository": {
		"file-name": "translit3-3.0.tar.gz",
		"type": "archive",
		"unpack-sequence": [
			"gz",
			"tar"
		],
		"url": "http://www.vim.org/scripts/download_script.php?src_id=15977"
	},
	"version": "3.0"
}