{
	"author": "Russell Brinkmann",
	"description": "Teraterm MACRO syntax highlighting",
	"homepage": "http://www.vim.org/scripts/script.php?script_id=3129",
	"name": "teraterm",
	"vim-script-nr": 3129
}