{
	"author": "Ingo Karkat",
	"description": "Define a different filetype syntax on regions of a buffer.",
	"homepage": "http://www.vim.org/scripts/script.php?script_id=4168",
	"name": "SyntaxRange",
	"vim-script-nr": 4168
}