{
	"repository": {
		"file-name": "Colorizer-0.9.vmb",
		"type": "archive",
		"unpack-sequence": [
			"vmb"
		],
		"url": "http://www.vim.org/scripts/download_script.php?src_id=20647"
	},
	"version": "9"
}