{
	"repository": {
		"file-name": "vim-autocomplpop.zip",
		"type": "archive",
		"unpack-sequence": [
			"zip"
		],
		"url": "http://www.vim.org/scripts/download_script.php?src_id=11373"
	},
	"version": "2.8"
}