{
	"author": "Sergey Khorev",
	"description": "Navigation and section handling for reStructuredText",
	"homepage": "http://www.vim.org/scripts/script.php?script_id=4355",
	"name": "reStructuredText_ftplugin",
	"vim-script-nr": 4355
}