{
	"author": "Benjamin Coddington",
	"description": "Use curl to get and post pages in mediawiki sites using basic auth",
	"homepage": "http://www.vim.org/scripts/script.php?script_id=3775",
	"name": "wiki%3775",
	"vim-script-nr": 3775
}