{
	"repository": {
		"file-name": "gen_tags.vim-0.9.tar.gz",
		"strip-components": 1,
		"type": "archive",
		"unpack-sequence": [
			"gz",
			"tar"
		],
		"url": "http://www.vim.org/scripts/download_script.php?src_id=25061"
	},
	"version": "0.9"
}