{
	"repository": {
		"file-name": "vimside.zip",
		"strip-components": 1,
		"type": "archive",
		"unpack-sequence": [
			"zip"
		],
		"url": "http://www.vim.org/scripts/download_script.php?src_id=19638"
	},
	"version": "0.2.21"
}