{
	"author": "Eric Van Dewoestine",
	"description": "Open archives in vim as a tree or flat list, w/ nesting support.",
	"homepage": "http://www.vim.org/scripts/script.php?script_id=1093",
	"name": "Archive",
	"vim-script-nr": 1093
}