{
	"repository": {
		"file-name": "UnconditionalPaste.vba.gz",
		"type": "archive",
		"unpack-sequence": [
			"gz",
			"vmb"
		],
		"url": "http://www.vim.org/scripts/download_script.php?src_id=18142"
	},
	"version": "1.21"
}