{
	"author": "Jon Cairns",
	"description": "An awesome debugging client for Vim, Xdebug and PHP",
	"homepage": "http://www.vim.org/scripts/script.php?script_id=4074",
	"name": "Xdebug",
	"vim-script-nr": 4074
}