{
	"author": "qiming zhao",
	"description": "Autoload functions to help vim user work with macos",
	"homepage": "http://www.vim.org/scripts/script.php?script_id=5316",
	"name": "vim-macos",
	"vim-script-nr": 5316
}