{
	"repository": {
		"file-name": "dbext_1400.zip",
		"type": "archive",
		"unpack-sequence": [
			"zip"
		],
		"url": "http://www.vim.org/scripts/download_script.php?src_id=17722"
	},
	"version": "14.0"
}