{
	"repository": {
		"file-name": "optistruct_linux.tar.gz",
		"type": "archive",
		"unpack-sequence": [
			"gz",
			"tar"
		],
		"url": "http://www.vim.org/scripts/download_script.php?src_id=5412"
	},
	"version": "110306"
}