{
	"author": "Vanessa McHale",
	"description": "Syntax highlighting for the Madlibs DSL",
	"homepage": "http://www.vim.org/scripts/script.php?script_id=5510",
	"name": "madlang-vim",
	"vim-script-nr": 5510
}