{
	"repository": {
		"file-name": "lojban.zip",
		"type": "archive",
		"unpack-sequence": [
			"zip"
		],
		"url": "http://www.vim.org/scripts/download_script.php?src_id=6805"
	},
	"version": "1.9-3.14"
}