{
	"author": "Andr\u00e9 Kelpe",
	"description": "Python documentation view- and search-tool (uses pydoc)",
	"homepage": "http://www.vim.org/scripts/script.php?script_id=910",
	"name": "python_pydoc",
	"vim-script-nr": 910
}