{
	"author": "Felipe Morales",
	"description": "A plugin to post to the tumblr.vim microblogging service",
	"homepage": "http://www.vim.org/scripts/script.php?script_id=3101",
	"name": "Tumble",
	"vim-script-nr": 3101
}