{
	"author": "Walter Hutchins",
	"description": "Like phps colorscheme, similar to php net. Light background. Xterm capability.",
	"homepage": "http://www.vim.org/scripts/script.php?script_id=1621",
	"name": "phpx",
	"vim-script-nr": 1621
}