{
	"author": "David Fishburn",
	"description": "OMNI Completion based on the current syntax highlights",
	"homepage": "http://www.vim.org/scripts/script.php?script_id=3172",
	"name": "SyntaxComplete",
	"vim-script-nr": 3172
}