{
	"author": "Kamil Kisiel",
	"description": "A color scheme optimized for viewing in Terminal.app",
	"homepage": "http://www.vim.org/scripts/script.php?script_id=2459",
	"name": "enzyme",
	"vim-script-nr": 2459
}