{
	"repository": {
		"file-name": "FindOccurrence-1.01.vmb.gz",
		"type": "archive",
		"unpack-sequence": [
			"gz",
			"vmb"
		],
		"url": "http://www.vim.org/scripts/download_script.php?src_id=21927"
	},
	"version": "1.01"
}