{
	"repository": {
		"file-name": "paredit096.zip",
		"type": "archive",
		"unpack-sequence": [
			"zip"
		],
		"url": "http://www.vim.org/scripts/download_script.php?src_id=17699"
	},
	"version": "0.9.6"
}