{
	"author": "Thaer Khawaja",
	"description": "Automated Vim session management and file auto-save",
	"homepage": "http://www.vim.org/scripts/script.php?script_id=5502",
	"name": "vim-workspace",
	"vim-script-nr": 5502
}