{
	"repository": {
		"file-name": "visual-increment 1.0.2.7z",
		"type": "file",
		"url": "http://www.vim.org/scripts/download_script.php?src_id=15567",
		"vim-directory": "other"
	},
	"version": "1.0.2"
}