{
	"author": "Marko Mahni\u010d",
	"description": "Some useful keymappings for movement",
	"homepage": "http://www.vim.org/scripts/script.php?script_id=3050",
	"name": "smartmove",
	"vim-script-nr": 3050
}