{
	"author": "Diego Garcia",
	"description": "Just a python compilers for VIM",
	"homepage": "http://www.vim.org/scripts/script.php?script_id=5417",
	"name": "python-compilers",
	"vim-script-nr": 5417
}