{
	"author": "Bogdan Popa",
	"description": "PyREPL.vim is a plugin that provides a way to run a Python REPL inside buffer.",
	"homepage": "http://www.vim.org/scripts/script.php?script_id=3484",
	"name": "PyREPL",
	"vim-script-nr": 3484
}