{
	"repository": {
		"file-name": "mjbrownie-django-template-textobjects-fc9c815.tar.gz",
		"strip-components": 1,
		"type": "archive",
		"unpack-sequence": [
			"gz",
			"tar"
		],
		"url": "http://www.vim.org/scripts/download_script.php?src_id=18423"
	},
	"version": "0.2.1"
}