{
	"repository": {
		"file-name": "vimpy-master.zip",
		"strip-components": 1,
		"type": "archive",
		"unpack-sequence": [
			"zip"
		],
		"url": "http://www.vim.org/scripts/download_script.php?src_id=20464"
	},
	"version": "0.2.0"
}