{
	"author": "Takeshi NISHIDA",
	"description": "Automatically opens popup menu for completions",
	"homepage": "http://www.vim.org/scripts/script.php?script_id=1879",
	"name": "AutoComplPop",
	"vim-script-nr": 1879
}