{
	"author": "Rene de Zwart",
	"description": "helps editing xml (and [x]html, sgml, xslt) files",
	"homepage": "http://www.vim.org/scripts/script.php?script_id=1397",
	"name": "xml",
	"vim-script-nr": 1397
}