{
	"repository": {
		"file-name": "xpath.vba",
		"type": "archive",
		"unpack-sequence": [
			"vmb"
		],
		"url": "http://www.vim.org/scripts/download_script.php?src_id=15394"
	},
	"version": "1.10"
}