{
	"author": "Vincent B",
	"description": "Add some conceal operation to haskell's syntax",
	"homepage": "http://www.vim.org/scripts/script.php?script_id=3200",
	"name": "Haskell_Conceal",
	"vim-script-nr": 3200
}