{
	"repository": {
		"file-name": "vim-makeshift-0.6.zip",
		"strip-components": 1,
		"type": "archive",
		"unpack-sequence": [
			"zip"
		],
		"url": "http://www.vim.org/scripts/download_script.php?src_id=20153"
	},
	"version": "0.6"
}