{
	"repository": {
		"file-name": "jexplorer.zip",
		"type": "archive",
		"unpack-sequence": [
			"zip"
		],
		"url": "http://www.vim.org/scripts/download_script.php?src_id=3721"
	},
	"version": "0.5beta"
}