{
	"repository": {
		"file-name": "runVimTests.zip",
		"type": "archive",
		"unpack-sequence": [
			"zip"
		],
		"url": "http://www.vim.org/scripts/download_script.php?src_id=10177"
	},
	"version": "1.10"
}