{
	"author": "Michael Geddes",
	"description": "Persistent abbreviations",
	"homepage": "http://www.vim.org/scripts/script.php?script_id=2477",
	"name": "Persistent_Abbreviations",
	"vim-script-nr": 2477
}