{
	"repository": {
		"file-name": "pypi-0.0.2.zip",
		"type": "archive",
		"unpack-sequence": [
			"zip"
		],
		"url": "http://www.vim.org/scripts/download_script.php?src_id=23531"
	},
	"version": "0.0.2"
}