{
	"repository": {
		"file-name": "nose.vim.tar.gz",
		"strip-components": 1,
		"type": "archive",
		"unpack-sequence": [
			"gz",
			"tar"
		],
		"url": "http://www.vim.org/scripts/download_script.php?src_id=17039"
	},
	"version": "0.1"
}