{
	"author": "ryan kulla",
	"description": "Make your text appear as animated Christmas lights",
	"homepage": "http://www.vim.org/scripts/script.php?script_id=831",
	"name": "xmaslights",
	"vim-script-nr": 831
}