{
	"repository": {
		"file-name": "vjde.tgz",
		"type": "archive",
		"unpack-sequence": [
			"gz",
			"tar"
		],
		"url": "http://www.vim.org/scripts/download_script.php?src_id=4549"
	},
	"version": "2.02.02"
}