{
	"author": "Xuesong Lu",
	"description": "Easy and quick documentation in asciidoc.",
	"homepage": "http://www.vim.org/scripts/script.php?script_id=3833",
	"name": "TVO_The_Vim_Outliner_with_asciidoc_supp",
	"vim-script-nr": 3833
}