{
	"repository": {
		"file-name": "vimcdoc-0.9.0.tar.gz",
		"strip-components": 1,
		"type": "archive",
		"unpack-sequence": [
			"gz",
			"tar"
		],
		"url": "http://www.vim.org/scripts/download_script.php?src_id=5473"
	},
	"version": "0.9.0"
}