{
	"repository": {
		"file-name": "vebugger_v1.1.0.zip",
		"type": "archive",
		"unpack-sequence": [
			"zip"
		],
		"url": "http://www.vim.org/scripts/download_script.php?src_id=21931"
	},
	"version": "1.1.0+"
}