{
	"repository": {
		"file-name": "vim-javascript-syntax-0.8.2.zip",
		"strip-components": 1,
		"type": "archive",
		"unpack-sequence": [
			"zip"
		],
		"url": "http://www.vim.org/scripts/download_script.php?src_id=24038"
	},
	"version": "0.8.2"
}