{
	"author": "Pawel Stolowski",
	"description": "Syntax for Qt, KDE, wxWidgets, GTK1, GTK2 libraries",
	"homepage": "http://www.vim.org/scripts/script.php?script_id=1084",
	"name": "multiAPIsyntax",
	"vim-script-nr": 1084
}