{
	"repository": {
		"file-name": "automatic_vim_2017_08_27.tar.gz",
		"strip-components": 1,
		"type": "archive",
		"unpack-sequence": [
			"gz",
			"tar"
		],
		"url": "http://www.vim.org/scripts/download_script.php?src_id=25532"
	},
	"version": "2.20"
}