{
	"repository": {
		"file-name": "indexer-4.12.tar.gz",
		"strip-components": 1,
		"type": "archive",
		"unpack-sequence": [
			"gz",
			"tar"
		],
		"url": "http://www.vim.org/scripts/download_script.php?src_id=17250"
	},
	"version": "4.12"
}