{
	"author": "David Baelde",
	"description": "Much better OCaml indentation, and more...",
	"homepage": "http://www.vim.org/scripts/script.php?script_id=1196",
	"name": "omlet",
	"vim-script-nr": 1196
}