{
	"author": "@kevinwatters  ",
	"description": "PyFlakes on-the-fly Python code checking",
	"homepage": "http://www.vim.org/scripts/script.php?script_id=2441",
	"name": "pyflakes",
	"vim-script-nr": 2441
}