{
	"repository": {
		"file-name": "indentLine.zip",
		"type": "archive",
		"unpack-sequence": [
			"zip"
		],
		"url": "http://www.vim.org/scripts/download_script.php?src_id=19847"
	},
	"version": "1.0.5"
}