{
	"author": "Thomas Allen",
	"description": "Vim support for Standard ML programming",
	"homepage": "http://www.vim.org/scripts/script.php?script_id=5439",
	"name": "vim-sml",
	"vim-script-nr": 5439
}