{
	"repository": {
		"file-name": "ctags_highlighting.vba",
		"type": "archive",
		"unpack-sequence": [
			"vmb"
		],
		"url": "http://www.vim.org/scripts/download_script.php?src_id=12432"
	},
	"version": "387"
}