{
	"repository": {
		"file-name": "txtfmt_v3.0beta-2.tar.gz",
		"type": "archive",
		"unpack-sequence": [
			"gz",
			"tar"
		],
		"url": "http://www.vim.org/scripts/download_script.php?src_id=24211"
	},
	"version": "3.0beta-2"
}