{
	"repository": {
		"file-name": "vim-textobj-quoted.zip",
		"type": "archive",
		"unpack-sequence": [
			"zip"
		],
		"url": "http://www.vim.org/scripts/download_script.php?src_id=15614"
	},
	"version": "0.0.1"
}