{
	"author": "Cosimo Streppone",
	"description": "Wikidoc format syntax highlighting",
	"homepage": "http://www.vim.org/scripts/script.php?script_id=2127",
	"name": "Wikidoc_syntax_highlighting",
	"vim-script-nr": 2127
}