{
	"repository": {
		"file-name": "PA_translator.zip",
		"strip-components": 1,
		"type": "archive",
		"unpack-sequence": [
			"zip"
		],
		"url": "http://www.vim.org/scripts/download_script.php?src_id=10891"
	},
	"version": "0.0.2"
}