{
	"author": "luo chen",
	"description": "shorter code, no level limit, smooth and fast, powerful configuration.",
	"homepage": "http://www.vim.org/scripts/script.php?script_id=4176",
	"name": "Rainbow_Parentheses_Improved",
	"vim-script-nr": 4176
}