{
	"repository": {
		"file-name": "scvim-beta11.tar.gz",
		"strip-components": 1,
		"type": "archive",
		"unpack-sequence": [
			"gz",
			"tar"
		],
		"url": "http://www.vim.org/scripts/download_script.php?src_id=7985"
	},
	"version": "beta11"
}