{
	"repository": {
		"file-name": "command-t.vba",
		"type": "archive",
		"unpack-sequence": [
			"vmb"
		],
		"url": "http://www.vim.org/scripts/download_script.php?src_id=12679"
	},
	"version": "0.1"
}