{
	"repository": {
		"file-name": "fontsize-0.4.0.zip",
		"type": "archive",
		"unpack-sequence": [
			"zip"
		],
		"url": "http://www.vim.org/scripts/download_script.php?src_id=23641"
	},
	"version": "0.4.0"
}