{
	"author": "高 攀",
	"description": "add information about source file at head of file",
	"homepage": "http://www.vim.org/scripts/script.php?script_id=5540",
	"name": "vim-fileHeader",
	"vim-script-nr": 5540
}