{
	"author": "Robert KellyIV",
	"description": "Expanded version of VIM-TIP#335 - Copy C++ function declaration into implementat",
	"homepage": "http://www.vim.org/scripts/script.php?script_id=437",
	"name": "copycppdectoimp",
	"vim-script-nr": 437
}