{
	"author": "Andri M\u00f6ll",
	"description": "Tools to make Vim superb for developing with Node.js. Like Rails.vim for Node.",
	"homepage": "http://www.vim.org/scripts/script.php?script_id=4674",
	"name": "node",
	"vim-script-nr": 4674
}