{
	"repository": {
		"file-name": "vim-signify-1.5.tar.gz",
		"strip-components": 1,
		"type": "archive",
		"unpack-sequence": [
			"gz",
			"tar"
		],
		"url": "http://www.vim.org/scripts/download_script.php?src_id=19762"
	},
	"version": "1.5"
}