{
	"author": "Hari Krishna Dara",
	"description": "Set typewriter like tabstops.",
	"homepage": "http://www.vim.org/scripts/script.php?script_id=2797",
	"name": "SoftTabStops",
	"vim-script-nr": 2797
}