{
	"author": "Hans Fugal",
	"description": "A dark-background color scheme inspired by my hometown of Santa Fe, New Mexico",
	"homepage": "http://www.vim.org/scripts/script.php?script_id=105",
	"name": "desert",
	"vim-script-nr": 105
}