{
	"author": "C M",
	"description": "Adjust window size with Ctrl +jklh",
	"homepage": "http://www.vim.org/scripts/script.php?script_id=5051",
	"name": "directionalWindowResizer",
	"vim-script-nr": 5051
}