{
	"author": "Mike Z",
	"description": "Color scheme for the windows XP full screen console",
	"homepage": "http://www.vim.org/scripts/script.php?script_id=4187",
	"name": "cmd%4187",
	"vim-script-nr": 4187
}