{
	"repository": {
		"file-name": "grails-conque.tgz",
		"type": "archive",
		"unpack-sequence": [
			"gz",
			"tar"
		],
		"url": "http://www.vim.org/scripts/download_script.php?src_id=20267"
	},
	"version": "0.2+"
}