{
	"repository": {
		"file-name": "yankstack.tar",
		"strip-components": 1,
		"type": "archive",
		"unpack-sequence": [
			"gz",
			"tar"
		],
		"url": "http://www.vim.org/scripts/download_script.php?src_id=17033"
	},
	"version": "1.0.1++"
}