{
	"author": " Lifepillar",
	"description": "A cheat sheet that makes sense, inside Vim!",
	"homepage": "http://www.vim.org/scripts/script.php?script_id=5400",
	"name": "Cheat40",
	"vim-script-nr": 5400
}