{
	"author": "Jeroen Ruigrok van der Werven",
	"description": "A syntax highlighting file for JSON",
	"homepage": "http://www.vim.org/scripts/script.php?script_id=1945",
	"name": "JSON",
	"vim-script-nr": 1945
}