{
	"repository": {
		"file-name": "Lokaltog-vim-easymotion-1.0.10-0-g5809794.zip",
		"strip-components": 1,
		"type": "archive",
		"unpack-sequence": [
			"zip"
		],
		"url": "http://www.vim.org/scripts/download_script.php?src_id=15341"
	},
	"version": "1.0.10"
}