{
	"author": "John Sumsion",
	"description": "ftplugin for browsing HOWTO files",
	"homepage": "http://www.vim.org/scripts/script.php?script_id=847",
	"name": "howto_ftplugin",
	"vim-script-nr": 847
}