{
	"repository": {
		"file-name": "vim-r-plugin2-101023.zip",
		"type": "archive",
		"unpack-sequence": [
			"zip"
		],
		"url": "http://www.vim.org/scripts/download_script.php?src_id=14103"
	},
	"version": "101023"
}