{
	"author": "Kim Silkeb\u00e6kken",
	"description": "A dark vim color scheme for 256-color terminals.",
	"homepage": "http://www.vim.org/scripts/script.php?script_id=3529",
	"name": "Distinguished",
	"vim-script-nr": 3529
}