{
	"author": "Idan Arye",
	"description": "Abuse Rake to do project chores around Vim",
	"homepage": "http://www.vim.org/scripts/script.php?script_id=4732",
	"name": "Integrake",
	"vim-script-nr": 4732
}