{
	"repository": {
		"file-name": "vim-galaxy-1.2.0.tar.gz",
		"strip-components": 1,
		"type": "archive",
		"unpack-sequence": [
			"gz",
			"tar"
		],
		"url": "http://www.vim.org/scripts/download_script.php?src_id=17295"
	},
	"version": "1.2.0"
}