{
	"author": "Masaaki Nakamura",
	"description": "Make the yanked region apparent!",
	"homepage": "http://www.vim.org/scripts/script.php?script_id=5425",
	"name": "highlightedyank",
	"vim-script-nr": 5425
}