{
	"author": "Michael Fitz",
	"description": "Comfortable user-definable dialog-boxes for use in GVIM and some other goodies",
	"homepage": "http://www.vim.org/scripts/script.php?script_id=755",
	"name": "VDLGBX.DLL",
	"vim-script-nr": 755
}