{
	"repository": {
		"file-name": "simple-javascript-indenter-v1.3.2.tar.gz",
		"strip-components": 1,
		"type": "archive",
		"unpack-sequence": [
			"gz",
			"tar"
		],
		"url": "http://www.vim.org/scripts/download_script.php?src_id=14700"
	},
	"version": "1.3.2"
}