{
	"repository": {
		"file-name": "ccase-1.30-bugfixes.tgz",
		"type": "archive",
		"unpack-sequence": [
			"gz",
			"tar"
		],
		"url": "http://www.vim.org/scripts/download_script.php?src_id=1324"
	},
	"version": "1.30_bugfi"
}