{
	"author": "Derek McLoughlin",
	"description": "Put gvim in full screen on Windows",
	"homepage": "http://www.vim.org/scripts/script.php?script_id=2596",
	"name": "gvimfullscreen_win32",
	"vim-script-nr": 2596
}