{
	"repository": {
		"file-name": "VimChatBot_v12a.zip",
		"type": "archive",
		"unpack-sequence": [
			"zip"
		],
		"url": "http://www.vim.org/scripts/download_script.php?src_id=18786"
	},
	"version": "1.2a"
}