{
	"author": "William Estoque",
	"description": "An easy way to send shell commands to tmux from vim.",
	"homepage": "http://www.vim.org/scripts/script.php?script_id=4032",
	"name": "muxmate",
	"vim-script-nr": 4032
}