{
	"repository": {
		"file-name": "neverland-vim-theme.tar.gz",
		"type": "archive",
		"unpack-sequence": [
			"gz",
			"tar"
		],
		"url": "http://www.vim.org/scripts/download_script.php?src_id=14719"
	},
	"version": "1.0"
}