{
	"repository": {
		"file-name": "SudoEdit-0.12.vmb",
		"type": "archive",
		"unpack-sequence": [
			"vmb"
		],
		"url": "http://www.vim.org/scripts/download_script.php?src_id=17355"
	},
	"version": "12"
}