{
	"repository": {
		"file-name": "rapid_for_vim_v112_20160821.zip",
		"type": "archive",
		"unpack-sequence": [
			"zip"
		],
		"url": "http://www.vim.org/scripts/download_script.php?src_id=24460"
	},
	"version": "1.1.2"
}