{
	"author": "Rykka f",
	"description": "input special characters easier (+digraphs).",
	"homepage": "http://www.vim.org/scripts/script.php?script_id=3882",
	"name": "EasyDigraph",
	"vim-script-nr": 3882
}