{
	"repository": {
		"file-name": "indexer-2.01.tar.gz",
		"type": "archive",
		"unpack-sequence": [
			"gz",
			"tar"
		],
		"url": "http://www.vim.org/scripts/download_script.php?src_id=14270"
	},
	"version": "2.01"
}