{
	"author": "Jon Heiner",
	"description": "Browse a list of files below a root directory",
	"homepage": "http://www.vim.org/scripts/script.php?script_id=943",
	"name": "ProjectBrowse",
	"vim-script-nr": 943
}