{
	"author": "Lars Wilke",
	"description": "Returns a string, to be displayed for a closed fold",
	"homepage": "http://www.vim.org/scripts/script.php?script_id=1149",
	"name": "GetFDCText",
	"vim-script-nr": 1149
}