{
	"repository": {
		"file-name": "paredit097.zip",
		"type": "archive",
		"unpack-sequence": [
			"zip"
		],
		"url": "http://www.vim.org/scripts/download_script.php?src_id=18063"
	},
	"version": "0.9.7"
}