{
	"repository": {
		"file-name": "bufexplorer.zip",
		"type": "archive",
		"unpack-sequence": [
			"zip"
		],
		"url": "http://www.vim.org/scripts/download_script.php?src_id=7032"
	},
	"version": "7.0.15"
}