{
	"author": "Israel Chauca Fuentes",
	"description": "This plugin allows Mac OS X users to send e-mails from Vim using Mail.app.",
	"homepage": "http://www.vim.org/scripts/script.php?script_id=2813",
	"name": "MailApp",
	"vim-script-nr": 2813
}