{
	"author": "Pradeep Kudethur",
	"description": "Easy project navigation by listing the files",
	"homepage": "http://www.vim.org/scripts/script.php?script_id=1299",
	"name": "Project_Browser_or_File_explorer_for_vim",
	"vim-script-nr": 1299
}