{
	"repository": {
		"file-name": "vim-cmake-project-1.1.5.zip",
		"strip-components": 1,
		"type": "archive",
		"unpack-sequence": [
			"zip"
		],
		"url": "http://www.vim.org/scripts/download_script.php?src_id=18924"
	},
	"version": "1.1.5"
}