{
	"author": "Mahlon Smith",
	"description": "Functions to help make behavioral testing easy with ruby and rspec.",
	"homepage": "http://www.vim.org/scripts/script.php?script_id=2286",
	"name": "Specky",
	"vim-script-nr": 2286
}