{
	"repository": {
		"file-name": "fastfileselector.vim",
		"type": "file",
		"url": "http://www.vim.org/scripts/download_script.php?src_id=18300",
		"vim-directory": "plugin"
	},
	"version": "0.2.0"
}