{
	"author": "Michael Goerz",
	"description": "Send current range to STDIN of arbitrary program",
	"homepage": "http://www.vim.org/scripts/script.php?script_id=2608",
	"name": "send",
	"vim-script-nr": 2608
}