{
	"author": "Charles Ross",
	"description": "FileMaker calculation syntax highlighting and snippets",
	"homepage": "http://www.vim.org/scripts/script.php?script_id=4985",
	"name": "filemaker",
	"vim-script-nr": 4985
}