{
	"author": "Fabien LOISON",
	"description": "A simple color picker for VIM, based on GTK color chooser dialog.",
	"homepage": "http://www.vim.org/scripts/script.php?script_id=3224",
	"name": "VIM_Color_Picker",
	"vim-script-nr": 3224
}