{
	"author": "David Briscoe",
	"description": "Add your current font setting to your gvimrc.",
	"homepage": "http://www.vim.org/scripts/script.php?script_id=3540",
	"name": "Save_Current_Font",
	"vim-script-nr": 3540
}