{
	"author": "Jonas M\u00f8ller",
	"description": "Removes matching brackets/parens. Very handy in LISP/Scheme",
	"homepage": "http://www.vim.org/scripts/script.php?script_id=4714",
	"name": "KillBrackets",
	"vim-script-nr": 4714
}