{
	"repository": {
		"file-name": "VimSpeak.zip",
		"strip-components": 1,
		"type": "archive",
		"unpack-sequence": [
			"zip"
		],
		"url": "http://www.vim.org/scripts/download_script.php?src_id=2115"
	},
	"version": "0.1"
}