{
	"author": "Laurent Georget",
	"description": "Highlight indentation characters if they contain spaces, even mixed with tabs",
	"homepage": "http://www.vim.org/scripts/script.php?script_id=5148",
	"name": "ShowSpaces",
	"vim-script-nr": 5148
}