{
	"repository": {
		"file-name": "vim-ku-0.2.4.1.zip",
		"strip-components": 1,
		"type": "archive",
		"unpack-sequence": [
			"zip"
		],
		"url": "http://www.vim.org/scripts/download_script.php?src_id=10699"
	},
	"version": "0.2.4.1"
}