{
	"author": "Nikolay Frantsev",
	"description": "Lightweight, customizable and functional Vim plugin for JSHint integration.",
	"homepage": "http://www.vim.org/scripts/script.php?script_id=4682",
	"name": "jshint2",
	"vim-script-nr": 4682
}