{
	"repository": {
		"file-name": "vim-pad-0.8b.zip",
		"strip-components": 1,
		"type": "archive",
		"unpack-sequence": [
			"zip"
		],
		"url": "http://www.vim.org/scripts/download_script.php?src_id=18324"
	},
	"version": "0.8b"
}