{
	"author": "S\u00e9bastien <anon>",
	"description": "Align selected CSS properties",
	"homepage": "http://www.vim.org/scripts/script.php?script_id=4162",
	"name": "Simple_CSS_align_SCSSA",
	"vim-script-nr": 4162
}