{
	"author": "Charles Campbell",
	"description": "Produce increasing/decreasing columns of numbers, dates, or daynames",
	"homepage": "http://www.vim.org/scripts/script.php?script_id=670",
	"name": "VisIncr",
	"vim-script-nr": 670
}