{
	"author": "Gergely Kontra",
	"description": "\"Emulates\" a multifield prompt dialog even in console mode!",
	"homepage": "http://www.vim.org/scripts/script.php?script_id=114",
	"name": "MultiPrompt",
	"vim-script-nr": 114
}