{
	"author": "Sam Simmons",
	"description": "Share quickfixes among commands and functions",
	"homepage": "http://www.vim.org/scripts/script.php?script_id=4098",
	"name": "sharefix",
	"vim-script-nr": 4098
}