{
	"author": "Dee Sub Wun .",
	"description": "A color scheme based on the colors of *this* website",
	"homepage": "http://www.vim.org/scripts/script.php?script_id=3550",
	"name": "vim-online",
	"vim-script-nr": 3550
}