{
	"author": "Eric Van Dewoestine",
	"description": "Auto completion of sgml (html, xml, etc) end tags.",
	"homepage": "http://www.vim.org/scripts/script.php?script_id=3668",
	"name": "sgmlendtag",
	"vim-script-nr": 3668
}