{
	"author": "Hari Krishna Dara",
	"description": "Lets you relax while executing long normal or visual mode maps",
	"homepage": "http://www.vim.org/scripts/script.php?script_id=598",
	"name": "execmap",
	"vim-script-nr": 598
}