{
	"author": "\u957f\u677e \u7530",
	"description": "A dark gray color scheme for GUI and 256 color terminal.",
	"homepage": "http://www.vim.org/scripts/script.php?script_id=4302",
	"name": "tshell",
	"vim-script-nr": 4302
}