{
	"repository": {
		"file-name": "python_check_syntax.vim",
		"type": "file",
		"url": "http://www.vim.org/scripts/download_script.php?src_id=9677",
		"vim-directory": "ftplugin"
	},
	"version": "0.6"
}