{
	"repository": {
		"file-name": "mojo-0_04.vba",
		"type": "archive",
		"unpack-sequence": [
			"vmb"
		],
		"url": "http://www.vim.org/scripts/download_script.php?src_id=16220"
	},
	"version": "0.04"
}