{
	"author": "Andy Wokula",
	"description": "Give detailed help on a given regexp pattern.",
	"homepage": "http://www.vim.org/scripts/script.php?script_id=4364",
	"name": "ExplainPattern",
	"vim-script-nr": 4364
}