{
	"repository": {
		"file-name": "emogrifier.vim.zip",
		"type": "archive",
		"unpack-sequence": [
			"zip"
		],
		"url": "http://www.vim.org/scripts/download_script.php?src_id=16337"
	},
	"version": "1.0.1"
}