{
	"repository": {
		"file-name": "autosess.vmb",
		"type": "archive",
		"unpack-sequence": [
			"vmb"
		],
		"url": "http://www.vim.org/scripts/download_script.php?src_id=24739"
	},
	"version": "1.2.2"
}