{
	"author": "Linda Rhysd",
	"description": "Extended f/F/t/T mappings for more convenience.",
	"homepage": "http://www.vim.org/scripts/script.php?script_id=4707",
	"name": "clever-f",
	"vim-script-nr": 4707
}