{
	"author": "Oyd E Leven",
	"description": "An alternative Hebrew keyboard map, for ISO-8859-8 usage.",
	"homepage": "http://www.vim.org/scripts/script.php?script_id=866",
	"name": "Israelli_hebrew_shifted",
	"vim-script-nr": 866
}