{
	"author": "Markus DeShon",
	"description": "syntax highlighting for Nessus nasl scripts",
	"homepage": "http://www.vim.org/scripts/script.php?script_id=843",
	"name": "nasl",
	"vim-script-nr": 843
}