{
	"repository": {
		"file-name": "vtags-1.22.tar.gz",
		"type": "archive",
		"unpack-sequence": [
			"gz",
			"tar"
		],
		"url": "http://www.vim.org/scripts/download_script.php?src_id=24877"
	},
	"version": "1.22"
}