{
	"repository": {
		"file-name": "lh-vim-lib-3.2.1.vmb",
		"type": "archive",
		"unpack-sequence": [
			"vmb"
		],
		"url": "http://www.vim.org/scripts/download_script.php?src_id=22369"
	},
	"version": "3.2.1"
}