{
	"repository": {
		"file-name": "VOOF-1.91.zip",
		"strip-components": 1,
		"type": "archive",
		"unpack-sequence": [
			"zip"
		],
		"url": "http://www.vim.org/scripts/download_script.php?src_id=12325"
	},
	"version": "1.91"
}