{
	"repository": {
		"file-name": "localvimrc.vmb",
		"type": "archive",
		"unpack-sequence": [
			"vmb"
		],
		"url": "http://www.vim.org/scripts/download_script.php?src_id=25017"
	},
	"version": "2.5.0"
}