{
	"author": "Nicolas Herry",
	"description": "Syntax file for the Sparc V8 assembly language.",
	"homepage": "http://www.vim.org/scripts/script.php?script_id=635",
	"name": "sparc",
	"vim-script-nr": 635
}