{
	"repository": {
		"file-name": "tcomment.vba",
		"type": "archive",
		"unpack-sequence": [
			"vmb"
		],
		"url": "http://www.vim.org/scripts/download_script.php?src_id=14452"
	},
	"version": "2.03"
}