{
	"repository": {
		"file-name": "cursoroverdictionary0_0_7.zip",
		"type": "archive",
		"unpack-sequence": [
			"zip"
		],
		"url": "http://www.vim.org/scripts/download_script.php?src_id=11474"
	},
	"version": "0.0.7"
}