{
	"repository": {
		"file-name": "ucpp-vim-syntax.tar.gz",
		"strip-components": 1,
		"type": "archive",
		"unpack-sequence": [
			"gz",
			"tar"
		],
		"url": "http://www.vim.org/scripts/download_script.php?src_id=17828"
	},
	"version": "1.0"
}