{
	"author": "Jonas Kramer",
	"description": "Another plugin that emulates emacs' narrowing feature.",
	"homepage": "http://www.vim.org/scripts/script.php?script_id=2446",
	"name": "narrow%2446",
	"vim-script-nr": 2446
}