{
	"repository": {
		"file-name": "Align.vba.gz",
		"type": "archive",
		"unpack-sequence": [
			"gz",
			"vmb"
		],
		"url": "http://www.vim.org/scripts/download_script.php?src_id=18148"
	},
	"version": "36-42"
}