{
	"author": "Teemu Matilainen",
	"description": "Syntax highlight and indent rules for gitolite configuration",
	"homepage": "http://www.vim.org/scripts/script.php?script_id=2900",
	"name": "gitolite",
	"vim-script-nr": 2900
}