{
	"author": "Ingo Karkat",
	"description": "Insert mode completion that expands CamelCaseWords and underscore_words. ",
	"homepage": "http://www.vim.org/scripts/script.php?script_id=3915",
	"name": "CamelCaseComplete",
	"vim-script-nr": 3915
}