{
	"author": "Josh Teeter",
	"description": "Automatically switches between light and dark background for solarized",
	"homepage": "http://www.vim.org/scripts/script.php?script_id=5210",
	"name": "autoSolarize",
	"vim-script-nr": 5210
}