{
	"author": "Justin Campbell",
	"description": "Automatically resizes your windows",
	"homepage": "http://www.vim.org/scripts/script.php?script_id=4502",
	"name": "eighties",
	"vim-script-nr": 4502
}