{
	"author": "hongyuan jia",
	"description": "Switch current vim buffer between c++ header and cpp files",
	"homepage": "http://www.vim.org/scripts/script.php?script_id=4944",
	"name": "Switch_cc_source_and_header_files",
	"vim-script-nr": 4944
}