{
	"author": "YuGiOhJCJ YuGiOhJCJ",
	"description": "Display on the Logitech G15 keyboard LCD screen.",
	"homepage": "http://www.vim.org/scripts/script.php?script_id=2659",
	"name": "g15vim",
	"vim-script-nr": 2659
}