{
	"repository": {
		"file-name": "ctk.vba",
		"type": "archive",
		"unpack-sequence": [
			"vmb"
		],
		"url": "http://www.vim.org/scripts/download_script.php?src_id=10898"
	},
	"version": "0.3-bugfix++++"
}