{
	"repository": {
		"file-name": "EnhancedJumps-3.02.vmb.gz",
		"type": "archive",
		"unpack-sequence": [
			"gz",
			"vmb"
		],
		"url": "http://www.vim.org/scripts/download_script.php?src_id=22466"
	},
	"version": "3.02"
}