{
	"author": "chili cuil",
	"description": "Find files in your whole system or current directory",
	"homepage": "http://www.vim.org/scripts/script.php?script_id=2871",
	"name": "FindMate",
	"vim-script-nr": 2871
}