{
	"repository": {
		"file-name": "ctrlp-locate-0.6.zip",
		"type": "archive",
		"unpack-sequence": [
			"zip"
		],
		"url": "http://www.vim.org/scripts/download_script.php?src_id=23589"
	},
	"version": "0.6"
}