{
	"repository": {
		"file-name": "switch.1.00.zip",
		"type": "archive",
		"unpack-sequence": [
			"zip"
		],
		"url": "http://www.vim.org/scripts/download_script.php?src_id=11459"
	},
	"version": "1.00"
}