{
	"author": "li li",
	"description": "all colors pack 1.0 There are 223 of them included",
	"homepage": "http://www.vim.org/scripts/script.php?script_id=1498",
	"name": "all_colors_pack",
	"vim-script-nr": 1498
}