{
	"author": "Oliver Uvman",
	"description": "Elegant buffer explorer - takes very little screen space",
	"homepage": "http://www.vim.org/scripts/script.php?script_id=3239",
	"name": "minibufexplorer",
	"vim-script-nr": 3239
}