{
	"repository": {
		"file-name": "TurboMark-0.2.zip",
		"strip-components": 1,
		"type": "archive",
		"unpack-sequence": [
			"zip"
		],
		"url": "http://www.vim.org/scripts/download_script.php?src_id=21956"
	},
	"version": "0.2"
}