{
	"author": "Brian Mock",
	"description": "A molokai-based color scheme for terminal vim",
	"homepage": "http://www.vim.org/scripts/script.php?script_id=3478",
	"name": "robokai",
	"vim-script-nr": 3478
}