{
	"author": "Shohei Fujii",
	"description": "the plugin to add vimproc strategy to vim-dispatch",
	"homepage": "http://www.vim.org/scripts/script.php?script_id=5413",
	"name": "vim-dispatch-vimproc",
	"vim-script-nr": 5413
}