{
	"repository": {
		"file-name": "PatternsOnText-1.30.vmb.gz",
		"type": "archive",
		"unpack-sequence": [
			"gz",
			"vmb"
		],
		"url": "http://www.vim.org/scripts/download_script.php?src_id=21609"
	},
	"version": "1.30"
}