{
	"repository": {
		"file-name": "VimPyServer.zip",
		"type": "archive",
		"unpack-sequence": [
			"zip"
		],
		"url": "http://www.vim.org/scripts/download_script.php?src_id=23096"
	},
	"version": "0.3"
}