{
	"author": "Christian MICHON",
	"description": "kind'a pastel colorscheme (dark bg, GUI only)",
	"homepage": "http://www.vim.org/scripts/script.php?script_id=292",
	"name": "xian",
	"vim-script-nr": 292
}