{
	"author": "Tom Link",
	"description": "Pimp up your old templates with dynamic place-holders",
	"homepage": "http://www.vim.org/scripts/script.php?script_id=3326",
	"name": "stakeholders",
	"vim-script-nr": 3326
}