{
	"author": "Travis Jeffery",
	"description": "Python Documentation in Vim",
	"homepage": "http://www.vim.org/scripts/script.php?script_id=2443",
	"name": "Python_Documentation",
	"vim-script-nr": 2443
}