{
	"repository": {
		"file-name": "pgsql.vim-2.0.0.tar.gz",
		"strip-components": 1,
		"type": "archive",
		"unpack-sequence": [
			"gz",
			"tar"
		],
		"url": "http://www.vim.org/scripts/download_script.php?src_id=25438"
	},
	"version": "2.0.0"
}