{
	"repository": {
		"file-name": "simpleHighlightingV1.1.vimrc",
		"type": "file",
		"url": "http://www.vim.org/scripts/download_script.php?src_id=22373",
		"vim-directory": "plugin"
	},
	"version": "1.1.0"
}