{
	"repository": {
		"file-name": "EvalSelection.vba.gz",
		"type": "archive",
		"unpack-sequence": [
			"gz",
			"vmb"
		],
		"url": "http://www.vim.org/scripts/download_script.php?src_id=7221"
	},
	"version": "0.16"
}