{
	"repository": {
		"file-name": "selectbuf-4.1.zip",
		"type": "archive",
		"unpack-sequence": [
			"zip"
		],
		"url": "http://www.vim.org/scripts/download_script.php?src_id=6173"
	},
	"version": "4.1"
}