{
	"repository": {
		"file-name": "vxlib.zip",
		"type": "archive",
		"unpack-sequence": [
			"zip"
		],
		"url": "http://www.vim.org/scripts/download_script.php?src_id=12847"
	},
	"version": "0.6.7"
}