{
	"repository": {
		"file-name": "gtm-vim-plugin-1.0.7.tar.gz",
		"strip-components": 1,
		"type": "archive",
		"unpack-sequence": [
			"gz",
			"tar"
		],
		"url": "http://www.vim.org/scripts/download_script.php?src_id=24916"
	},
	"version": "v1.0.7"
}