{
	"author": "Hari Krishna Dara",
	"description": "Feature Rich Perforce SCM Integration.",
	"homepage": "http://www.vim.org/scripts/script.php?script_id=240",
	"name": "perforce%240",
	"vim-script-nr": 240
}