{
	"repository": {
		"file-name": "fontsize-0.3.2.zip",
		"type": "archive",
		"unpack-sequence": [
			"zip"
		],
		"url": "http://www.vim.org/scripts/download_script.php?src_id=21483"
	},
	"version": "0.3.2"
}