{
	"repository": {
		"file-name": "writebackupVersionControl-3.21.vmb.gz",
		"type": "archive",
		"unpack-sequence": [
			"gz",
			"vmb"
		],
		"url": "http://www.vim.org/scripts/download_script.php?src_id=21401"
	},
	"version": "3.21"
}