{
	"repository": {
		"file-name": "cmdline-complete.vim",
		"type": "file",
		"url": "http://www.vim.org/scripts/download_script.php?src_id=8969",
		"vim-directory": "plugin"
	},
	"version": "1.1.3"
}