{
	"author": "Luis Hdez",
	"description": "LESS css syntax updated to v2.3.0 - 2015",
	"homepage": "http://www.vim.org/scripts/script.php?script_id=5097",
	"name": "vim-less%5097",
	"vim-script-nr": 5097
}