{
	"repository": {
		"file-name": "treemap.vmb",
		"type": "archive",
		"unpack-sequence": [
			"vmb"
		],
		"url": "http://www.vim.org/scripts/download_script.php?src_id=23170"
	},
	"version": "0.7"
}