{
	"author": "Bruno Michel",
	"description": "Syntax files for Merb and Datamapper",
	"homepage": "http://www.vim.org/scripts/script.php?script_id=2417",
	"name": "Merb__Datamapper",
	"vim-script-nr": 2417
}