{
	"author": "atsushi moriki",
	"description": "Syntax for XSLT (with HTML and others)",
	"homepage": "http://www.vim.org/scripts/script.php?script_id=257",
	"name": "XSLT_syntax",
	"vim-script-nr": 257
}