{
	"author": "brook hong",
	"description": "create/update/connect cscope database smartly.",
	"homepage": "http://www.vim.org/scripts/script.php?script_id=4082",
	"name": "cscope",
	"vim-script-nr": 4082
}