{
	"repository": {
		"file-name": "vim-inccomplete-1.6.28.zip",
		"strip-components": 1,
		"type": "archive",
		"unpack-sequence": [
			"zip"
		],
		"url": "http://www.vim.org/scripts/download_script.php?src_id=17785"
	},
	"version": "1.6.28"
}