{
	"author": "Hari Krishna Dara",
	"description": "*obsolete* A nice set of useful functions",
	"homepage": "http://www.vim.org/scripts/script.php?script_id=108",
	"name": "bufNwinUtils",
	"vim-script-nr": 108
}