{
	"author": "Wenzhi Liang",
	"description": "Same as sandbox.vim but for hg(mercurial).",
	"homepage": "http://www.vim.org/scripts/script.php?script_id=3942",
	"name": "sandbox_hg",
	"vim-script-nr": 3942
}