{
	"repository": {
		"file-name": "tabulous-0.2.0.zip",
		"strip-components": 1,
		"type": "archive",
		"unpack-sequence": [
			"zip"
		],
		"url": "http://www.vim.org/scripts/download_script.php?src_id=24298"
	},
	"version": "0.2.0"
}