{
	"repository": {
		"file-name": "vim-fetch-1.3.0.vmb",
		"type": "archive",
		"unpack-sequence": [
			"vmb"
		],
		"url": "http://www.vim.org/scripts/download_script.php?src_id=22850"
	},
	"version": "1.3.0"
}