{
	"author": "Hiroki Kokubun",
	"description": "A dark blue color scheme with calm color palette",
	"homepage": "http://www.vim.org/scripts/script.php?script_id=4820",
	"name": "Iceberg",
	"vim-script-nr": 4820
}