{
	"repository": {
		"file-name": "recover.vba",
		"type": "archive",
		"unpack-sequence": [
			"vmb"
		],
		"url": "http://www.vim.org/scripts/download_script.php?src_id=12879"
	},
	"version": "0.3"
}