{
	"author": "Paul Yosifov",
	"description": "Goto function (open/create) for ReStructured Text directives",
	"homepage": "http://www.vim.org/scripts/script.php?script_id=3810",
	"name": "RSTO",
	"vim-script-nr": 3810
}