{
	"repository": {
		"file-name": "cmaxx-1.0.1.tar.gz",
		"type": "archive",
		"unpack-sequence": [
			"gz",
			"tar"
		],
		"url": "http://www.vim.org/scripts/download_script.php?src_id=5604"
	},
	"version": "1.0.1"
}