{
	"author": "Antoine Madec",
	"description": "Add words in highlight groups on the fly.",
	"homepage": "http://www.vim.org/scripts/script.php?script_id=5612",
	"name": "highlight-groups",
	"vim-script-nr": 5612
}