{
	"repository": {
		"file-name": "SingleCompile-2.10.7.zip",
		"type": "archive",
		"unpack-sequence": [
			"zip"
		],
		"url": "http://www.vim.org/scripts/download_script.php?src_id=19513"
	},
	"version": "2.10.7"
}