{
	"author": "Ian Langworth",
	"description": "A black-on-white scheme inspired by BBEdit",
	"homepage": "http://www.vim.org/scripts/script.php?script_id=1165",
	"name": "tolerable",
	"vim-script-nr": 1165
}