{
	"author": "Mantas Zimnickas",
	"description": "Simple and Easy to use utility for executing MySQL queries",
	"homepage": "http://www.vim.org/scripts/script.php?script_id=2081",
	"name": "mysqlquery",
	"vim-script-nr": 2081
}