{
	"repository": {
		"file-name": "trac.vim.0.3.3.tar.gz",
		"type": "archive",
		"unpack-sequence": [
			"gz",
			"tar"
		],
		"url": "http://www.vim.org/scripts/download_script.php?src_id=8804"
	},
	"version": "0.3.3"
}