{
	"author": "Marvin Renich",
	"description": "Cycles through available colorschemes",
	"homepage": "http://www.vim.org/scripts/script.php?script_id=1457",
	"name": "CycleColor",
	"vim-script-nr": 1457
}