{
	"author": "Greg Dietsche",
	"description": "Intelligently reopen files where you left off.",
	"homepage": "http://www.vim.org/scripts/script.php?script_id=5090",
	"name": "vim-lastplace",
	"vim-script-nr": 5090
}