{
	"author": "Mitchell Bowden",
	"description": "StmSrch is a reverse-stem searching script",
	"homepage": "http://www.vim.org/scripts/script.php?script_id=3229",
	"name": "stem-search",
	"vim-script-nr": 3229
}