{
	"author": "JP Ricaud",
	"description": "Special copy and paste for VHDL entities, components and instances of components",
	"homepage": "http://www.vim.org/scripts/script.php?script_id=3335",
	"name": "VIP",
	"vim-script-nr": 3335
}