{
	"repository": {
		"file-name": "NERD_tree_project.vim",
		"type": "file",
		"url": "http://www.vim.org/scripts/download_script.php?src_id=11487",
		"vim-directory": "plugin"
	},
	"version": "0.1"
}