{
	"repository": {
		"file-name": "NumberToEnglish enh-ordinal.zip",
		"type": "archive",
		"unpack-sequence": [
			"zip"
		],
		"url": "http://www.vim.org/scripts/download_script.php?src_id=17784"
	},
	"version": "1.5"
}