{
	"author": "Federico Ramirez",
	"description": "Dark theme inspired by Atom's default dark theme",
	"homepage": "http://www.vim.org/scripts/script.php?script_id=5054",
	"name": "atom-dark",
	"vim-script-nr": 5054
}