{
	"repository": {
		"file-name": "jsonvim-1.0.2.tar.gz",
		"type": "archive",
		"unpack-sequence": [
			"gz",
			"tar"
		],
		"url": "http://www.vim.org/scripts/download_script.php?src_id=13677"
	},
	"version": "1.0.2"
}