{
	"repository": {
		"file-name": "engspchk.tar.bz2",
		"type": "archive",
		"unpack-sequence": [
			"bz2",
			"tar"
		],
		"url": "http://www.vim.org/scripts/download_script.php?src_id=3144"
	},
	"version": "57"
}