{
	"repository": {
		"file-name": "ruby.vim.gz",
		"type": "file",
		"unpack-sequence": [
			"gz"
		],
		"url": "http://www.vim.org/scripts/download_script.php?src_id=11203",
		"vim-directory": "indent"
	},
	"version": "0.1.2"
}