{
	"repository": {
		"file-name": "ctrlp-funky-0.10.0.zip",
		"strip-components": 1,
		"type": "archive",
		"unpack-sequence": [
			"zip"
		],
		"url": "http://www.vim.org/scripts/download_script.php?src_id=22890"
	},
	"version": "0.10.0"
}