{
	"author": "Paul Wei",
	"description": "Fold everything except search results",
	"homepage": "http://www.vim.org/scripts/script.php?script_id=1503",
	"name": "Search_unFold",
	"vim-script-nr": 1503
}