{
	"repository": {
		"file-name": "merginal_v2.0.2.zip",
		"type": "archive",
		"unpack-sequence": [
			"zip"
		],
		"url": "http://www.vim.org/scripts/download_script.php?src_id=24315"
	},
	"version": "2.0.2"
}