{
	"repository": {
		"file-name": "vim-php-wrapper-1.0.0.tgz",
		"strip-components": 1,
		"type": "archive",
		"unpack-sequence": [
			"gz",
			"tar"
		],
		"url": "http://www.vim.org/scripts/download_script.php?src_id=25329"
	},
	"version": "1.0.0"
}