{
	"author": "Luc Hermitte",
	"description": "Helps to toggle definitions (maps, sets, abbr)",
	"homepage": "http://www.vim.org/scripts/script.php?script_id=48",
	"name": "Triggers",
	"vim-script-nr": 48
}