{
	"repository": {
		"file-name": "colorsel.zip",
		"type": "archive",
		"unpack-sequence": [
			"zip"
		],
		"url": "http://www.vim.org/scripts/download_script.php?src_id=12789"
	},
	"version": "20100406"
}