{
	"author": "Alexandre Lima",
	"description": "Converts HTML tags to a simpler syntax",
	"homepage": "http://www.vim.org/scripts/script.php?script_id=1158",
	"name": "unhtml",
	"vim-script-nr": 1158
}