{
	"author": "Eddie Carle",
	"description": "Switch between C++ declarations and definitions",
	"homepage": "http://www.vim.org/scripts/script.php?script_id=2570",
	"name": "vimdecdef",
	"vim-script-nr": 2570
}