{
	"author": "Michael Le\u00dfnau",
	"description": "Line-wise up/down shift of selected blocks",
	"homepage": "http://www.vim.org/scripts/script.php?script_id=4754",
	"name": "mlessnau_block_shift",
	"vim-script-nr": 4754
}