{
	"repository": {
		"file-name": "nonclobbering-shift.vim",
		"type": "file",
		"url": "http://www.vim.org/scripts/download_script.php?src_id=25008",
		"vim-directory": "plugin"
	},
	"version": "1"
}