{
	"repository": {
		"file-name": "colorpicker.tar.gz",
		"type": "archive",
		"unpack-sequence": [
			"gz",
			"tar"
		],
		"url": "http://www.vim.org/scripts/download_script.php?src_id=19032"
	},
	"version": "0.2"
}