{
	"repository": {
		"file-name": "runVimTests-1.23.zip",
		"type": "archive",
		"unpack-sequence": [
			"zip"
		],
		"url": "http://www.vim.org/scripts/download_script.php?src_id=19706"
	},
	"version": "1.23"
}