{
	"author": "Miles Sterrett",
	"description": "Plugin that searches http://apidock.com Rails/Ruby/RSpec docs",
	"homepage": "http://www.vim.org/scripts/script.php?script_id=2571",
	"name": "apidock",
	"vim-script-nr": 2571
}