{
	"author": "Alex Johnson",
	"description": "Run or Preview current buffer in highly configurable ways",
	"homepage": "http://www.vim.org/scripts/script.php?script_id=4478",
	"name": "vim-run-live",
	"vim-script-nr": 4478
}