{
	"repository": {
		"file-name": "formatvim-3.1.tar.gz",
		"type": "archive",
		"unpack-sequence": [
			"gz",
			"tar"
		],
		"url": "http://www.vim.org/scripts/download_script.php?src_id=18202"
	},
	"version": "3.1"
}