{
	"author": "Sandeep CR",
	"description": "Tracks the previously accessed tabs,and provides interface to switch back.",
	"homepage": "http://www.vim.org/scripts/script.php?script_id=3680",
	"name": "tablistlite",
	"vim-script-nr": 3680
}