{
	"author": "Mikolaj Machowski",
	"description": "Script for creation XML data file for Vim7 XML omni-completion from DTDs",
	"homepage": "http://www.vim.org/scripts/script.php?script_id=1462",
	"name": "dtd2vim",
	"vim-script-nr": 1462
}