{
	"repository": {
		"file-name": "vim2ansi.v1.2.zip",
		"strip-components": 1,
		"type": "archive",
		"unpack-sequence": [
			"zip"
		],
		"url": "http://www.vim.org/scripts/download_script.php?src_id=3623"
	},
	"version": "1.2"
}