{
	"author": "Chao-Kuo Lin",
	"description": "Map function keys to act like a multilevel menu",
	"homepage": "http://www.vim.org/scripts/script.php?script_id=984",
	"name": "mappinggroup",
	"vim-script-nr": 984
}