{
	"repository": {
		"file-name": "markdown-1.0.2.vba.gz",
		"type": "archive",
		"unpack-sequence": [
			"gz",
			"vmb"
		],
		"url": "http://www.vim.org/scripts/download_script.php?src_id=11939"
	},
	"version": "1.0.2"
}