{
	"repository": {
		"file-name": "yankring_61.zip",
		"type": "archive",
		"unpack-sequence": [
			"zip"
		],
		"url": "http://www.vim.org/scripts/download_script.php?src_id=9421"
	},
	"version": "6.1"
}