{
	"author": "Arnaud Ronsse",
	"description": "A dark color scheme vim and gvim.",
	"homepage": "http://www.vim.org/scripts/script.php?script_id=4826",
	"name": "arnaudmix2_Color_Scheme",
	"vim-script-nr": 4826
}