{
	"repository": {
		"file-name": "compiler-g95.zip",
		"type": "archive",
		"unpack-sequence": [
			"zip"
		],
		"url": "http://www.vim.org/scripts/download_script.php?src_id=15203"
	},
	"version": "0.1.2"
}