{
	"author": "Andy Wokula",
	"description": "Script for use with Total Commander's button bar",
	"homepage": "http://www.vim.org/scripts/script.php?script_id=1779",
	"name": "tcmdbar",
	"vim-script-nr": 1779
}