{
	"repository": {
		"file-name": "rndtips-0.2.tar.gz",
		"strip-components": 1,
		"type": "archive",
		"unpack-sequence": [
			"gz",
			"tar"
		],
		"url": "http://www.vim.org/scripts/download_script.php?src_id=6888"
	},
	"version": "0.2"
}