{
	"author": "Vivien Didelot",
	"description": "Vim plugin to enhance the writing of human readable formats, such as Markdown.",
	"homepage": "http://www.vim.org/scripts/script.php?script_id=4750",
	"name": "human",
	"vim-script-nr": 4750
}