{
	"repository": {
		"file-name": "UnconditionalPaste-3.10.vmb.gz",
		"type": "archive",
		"unpack-sequence": [
			"gz",
			"vmb"
		],
		"url": "http://www.vim.org/scripts/download_script.php?src_id=22722"
	},
	"version": "3.10"
}