{
	"repository": {
		"file-name": "vim-rspec-0.0.5.zip",
		"type": "archive",
		"unpack-sequence": [
			"zip"
		],
		"url": "http://www.vim.org/scripts/download_script.php?src_id=10130"
	},
	"version": "0.0.5"
}