{
	"repository": {
		"file-name": "colorizer.tar.gz",
		"type": "archive",
		"unpack-sequence": [
			"tar"
		],
		"url": "http://www.vim.org/scripts/download_script.php?src_id=21373"
	},
	"version": "1.4.1"
}