{
	"author": "Michael Geddes",
	"description": "Translate Line #'s reported by vb command line to source code line",
	"homepage": "http://www.vim.org/scripts/script.php?script_id=464",
	"name": "VB_Line-Number",
	"vim-script-nr": 464
}