{
	"repository": {
		"file-name": "srcery_0.6.1.zip",
		"type": "archive",
		"unpack-sequence": [
			"zip"
		],
		"url": "http://www.vim.org/scripts/download_script.php?src_id=24355"
	},
	"version": "0.6.1"
}