{
	"author": "Nachum Kanovsky",
	"description": "Indent & syntax script for Verilog and SystemVerilog",
	"homepage": "http://www.vim.org/scripts/script.php?script_id=4743",
	"name": "systemverilog%4743",
	"vim-script-nr": 4743
}