{
	"author": "Rafael Kitover",
	"description": "perl syntax with Moose and MooseX::Declare keywords",
	"homepage": "http://www.vim.org/scripts/script.php?script_id=2526",
	"name": "Perl_MooseXDeclare_Syntax",
	"vim-script-nr": 2526
}