{
	"author": "Takahiro SUZUKI",
	"description": "high contrast, 256color, vivid, blue bg, orange/white fg.",
	"homepage": "http://www.vim.org/scripts/script.php?script_id=3670",
	"name": "orangeocean256",
	"vim-script-nr": 3670
}