{
	"repository": {
		"file-name": "vim-skuld-0.2.3.tar.bz2",
		"strip-components": 1,
		"type": "archive",
		"unpack-sequence": [
			"bz2",
			"tar"
		],
		"url": "http://www.vim.org/scripts/download_script.php?src_id=21260"
	},
	"version": "0.2.3"
}