{
	"repository": {
		"file-name": "cflow_highlight_1.2.tgz",
		"type": "archive",
		"unpack-sequence": [
			"gz",
			"tar"
		],
		"url": "http://www.vim.org/scripts/download_script.php?src_id=12246"
	},
	"version": "1.2"
}