{
	"repository": {
		"file-name": "ex-plugins-package-7.05b.zip",
		"type": "archive",
		"unpack-sequence": [
			"zip"
		],
		"url": "http://www.vim.org/scripts/download_script.php?src_id=10673"
	},
	"version": "7.05b"
}