{
	"repository": {
		"file-name": "vim-isort.tar.gz",
		"type": "archive",
		"unpack-sequence": [
			"gz",
			"tar"
		],
		"url": "http://www.vim.org/scripts/download_script.php?src_id=21409"
	},
	"version": "f9fe7c"
}