{
	"repository": {
		"file-name": "vim-makeshift-0.9.zip",
		"strip-components": 1,
		"type": "archive",
		"unpack-sequence": [
			"zip"
		],
		"url": "http://www.vim.org/scripts/download_script.php?src_id=21540"
	},
	"version": "0.9"
}