{
	"author": "Christian Brabandt",
	"description": "Edit Files using sudo or su or any other tool",
	"homepage": "http://www.vim.org/scripts/script.php?script_id=2709",
	"name": "SudoEdit",
	"vim-script-nr": 2709
}