{
	"author": "\u5b87\u6587 \u9ad8\u4e0b",
	"description": "Coding automation  for c/c++/ruby/python/shell/perl/...",
	"homepage": "http://www.vim.org/scripts/script.php?script_id=3341",
	"name": "auto_",
	"vim-script-nr": 3341
}