{
	"author": "Wxyarv Wang",
	"description": "code_complete_again: a complete plugin mixed the code_complete and snippetsEmu",
	"homepage": "http://www.vim.org/scripts/script.php?script_id=2535",
	"name": "cca",
	"vim-script-nr": 2535
}