{
	"repository": {
		"file-name": "format-1.2.tar.xz",
		"type": "archive",
		"unpack-sequence": [
			"xz",
			"tar"
		],
		"url": "http://www.vim.org/scripts/download_script.php?src_id=13118"
	},
	"version": "1.2"
}