{
	"repository": {
		"file-name": "SingleCompile-2.12.0.zip",
		"type": "archive",
		"unpack-sequence": [
			"zip"
		],
		"url": "http://www.vim.org/scripts/download_script.php?src_id=22022"
	},
	"version": "2.12.0"
}