{
	"author": "Gnosis Ouroubouros",
	"description": "Xptemplate snippets for Chicken Scheme meta files",
	"homepage": "http://www.vim.org/scripts/script.php?script_id=3836",
	"name": "ChickenMetaXp",
	"vim-script-nr": 3836
}