{
	"repository": {
		"file-name": "randomColorPicker.tar",
		"type": "archive",
		"unpack-sequence": [
			"tar"
		],
		"url": "http://www.vim.org/scripts/download_script.php?src_id=19351"
	},
	"version": "0.415"
}