{
	"author": "joey twiddle",
	"description": "legacy workaround for a 486: highlights your cursor as a reverse character block",
	"homepage": "http://www.vim.org/scripts/script.php?script_id=777",
	"name": "highlight_cursor",
	"vim-script-nr": 777
}