{
	"author": "Alexey Marinichev",
	"description": "Display function name in the title bar.",
	"homepage": "http://www.vim.org/scripts/script.php?script_id=12",
	"name": "ctags",
	"vim-script-nr": 12
}