{
	"author": "Jing Zhang",
	"description": "A darker version of desert scheme, less radiation",
	"homepage": "http://www.vim.org/scripts/script.php?script_id=1427",
	"name": "darkerdesert",
	"vim-script-nr": 1427
}