{
	"author": "Michael Small",
	"description": "A port of the existing C++ syntax to allow for C++11 features",
	"homepage": "http://www.vim.org/scripts/script.php?script_id=3797",
	"name": "C11_Syntax_Support",
	"vim-script-nr": 3797
}