{
	"author": "Vincent B",
	"description": "Provide a foldexpr function which give nice folding for haskell files.",
	"homepage": "http://www.vim.org/scripts/script.php?script_id=2846",
	"name": "haskellFold",
	"vim-script-nr": 2846
}