{
	"repository": {
		"file-name": "bexec-v0.3.vba",
		"type": "archive",
		"unpack-sequence": [
			"vmb"
		],
		"url": "http://www.vim.org/scripts/download_script.php?src_id=6727"
	},
	"version": "0.3"
}