{
	"author": "Peter Hofmann",
	"description": "Dark but very balanced color scheme (xterm-256color)",
	"homepage": "http://www.vim.org/scripts/script.php?script_id=4333",
	"name": "termpot",
	"vim-script-nr": 4333
}