{
	"author": "Ingo Karkat",
	"description": "Limit search to range when jumping to the next search result.",
	"homepage": "http://www.vim.org/scripts/script.php?script_id=4997",
	"name": "SearchInRange",
	"vim-script-nr": 4997
}