{
	"author": "Eric Van Dewoestine",
	"description": "ftplugin for vim files to quickly find element definition, occurrences, or docs",
	"homepage": "http://www.vim.org/scripts/script.php?script_id=3661",
	"name": "Lookup",
	"vim-script-nr": 3661
}