{
	"repository": {
		"file-name": "zencoding-vim.zip",
		"type": "archive",
		"unpack-sequence": [
			"zip"
		],
		"url": "http://www.vim.org/scripts/download_script.php?src_id=18056"
	},
	"version": "0.72"
}