{
	"repository": {
		"file-name": "miv.vim-0.0.1.zip",
		"type": "archive",
		"unpack-sequence": [
			"zip"
		],
		"url": "http://www.vim.org/scripts/download_script.php?src_id=22573"
	},
	"version": "0.0.1"
}