{
	"repository": {
		"file-name": "vimpress-stable_2.1.4_r71_4421edf0ada2.zip",
		"type": "archive",
		"unpack-sequence": [
			"zip"
		],
		"url": "http://www.vim.org/scripts/download_script.php?src_id=16473"
	},
	"version": "2.1.4"
}