{
	"author": "Thomas Schmall",
	"description": "A simple color scheme - with some eye-friendly colors.",
	"homepage": "http://www.vim.org/scripts/script.php?script_id=792",
	"name": "simpleandfriendly",
	"vim-script-nr": 792
}