{
	"author": "Jan Christoph Ebersbach",
	"description": "Like the magic * but start matching at the cursor position",
	"homepage": "http://www.vim.org/scripts/script.php?script_id=4616",
	"name": "shootingstar",
	"vim-script-nr": 4616
}