{
	"repository": {
		"file-name": "lua-ftplugin.zip",
		"type": "archive",
		"unpack-sequence": [
			"zip"
		],
		"url": "http://www.vim.org/scripts/download_script.php?src_id=22139"
	},
	"version": "0.7.22"
}