{
	"repository": {
		"file-name": "winmanager.tar.bz2",
		"strip-components": 1,
		"type": "archive",
		"unpack-sequence": [
			"bz2",
			"tar"
		],
		"url": "http://www.vim.org/scripts/download_script.php?src_id=5329"
	},
	"version": "2.33"
}