{
	"repository": {
		"file-name": "Base2Tone-Evening-dark.vim",
		"type": "file",
		"url": "http://www.vim.org/scripts/download_script.php?src_id=24412",
		"vim-directory": "colors"
	},
	"version": "1.5"
}