{
	"repository": {
		"file-name": "vim-makeshift-0.11.0.zip",
		"strip-components": 1,
		"type": "archive",
		"unpack-sequence": [
			"zip"
		],
		"url": "http://www.vim.org/scripts/download_script.php?src_id=21789"
	},
	"version": "0.11.0"
}