{
	"repository": {
		"file-name": "AnsiEsc.vba.gz",
		"type": "archive",
		"unpack-sequence": [
			"gz",
			"vmb"
		],
		"url": "http://www.vim.org/scripts/download_script.php?src_id=14498"
	},
	"version": "12"
}