{
	"author": "Leandro Lucarella",
	"description": "Subversion commits syntax highlight (like CVS)",
	"homepage": "http://www.vim.org/scripts/script.php?script_id=409",
	"name": "svn",
	"vim-script-nr": 409
}