{
	"author": "omi taku",
	"description": "Sort vim7 tab page in 'buffer number' order.",
	"homepage": "http://www.vim.org/scripts/script.php?script_id=2134",
	"name": "tabpage_sort",
	"vim-script-nr": 2134
}