{
	"author": "Edwin Manuel Cerrón Angeles",
	"description": "Diccionario de rimas para Vim ",
	"homepage": "http://www.vim.org/scripts/script.php?script_id=5443",
	"name": "rimas",
	"vim-script-nr": 5443
}