{
	"author": "Serguei Jidkov",
	"description": "Perl : using 'print' and 'printf' instead of 'VIM::Msg'",
	"homepage": "http://www.vim.org/scripts/script.php?script_id=148",
	"name": "perl_io",
	"vim-script-nr": 148
}