{
	"author": "Christian Schiefer",
	"description": "Syntax highlighting for EnergyPlus IDF files.",
	"homepage": "http://www.vim.org/scripts/script.php?script_id=979",
	"name": "idf",
	"vim-script-nr": 979
}