{
	"author": "Marko Mahni\u010d",
	"description": "Provides the command Flip that changes the order of two delimited words",
	"homepage": "http://www.vim.org/scripts/script.php?script_id=4020",
	"name": "flipwords",
	"vim-script-nr": 4020
}