{
	"repository": {
		"file-name": "windows_remember_size.vim",
		"type": "file",
		"url": "http://www.vim.org/scripts/download_script.php?src_id=18882",
		"vim-directory": "plugin"
	},
	"version": "2.0"
}