{
	"repository": {
		"file-name": "shellasync.vim-0.3.3.zip",
		"strip-components": 1,
		"type": "archive",
		"unpack-sequence": [
			"zip"
		],
		"url": "http://www.vim.org/scripts/download_script.php?src_id=18541"
	},
	"version": "0.3.3"
}