{
	"repository": {
		"file-name": "vimball.tar.gz",
		"type": "archive",
		"unpack-sequence": [
			"gz",
			"tar"
		],
		"url": "http://www.vim.org/scripts/download_script.php?src_id=11981"
	},
	"version": "30"
}