{
	"author": "Ingo Karkat",
	"description": "Insert mode completion based on fragments inside words.",
	"homepage": "http://www.vim.org/scripts/script.php?script_id=4804",
	"name": "InnerFragmentComplete",
	"vim-script-nr": 4804
}