{
	"author": "Mikolaj Machowski",
	"description": "explorer.vim modification for viewing files and relative path",
	"homepage": "http://www.vim.org/scripts/script.php?script_id=370",
	"name": "Expmod",
	"vim-script-nr": 370
}