{
	"author": "J. Manuel Picaza",
	"description": "Plugin for managing sesions the easy way",
	"homepage": "http://www.vim.org/scripts/script.php?script_id=3542",
	"name": "Sesiones",
	"vim-script-nr": 3542
}