{
	"author": "Duncan Beaton",
	"description": "A JavaScript plugin to easily navigate between alternate files",
	"homepage": "http://www.vim.org/scripts/script.php?script_id=5548",
	"name": "js_alternate",
	"vim-script-nr": 5548
}