{
	"repository": {
		"file-name": "ex-plugins-package-8.04.zip",
		"type": "archive",
		"unpack-sequence": [
			"zip"
		],
		"url": "http://www.vim.org/scripts/download_script.php?src_id=13057"
	},
	"version": "8.04"
}