{
	"author": "Helder Correia",
	"description": "based on bluegreen colorscheme by Joao Estevao",
	"homepage": "http://www.vim.org/scripts/script.php?script_id=958",
	"name": "blugrine",
	"vim-script-nr": 958
}