{
	"repository": {
		"file-name": "Vive_vim.zip",
		"type": "archive",
		"unpack-sequence": [
			"zip"
		],
		"url": "http://www.vim.org/scripts/download_script.php?src_id=3521"
	},
	"version": "2.0.1"
}