{
	"repository": {
		"file-name": "vimclojure-2.3.3.zip",
		"type": "archive",
		"unpack-sequence": [
			"zip"
		],
		"url": "http://www.vim.org/scripts/download_script.php?src_id=18115"
	},
	"version": "v2.3.3"
}