{
	"repository": {
		"file-name": "lh-cpp.tar.gz",
		"strip-components": 1,
		"type": "archive",
		"unpack-sequence": [
			"gz",
			"tar"
		],
		"url": "http://www.vim.org/scripts/download_script.php?src_id=2848"
	},
	"version": "20040316"
}