{
	"author": "Andreas Politz",
	"description": "omnicompletion for the perl language",
	"homepage": "http://www.vim.org/scripts/script.php?script_id=1924",
	"name": "omniperl",
	"vim-script-nr": 1924
}