{
	"author": "Martin Tournoij",
	"description": "Automatically create directories",
	"homepage": "http://www.vim.org/scripts/script.php?script_id=5474",
	"name": "auto_mkdir2",
	"vim-script-nr": 5474
}