{
	"author": "Andy Wokula",
	"description": "Last position jump improved for Easy Vim",
	"homepage": "http://www.vim.org/scripts/script.php?script_id=3059",
	"name": "lastpos",
	"vim-script-nr": 3059
}