{
	"repository": {
		"file-name": "hyperlist.vba",
		"type": "archive",
		"unpack-sequence": [
			"vmb"
		],
		"url": "http://www.vim.org/scripts/download_script.php?src_id=18816"
	},
	"version": "2.1.6"
}