{
	"repository": {
		"file-name": "vim-r-plugin-111014.zip",
		"type": "archive",
		"unpack-sequence": [
			"zip"
		],
		"url": "http://www.vim.org/scripts/download_script.php?src_id=16673"
	},
	"version": "111014"
}