{
	"author": "drauh isageek",
	"description": "trivial color scheme for terminals",
	"homepage": "http://www.vim.org/scripts/script.php?script_id=1971",
	"name": "trivial256",
	"vim-script-nr": 1971
}