{
	"author": "Xia Kai",
	"description": "add file header automatically and intelligently",
	"homepage": "http://www.vim.org/scripts/script.php?script_id=4676",
	"name": "better-header",
	"vim-script-nr": 4676
}