{
	"repository": {
		"file-name": "mathematic.vim-1.10.zip",
		"strip-components": 1,
		"type": "archive",
		"unpack-sequence": [
			"zip"
		],
		"url": "http://www.vim.org/scripts/download_script.php?src_id=17942"
	},
	"version": "1.10"
}