{
	"repository": {
		"file-name": "MarkLines.zip",
		"type": "archive",
		"unpack-sequence": [
			"zip"
		],
		"url": "http://www.vim.org/scripts/download_script.php?src_id=9647"
	},
	"version": "1.1"
}