{
	"repository": {
		"file-name": "vim-sandwich-1.2.1.zip",
		"type": "archive",
		"unpack-sequence": [
			"zip"
		],
		"url": "http://www.vim.org/scripts/download_script.php?src_id=23659"
	},
	"version": "1.2.1"
}