{
	"author": "t9 md",
	"description": "make cookbook navigation quick and easy for Opscode's Chef.",
	"homepage": "http://www.vim.org/scripts/script.php?script_id=3623",
	"name": "chef",
	"vim-script-nr": 3623
}