{
	"author": "Daniel Nogradi",
	"description": "Fold python code nicely and toggle with one keystroke",
	"homepage": "http://www.vim.org/scripts/script.php?script_id=1494",
	"name": "Efficient_python_folding",
	"vim-script-nr": 1494
}