{
	"repository": {
		"file-name": "tail-3.0.vba",
		"type": "archive",
		"unpack-sequence": [
			"vmb"
		],
		"url": "http://www.vim.org/scripts/download_script.php?src_id=7685"
	},
	"version": "3.0"
}