{
	"author": "Alexander Serebryakov",
	"description": "Plugin for TODO lists management",
	"homepage": "http://www.vim.org/scripts/script.php?script_id=5588",
	"name": "vim-todo-lists",
	"vim-script-nr": 5588
}