{
	"author": "Michael Brailsford",
	"description": "Makes all your favorite SQL keywords uppercase automatically.",
	"homepage": "http://www.vim.org/scripts/script.php?script_id=305",
	"name": "sql_iabbr",
	"vim-script-nr": 305
}