{
	"author": "Francois Labelle",
	"description": "A dark color scheme for 256-color terminals that I find easily readable.",
	"homepage": "http://www.vim.org/scripts/script.php?script_id=4075",
	"name": "burnttoast256",
	"vim-script-nr": 4075
}