{
	"author": "joe richter",
	"description": "keeps buffer menu at constant length, for tearoff usage",
	"homepage": "http://www.vim.org/scripts/script.php?script_id=2563",
	"name": "bufMenuToo",
	"vim-script-nr": 2563
}