{
	"author": "carson fire",
	"description": "A blend of useful document syntax for text files",
	"homepage": "http://www.vim.org/scripts/script.php?script_id=4188",
	"name": "HybridText",
	"vim-script-nr": 4188
}