{
	"repository": {
		"file-name": "vim-xkbswitch-0.14.3.tgz",
		"type": "archive",
		"unpack-sequence": [
			"gz",
			"tar"
		],
		"url": "http://www.vim.org/scripts/download_script.php?src_id=25033"
	},
	"version": "0.14.3"
}