{
	"repository": {
		"file-name": "tagbar.vmb",
		"type": "archive",
		"unpack-sequence": [
			"vmb"
		],
		"url": "http://www.vim.org/scripts/download_script.php?src_id=18143"
	},
	"version": "2.4"
}