{
	"author": "yuuko aioi",
	"description": "preview markdown through browser with no external dependencies",
	"homepage": "http://www.vim.org/scripts/script.php?script_id=5324",
	"name": "markdown-preview%5324",
	"vim-script-nr": 5324
}