{
	"repository": {
		"file-name": "vim-markdown-wiki.vim",
		"type": "file",
		"url": "http://www.vim.org/scripts/download_script.php?src_id=23072",
		"vim-directory": "plugin"
	},
	"version": "1.2"
}