{
	"repository": {
		"file-name": "matchit.zip",
		"type": "archive",
		"unpack-sequence": [
			"zip"
		],
		"url": "http://www.vim.org/scripts/download_script.php?src_id=3015"
	},
	"version": "1.8"
}