{
	"repository": {
		"file-name": "LoContrastColors.tar.gz",
		"type": "archive",
		"unpack-sequence": [
			"gz",
			"tar"
		],
		"url": "http://www.vim.org/scripts/download_script.php?src_id=6908"
	},
	"version": "1.1"
}