{
	"author": "David Larson",
	"description": "Defines parameter text objects",
	"homepage": "http://www.vim.org/scripts/script.php?script_id=2979",
	"name": "Parameter_Text_Objects",
	"vim-script-nr": 2979
}