{
	"author": "chili cuil",
	"description": "Plugin to cryptographically checksum files ",
	"homepage": "http://www.vim.org/scripts/script.php?script_id=5336",
	"name": "vim-checksum",
	"vim-script-nr": 5336
}