{
	"author": "kevin krouse",
	"description": "Creates list of TODO, FIXME, BUG comments",
	"homepage": "http://www.vim.org/scripts/script.php?script_id=585",
	"name": "todolist",
	"vim-script-nr": 585
}