{
	"author": "Dumidu Handakumbura",
	"description": "Provides ballerina support to vim, when coupled with the bal ft script.",
	"homepage": "http://www.vim.org/scripts/script.php?script_id=5567",
	"name": "bal%5567",
	"vim-script-nr": 5567
}