{
	"author": "Aleksandr Batsuev",
	"description": "Google Closure plugin for vim",
	"homepage": "http://www.vim.org/scripts/script.php?script_id=3651",
	"name": "googleclosurevim",
	"vim-script-nr": 3651
}