{
	"author": "lei fw",
	"description": "generate and cache tags for C language uses ctags",
	"homepage": "http://www.vim.org/scripts/script.php?script_id=3684",
	"name": "ctags_cache",
	"vim-script-nr": 3684
}