{
	"author": "Ma Zhuang",
	"description": "A plugin to generate table of contents for Markdown files.",
	"homepage": "http://www.vim.org/scripts/script.php?script_id=5460",
	"name": "vim-markdown-toc",
	"vim-script-nr": 5460
}