{
	"repository": {
		"file-name": "vim-metarw-0.0.3.zip",
		"strip-components": 1,
		"type": "archive",
		"unpack-sequence": [
			"zip"
		],
		"url": "http://www.vim.org/scripts/download_script.php?src_id=9208"
	},
	"version": "0.0.3"
}