{
	"repository": {
		"file-name": "vimshell-ssh-1.1.tgz",
		"type": "archive",
		"unpack-sequence": [
			"gz",
			"tar"
		],
		"url": "http://www.vim.org/scripts/download_script.php?src_id=16108"
	},
	"version": "1.1"
}