{
	"repository": {
		"file-name": "winmanager.vmb.bz2",
		"type": "archive",
		"unpack-sequence": [
			"bz2",
			"vmb"
		],
		"url": "http://www.vim.org/scripts/download_script.php?src_id=18196"
	},
	"version": "2.40"
}