{
	"author": "Hidin zhang",
	"description": "1:auto update cscope ctags database2:easy create database 3: auto plugn database",
	"homepage": "http://www.vim.org/scripts/script.php?script_id=5557",
	"name": "auto_update_cscope_ctags_database",
	"vim-script-nr": 5557
}