{
	"author": "t9 md",
	"description": "land to window you choose like tmux's 'display-pane'.",
	"homepage": "http://www.vim.org/scripts/script.php?script_id=4815",
	"name": "choowsewin",
	"vim-script-nr": 4815
}