{
	"repository": {
		"file-name": "tSkeleton-Samples.zip",
		"strip-components": 1,
		"type": "archive",
		"unpack-sequence": [
			"zip"
		],
		"url": "http://www.vim.org/scripts/download_script.php?src_id=7022"
	},
	"version": "3.0samples"
}