{
	"repository": {
		"file-name": "php_localvarcheck.vim",
		"type": "file",
		"url": "http://www.vim.org/scripts/download_script.php?src_id=11495",
		"vim-directory": "ftplugin"
	},
	"version": "1.1"
}