{
	"author": "Scott Updike",
	"description": "plugin for redirecting command output",
	"homepage": "http://www.vim.org/scripts/script.php?script_id=5122",
	"name": "RedirCommands",
	"vim-script-nr": 5122
}