{
	"author": "kamil stachowski",
	"description": "A calm, fairly low contrast, dark color scheme",
	"homepage": "http://www.vim.org/scripts/script.php?script_id=5473",
	"name": "nordisk",
	"vim-script-nr": 5473
}