{
	"author": "Eric Ji",
	"description": "vim plugin to for visual display of svn diffs in two vim windows",
	"homepage": "http://www.vim.org/scripts/script.php?script_id=1931",
	"name": "svndiff%1931",
	"vim-script-nr": 1931
}