{
	"repository": {
		"file-name": "kink.vim-1.0.10.vba",
		"type": "archive",
		"unpack-sequence": [
			"vmb"
		],
		"url": "http://www.vim.org/scripts/download_script.php?src_id=25068"
	},
	"version": "1.0.10"
}