{
	"repository": {
		"file-name": "MakeDoxygenComment.vim",
		"type": "file",
		"url": "http://www.vim.org/scripts/download_script.php?src_id=19844",
		"vim-directory": "ftplugin"
	},
	"version": "0.1.4"
}