{
	"author": "Allan Neal",
	"description": "Syntax highlighting for ledger (accounting system) files",
	"homepage": "http://www.vim.org/scripts/script.php?script_id=1155",
	"name": "ledger",
	"vim-script-nr": 1155
}