{
	"repository": {
		"file-name": "phpErrorMarker.vmb",
		"type": "archive",
		"unpack-sequence": [
			"vmb"
		],
		"url": "http://www.vim.org/scripts/download_script.php?src_id=24407"
	},
	"version": "0.0.7"
}