{
	"repository": {
		"file-name": "vim-inccomplete-1.7.40.zip",
		"strip-components": 1,
		"type": "archive",
		"unpack-sequence": [
			"zip"
		],
		"url": "http://www.vim.org/scripts/download_script.php?src_id=23564"
	},
	"version": "1.7.40"
}