{
	"author": "Lorance Stinson",
	"description": "IDE like Task List for Vim buffers.",
	"homepage": "http://www.vim.org/scripts/script.php?script_id=3765",
	"name": "TagmaTasks",
	"vim-script-nr": 3765
}