{
	"repository": {
		"file-name": "bbv2-1.0.tar.bz2",
		"type": "archive",
		"unpack-sequence": [
			"bz2",
			"tar"
		],
		"url": "http://www.vim.org/scripts/download_script.php?src_id=8494"
	},
	"version": "1.0"
}