{
	"author": "Noriyoshi Furusawa",
	"description": "Show all lines in the buffer containing word (grep buffer)",
	"homepage": "http://www.vim.org/scripts/script.php?script_id=2262",
	"name": "occur",
	"vim-script-nr": 2262
}