{
	"repository": {
		"file-name": "vim-pad_0.5.zip",
		"strip-components": 1,
		"type": "archive",
		"unpack-sequence": [
			"zip"
		],
		"url": "http://www.vim.org/scripts/download_script.php?src_id=16799"
	},
	"version": "0.5"
}