{
	"author": "Alisue Lambda",
	"description": "A simple compiler for using Django unittest with VIM",
	"homepage": "http://www.vim.org/scripts/script.php?script_id=3948",
	"name": "django%3948",
	"vim-script-nr": 3948
}