{
	"author": "Kent Cowgill",
	"description": "Automatically generate, manage, and run test files for perl source.",
	"homepage": "http://www.vim.org/scripts/script.php?script_id=1985",
	"name": "runtests",
	"vim-script-nr": 1985
}