{
	"author": "Fritz Mehner",
	"description": "NQC programming support (for the LEGO MINDSTORMS RCX-Controller)",
	"homepage": "http://www.vim.org/scripts/script.php?script_id=67",
	"name": "nqc",
	"vim-script-nr": 67
}