{
	"author": "rich paul",
	"description": "Allows one to edit a file with prevledges from an unprivledged session.",
	"homepage": "http://www.vim.org/scripts/script.php?script_id=729",
	"name": "sudo",
	"vim-script-nr": 729
}