{
	"author": "Ingo Karkat",
	"description": "Insert mode completion of filenames loaded in Vim.",
	"homepage": "http://www.vim.org/scripts/script.php?script_id=4313",
	"name": "BufNameComplete",
	"vim-script-nr": 4313
}