{
	"author": "Michael Brailsford",
	"description": "Highlight eruby code blocks within html.",
	"homepage": "http://www.vim.org/scripts/script.php?script_id=403",
	"name": "eruby",
	"vim-script-nr": 403
}