{
	"author": "Christian Brabandt",
	"description": "Various enhancements for using unicode and digraphs with Vim",
	"homepage": "http://www.vim.org/scripts/script.php?script_id=2822",
	"name": "unicode",
	"vim-script-nr": 2822
}