{
	"author": "tell k",
	"description": "vim-autoflake is a Vim plugin that applies autoflake to your current file. ",
	"homepage": "http://www.vim.org/scripts/script.php?script_id=4879",
	"name": "vim-autoflake",
	"vim-script-nr": 4879
}