{
	"author": "niva niva",
	"description": "Convert VimWikia Article to Vim help file",
	"homepage": "http://www.vim.org/scripts/script.php?script_id=3683",
	"name": "wikiatovimhelp",
	"vim-script-nr": 3683
}