{
	"repository": {
		"file-name": "buffer-status-menu.vim",
		"type": "file",
		"url": "http://www.vim.org/scripts/download_script.php?src_id=7614",
		"vim-directory": "plugin"
	},
	"version": "1.0"
}