{
	"author": "Baptiste Fontaine",
	"description": "syntax file for the Omgrofl language",
	"homepage": "http://www.vim.org/scripts/script.php?script_id=4181",
	"name": "omgrofl",
	"vim-script-nr": 4181
}