{
	"author": "Patrick Meiser-Knosowski",
	"description": "Syntax, indent and more for Abb industrial robots",
	"homepage": "http://www.vim.org/scripts/script.php?script_id=5348",
	"name": "RAPID-Syntax",
	"vim-script-nr": 5348
}