{
	"author": "Michael Benfield",
	"description": "flexible expansion of abbreviations/templates",
	"homepage": "http://www.vim.org/scripts/script.php?script_id=1193",
	"name": "expander",
	"vim-script-nr": 1193
}