{
	"repository": {
		"file-name": "foldsearch.vmb",
		"type": "archive",
		"unpack-sequence": [
			"vmb"
		],
		"url": "http://www.vim.org/scripts/download_script.php?src_id=22704"
	},
	"version": "1.1.1"
}