{
	"repository": {
		"file-name": "taglist_40b4.zip",
		"type": "archive",
		"unpack-sequence": [
			"zip"
		],
		"url": "http://www.vim.org/scripts/download_script.php?src_id=5548"
	},
	"version": "4.0b4"
}