{
	"repository": {
		"file-name": "vim-searchmatch-0.9.0.tar.gz",
		"strip-components": 1,
		"type": "archive",
		"unpack-sequence": [
			"gz",
			"tar"
		],
		"url": "http://www.vim.org/scripts/download_script.php?src_id=21498"
	},
	"version": "0.9.0"
}