{
	"author": "Itay Donenhirsch",
	"description": "quick haskell hints at the status line",
	"homepage": "http://www.vim.org/scripts/script.php?script_id=3204",
	"name": "htip",
	"vim-script-nr": 3204
}