{
	"repository": {
		"file-name": "grsecurity.vba",
		"strip-components": 1,
		"type": "archive",
		"unpack-sequence": [
			"vmb"
		],
		"url": "http://www.vim.org/scripts/download_script.php?src_id=12899"
	},
	"version": "2"
}