{
	"repository": {
		"file-name": "vim-todo-lists-0.5.0.zip",
		"strip-components": 1,
		"type": "archive",
		"unpack-sequence": [
			"zip"
		],
		"url": "http://www.vim.org/scripts/download_script.php?src_id=25546"
	},
	"version": "0.5.0"
}