{
	"repository": {
		"file-name": "indexer-1.8.tar.gz",
		"type": "archive",
		"unpack-sequence": [
			"gz",
			"tar"
		],
		"url": "http://www.vim.org/scripts/download_script.php?src_id=13919"
	},
	"version": "1.8"
}