{
	"repository": {
		"file-name": "dbext_2400.zip",
		"type": "archive",
		"unpack-sequence": [
			"zip"
		],
		"url": "http://www.vim.org/scripts/download_script.php?src_id=24519"
	},
	"version": "24.00"
}