{
	"author": "Hinrik \u00d6rn Sigur\u00f0sson",
	"description": "A Tango-based colorscheme with good contrast, yet easy on the eyes",
	"homepage": "http://www.vim.org/scripts/script.php?script_id=2430",
	"name": "literal_tango",
	"vim-script-nr": 2430
}