{
	"repository": {
		"file-name": "scilab.vim.gz",
		"type": "file",
		"unpack-sequence": [
			"gz"
		],
		"url": "http://www.vim.org/scripts/download_script.php?src_id=3645",
		"vim-directory": "other"
	},
	"version": "1.0"
}