{
	"repository": {
		"file-name": "javacomplete.zip",
		"type": "archive",
		"unpack-sequence": [
			"zip"
		],
		"url": "http://www.vim.org/scripts/download_script.php?src_id=7584"
	},
	"version": "0.76.8"
}