{
	"author": "omi taku",
	"description": "Automatically Resizing Splitted Current Window Size Larger.",
	"homepage": "http://www.vim.org/scripts/script.php?script_id=2080",
	"name": "autoresize",
	"vim-script-nr": 2080
}