{
	"repository": {
		"file-name": "grads.tar.gz",
		"type": "archive",
		"unpack-sequence": [
			"gz",
			"tar"
		],
		"url": "http://www.vim.org/scripts/download_script.php?src_id=17193"
	},
	"version": "0.1.1"
}