{
	"author": "Pranesh Srinivasan",
	"description": "A plugin for redhawk: query and replace",
	"homepage": "http://www.vim.org/scripts/script.php?script_id=3586",
	"name": "Redhawk_Vim_Plugin",
	"vim-script-nr": 3586
}