{
	"author": "Alessandro Yorba",
	"description": "Vim Colorscheme for Terminals and GUI",
	"homepage": "http://www.vim.org/scripts/script.php?script_id=5321",
	"name": "alduin",
	"vim-script-nr": 5321
}