{
	"author": "Christophe-Marie Duquesne",
	"description": "rename variables and files in your code",
	"homepage": "http://www.vim.org/scripts/script.php?script_id=3028",
	"name": "rename",
	"vim-script-nr": 3028
}