{
	"author": "Timo Frenay",
	"description": "Draw rectangles and lines using blockwise Visual selection.",
	"homepage": "http://www.vim.org/scripts/script.php?script_id=452",
	"name": "draw",
	"vim-script-nr": 452
}