{
	"repository": {
		"file-name": "videm-1015-build20131211.tar.bz2",
		"type": "archive",
		"unpack-sequence": [
			"bz2",
			"tar"
		],
		"url": "http://www.vim.org/scripts/download_script.php?src_id=21185"
	},
	"version": "1.015"
}