{
	"author": "Joan Rivera",
	"description": "Syntax highlight and file type detection for Zim",
	"homepage": "http://www.vim.org/scripts/script.php?script_id=5231",
	"name": "vim-zimwiki-syntax",
	"vim-script-nr": 5231
}