{
	"repository": {
		"file-name": "buffers_search_and_replace.vim",
		"type": "file",
		"url": "http://www.vim.org/scripts/download_script.php?src_id=10157",
		"vim-directory": "plugin"
	},
	"version": "0.5"
}