{
	"author": "Henry So, Jr.",
	"description": "Runs the current buffer using BeanShell.",
	"homepage": "http://www.vim.org/scripts/script.php?script_id=408",
	"name": "beanshell",
	"vim-script-nr": 408
}