{
	"author": "Martin Krischik",
	"description": "My own color scheme for all OS I uses.",
	"homepage": "http://www.vim.org/scripts/script.php?script_id=1538",
	"name": "colorsmartin_krischik",
	"vim-script-nr": 1538
}