{
	"repository": {
		"file-name": "vim-htmldjango_omnicomplete-b54beb0e57.tar.gz",
		"strip-components": 1,
		"type": "archive",
		"unpack-sequence": [
			"gz",
			"tar"
		],
		"url": "http://www.vim.org/scripts/download_script.php?src_id=19024"
	},
	"version": "0.8.1"
}