{
	"repository": {
		"file-name": "ideone-vim.zip",
		"type": "archive",
		"unpack-sequence": [
			"zip"
		],
		"url": "http://www.vim.org/scripts/download_script.php?src_id=17898"
	},
	"version": "0.02"
}