{
	"repository": {
		"file-name": "multisearch.vimball",
		"type": "archive",
		"unpack-sequence": [
			"vmb"
		],
		"url": "http://www.vim.org/scripts/download_script.php?src_id=11601"
	},
	"version": "0.8"
}