{
	"author": "Piotr Husiatynski",
	"description": "Easy find & open using find application.",
	"homepage": "http://www.vim.org/scripts/script.php?script_id=3021",
	"name": "Find_files",
	"vim-script-nr": 3021
}