{
	"repository": {
		"file-name": "checksyntax.vba",
		"type": "archive",
		"unpack-sequence": [
			"vmb"
		],
		"url": "http://www.vim.org/scripts/download_script.php?src_id=21538"
	},
	"version": "4.01"
}