{
	"author": "Jason Heddings",
	"description": "Toggle the visibility of the quickfix window",
	"homepage": "http://www.vim.org/scripts/script.php?script_id=1375",
	"name": "QFixToggle",
	"vim-script-nr": 1375
}