{
	"repository": {
		"file-name": "php_check_syntax.vim",
		"type": "file",
		"url": "http://www.vim.org/scripts/download_script.php?src_id=4240",
		"vim-directory": "ftplugin"
	},
	"version": "0.2"
}