{
	"author": "Felippe Bueno",
	"description": "Script to send your buffer or selection to http://cos.pe and returns a url",
	"homepage": "http://www.vim.org/scripts/script.php?script_id=4220",
	"name": "cospe",
	"vim-script-nr": 4220
}