{
	"repository": {
		"file-name": "doctest.vim-master.zip",
		"strip-components": 1,
		"type": "archive",
		"unpack-sequence": [
			"zip"
		],
		"url": "http://www.vim.org/scripts/download_script.php?src_id=22295"
	},
	"version": "0.9"
}