{
	"author": "Yukihiro Nakadaira",
	"description": "highlight unused/unassigned local variable",
	"homepage": "http://www.vim.org/scripts/script.php?script_id=2803",
	"name": "php_localvarcheck",
	"vim-script-nr": 2803
}