{
	"author": "Fang xm",
	"description": "list all tags and jump to one of your choise",
	"homepage": "http://www.vim.org/scripts/script.php?script_id=3605",
	"name": "listtag",
	"vim-script-nr": 3605
}