{
	"repository": {
		"file-name": "inline_edit.zip",
		"type": "archive",
		"unpack-sequence": [
			"zip"
		],
		"url": "http://www.vim.org/scripts/download_script.php?src_id=19617"
	},
	"version": "0.2.0"
}