{
	"author": "Francisco Castro",
	"description": "Another syntax highlighting file for octave",
	"homepage": "http://www.vim.org/scripts/script.php?script_id=1591",
	"name": "octave%1591",
	"vim-script-nr": 1591
}