{
	"repository": {
		"file-name": "syntax_check_embedded_perl.vba",
		"type": "archive",
		"unpack-sequence": [
			"vmb"
		],
		"url": "http://www.vim.org/scripts/download_script.php?src_id=14797"
	},
	"version": "0.1"
}