{
	"repository": {
		"file-name": "sherlock.vba",
		"type": "archive",
		"unpack-sequence": [
			"vmb"
		],
		"url": "http://www.vim.org/scripts/download_script.php?src_id=11154"
	},
	"version": "0.0.3"
}