{
	"repository": {
		"file-name": "rubytest.tar.bz2",
		"type": "archive",
		"unpack-sequence": [
			"bz2",
			"tar"
		],
		"url": "http://www.vim.org/scripts/download_script.php?src_id=10830"
	},
	"version": "0.9.6"
}