{
	"repository": {
		"file-name": "autumnleaf_modified.vim",
		"type": "file",
		"url": "http://www.vim.org/scripts/download_script.php?src_id=18172",
		"vim-directory": "colors"
	},
	"version": "1.0"
}