{
	"author": "Nathan Lawrence",
	"description": "Puts backups where they belong: out of the way",
	"homepage": "http://www.vim.org/scripts/script.php?script_id=2334",
	"name": "backup",
	"vim-script-nr": 2334
}