{
	"repository": {
		"file-name": "pyflakes-vim.zip",
		"type": "archive",
		"unpack-sequence": [
			"zip"
		],
		"url": "http://www.vim.org/scripts/download_script.php?src_id=14215"
	},
	"version": "2.02"
}