{
	"repository": {
		"file-name": "downloadvimscripts_bash.zip",
		"type": "archive",
		"unpack-sequence": [
			"zip"
		],
		"url": "http://www.vim.org/scripts/download_script.php?src_id=9665"
	},
	"version": "1.5.3"
}