{
	"repository": {
		"file-name": "ProjectTag.zip",
		"type": "archive",
		"unpack-sequence": [
			"zip"
		],
		"url": "http://www.vim.org/scripts/download_script.php?src_id=14439"
	},
	"version": "0.1.9"
}