{
	"author": "Ingo Karkat",
	"description": "Movement over changes in a diff window. ",
	"homepage": "http://www.vim.org/scripts/script.php?script_id=3719",
	"name": "diffwindow_movement",
	"vim-script-nr": 3719
}