{
	"repository": {
		"file-name": "context_complete1.0.tar",
		"type": "archive",
		"unpack-sequence": [
			"tar"
		],
		"url": "http://www.vim.org/scripts/download_script.php?src_id=3960"
	},
	"version": "1.0"
}