{
	"author": "yee xiaohu",
	"description": "light colorscheme suitable for programming",
	"homepage": "http://www.vim.org/scripts/script.php?script_id=3714",
	"name": "light2011",
	"vim-script-nr": 3714
}