{
	"repository": {
		"file-name": "Mahewincs.tar.gz",
		"type": "archive",
		"unpack-sequence": [
			"gz",
			"tar"
		],
		"url": "http://www.vim.org/scripts/download_script.php?src_id=17582"
	},
	"version": "0.2"
}