{
	"author": "Arseny Zarechnev",
	"description": "Bind pressing russian key in normal mode to toggle layout and repeat same key.",
	"homepage": "http://www.vim.org/scripts/script.php?script_id=4493",
	"name": "vim-rusmode",
	"vim-script-nr": 4493
}