{
	"author": "Dominique Pell\u00e9",
	"description": "Syntax file for the Datascript modelling binary datatypes language",
	"homepage": "http://www.vim.org/scripts/script.php?script_id=3138",
	"name": "datascript",
	"vim-script-nr": 3138
}