{
	"author": "Tom Link",
	"description": "Simple assertions, poor man's contracts for vim script",
	"homepage": "http://www.vim.org/scripts/script.php?script_id=1730",
	"name": "tAssert",
	"vim-script-nr": 1730
}