{
	"repository": {
		"file-name": "vim-r-plugin-110117.zip",
		"type": "archive",
		"unpack-sequence": [
			"zip"
		],
		"url": "http://www.vim.org/scripts/download_script.php?src_id=14770"
	},
	"version": "110117"
}