{
	"author": "Hallison Batista",
	"description": "Syntax highlight for Ruby Documentation",
	"homepage": "http://www.vim.org/scripts/script.php?script_id=2878",
	"name": "RDoc",
	"vim-script-nr": 2878
}