{
	"repository": {
		"file-name": "xterm-color-table.vim.tar.gz",
		"strip-components": 1,
		"type": "archive",
		"unpack-sequence": [
			"gz",
			"tar"
		],
		"url": "http://www.vim.org/scripts/download_script.php?src_id=15556"
	},
	"version": "1.6"
}