{
	"repository": {
		"file-name": "code-snippet-2007-12-04a.zip",
		"type": "archive",
		"unpack-sequence": [
			"zip"
		],
		"url": "http://www.vim.org/scripts/download_script.php?src_id=8026"
	},
	"version": "071204a"
}