{
	"repository": {
		"file-name": "dirconf.vim.zip",
		"type": "archive",
		"unpack-sequence": [
			"zip"
		],
		"url": "http://www.vim.org/scripts/download_script.php?src_id=25403"
	},
	"version": "0.3.0"
}