{
	"author": "Idan Arye",
	"description": "Coordinate D tools to work together for you",
	"homepage": "http://www.vim.org/scripts/script.php?script_id=5003",
	"name": "Dutyl",
	"vim-script-nr": 5003
}