{
	"repository": {
		"file-name": "easytags.zip",
		"type": "archive",
		"unpack-sequence": [
			"zip"
		],
		"url": "http://www.vim.org/scripts/download_script.php?src_id=22638"
	},
	"version": "3.9.1"
}