{
	"author": "Nathan Lawrence",
	"description": "A simple, automatic, no-nonsense, out of your way session manager",
	"homepage": "http://www.vim.org/scripts/script.php?script_id=2333",
	"name": "session",
	"vim-script-nr": 2333
}