{
	"author": "Petrea Stefan",
	"description": "only works on Windows, uploads current file in rafb.net",
	"homepage": "http://www.vim.org/scripts/script.php?script_id=1889",
	"name": "automated-rafb.net_uploader_plugin",
	"vim-script-nr": 1889
}