{
	"repository": {
		"file-name": "vim-sass-colors-0.6.5.zip",
		"strip-components": 1,
		"type": "archive",
		"unpack-sequence": [
			"zip"
		],
		"url": "http://www.vim.org/scripts/download_script.php?src_id=25335"
	},
	"version": "0.6.5"
}