{
	"author": "Linda Rhysd",
	"description": "A high-configurable timeline filter for TweetVim.",
	"homepage": "http://www.vim.org/scripts/script.php?script_id=4710",
	"name": "tweetvim-advanced-filter",
	"vim-script-nr": 4710
}