{
	"author": "Adrien (Axioplase::Pied)",
	"description": "Lets you easily close all open parens up to the cursor line.",
	"homepage": "http://www.vim.org/scripts/script.php?script_id=1885",
	"name": "scmCloseParens",
	"vim-script-nr": 1885
}