{
	"repository": {
		"file-name": "krl-for-vim-1.5.2.zip",
		"strip-components": 1,
		"type": "archive",
		"unpack-sequence": [
			"zip"
		],
		"url": "http://www.vim.org/scripts/download_script.php?src_id=25634"
	},
	"version": "1.5.2"
}