{
	"author": "Junegunn Choi",
	"description": "Displays the relative position of the cursor on the left side of the screen",
	"homepage": "http://www.vim.org/scripts/script.php?script_id=4476",
	"name": "vim-scroll-position",
	"vim-script-nr": 4476
}