{
	"author": "Stephen Prather",
	"description": "Highlighting scheme for Verilog-AMS",
	"homepage": "http://www.vim.org/scripts/script.php?script_id=1329",
	"name": "verilogams",
	"vim-script-nr": 1329
}