{
	"author": "Marc Weber",
	"description": "keep on working while compiling your project",
	"homepage": "http://www.vim.org/scripts/script.php?script_id=1582",
	"name": "vim-addon-background-cmd",
	"vim-script-nr": 1582
}