{
	"repository": {
		"file-name": "assistEncloseManip.vim",
		"type": "file",
		"url": "http://www.vim.org/scripts/download_script.php?src_id=19761",
		"vim-directory": "ftplugin"
	},
	"version": "0.14c"
}