{
	"repository": {
		"file-name": "GrepHere-1.11.vmb.gz",
		"type": "archive",
		"unpack-sequence": [
			"gz",
			"vmb"
		],
		"url": "http://www.vim.org/scripts/download_script.php?src_id=24771"
	},
	"version": "1.11"
}