{
	"author": "zhu nianyang",
	"description": "show all color in term or gui with vim.",
	"homepage": "http://www.vim.org/scripts/script.php?script_id=3235",
	"name": "showcolor",
	"vim-script-nr": 3235
}