{
	"author": "julien stechele",
	"description": "A transformation term >> gui jasonwryan colorscheme with modification",
	"homepage": "http://www.vim.org/scripts/script.php?script_id=3616",
	"name": "warez_colorscheme",
	"vim-script-nr": 3616
}