{
	"repository": {
		"file-name": "delimitMate-2.7.zip",
		"type": "archive",
		"unpack-sequence": [
			"zip"
		],
		"url": "http://www.vim.org/scripts/download_script.php?src_id=22665"
	},
	"version": "2.7"
}