{
	"author": "binary runner",
	"description": "syntax higlighting for LDAP schema definition",
	"homepage": "http://www.vim.org/scripts/script.php?script_id=653",
	"name": "ldap_schema",
	"vim-script-nr": 653
}