{
	"repository": {
		"file-name": "videm-1100-build20140127.tar.bz2",
		"strip-components": 1,
		"type": "archive",
		"unpack-sequence": [
			"bz2",
			"tar"
		],
		"url": "http://www.vim.org/scripts/download_script.php?src_id=21383"
	},
	"version": "1.100"
}