{
	"author": "Aaron Jensen",
	"description": "Automates creation of /// comments for C# methods",
	"homepage": "http://www.vim.org/scripts/script.php?script_id=481",
	"name": "cscomment",
	"vim-script-nr": 481
}