{
	"author": "Andrey Tarantsov",
	"description": "Allows you to quickly switch between .h/.c, .h/.cc, .ads/.adb etc",
	"homepage": "http://www.vim.org/scripts/script.php?script_id=1289",
	"name": "otherfile%1289",
	"vim-script-nr": 1289
}