{
	"author": "Leandro Penz",
	"description": "Finds header required by C functions.",
	"homepage": "http://www.vim.org/scripts/script.php?script_id=1380",
	"name": "cHeaderFinder",
	"vim-script-nr": 1380
}