{
	"repository": {
		"file-name": "vimprj-1.09.zip",
		"strip-components": 1,
		"type": "archive",
		"unpack-sequence": [
			"zip"
		],
		"url": "http://www.vim.org/scripts/download_script.php?src_id=19397"
	},
	"version": "1.09"
}