{
	"author": "Adam Katz",
	"description": "Syntax highlighting for SpamAssassin config files",
	"homepage": "http://www.vim.org/scripts/script.php?script_id=2617",
	"name": "SpamAssassin_syntax",
	"vim-script-nr": 2617
}