{
	"repository": {
		"file-name": "GET_LATEST_FROM_GITHUB.txt",
		"type": "file",
		"url": "http://www.vim.org/scripts/download_script.php?src_id=21121",
		"vim-directory": "plugin"
	},
	"version": "1.1"
}