{
	"repository": {
		"file-name": "codecommenter.vim",
		"type": "file",
		"url": "http://www.vim.org/scripts/download_script.php?src_id=21070",
		"vim-directory": "plugin"
	},
	"version": "2.0++++"
}