{
	"author": "Jamshed Vesuna",
	"description": "A Vim plugin for previewing markdown files in a browser.",
	"homepage": "http://www.vim.org/scripts/script.php?script_id=5012",
	"name": "Vim_Markdown_Preview",
	"vim-script-nr": 5012
}