{
	"repository": {
		"file-name": "AlignFromCursor-2.02.vmb.gz",
		"type": "archive",
		"unpack-sequence": [
			"gz",
			"vmb"
		],
		"url": "http://www.vim.org/scripts/download_script.php?src_id=24863"
	},
	"version": "2.02"
}