{
	"author": "Akshay Hegde",
	"description": "Super simple and awesome gist support for vim",
	"homepage": "http://www.vim.org/scripts/script.php?script_id=4969",
	"name": "Fist_of_Vim",
	"vim-script-nr": 4969
}