{
	"author": "kamil stachowski",
	"description": "A dark, low contrast, Cthulhu-esque colour scheme",
	"homepage": "http://www.vim.org/scripts/script.php?script_id=5478",
	"name": "mythos",
	"vim-script-nr": 5478
}