{
	"author": "Aquila Deus",
	"description": "Indent for C# (keywords: C-sharp, C sharp, CSharp)",
	"homepage": "http://www.vim.org/scripts/script.php?script_id=1168",
	"name": "C_Indent",
	"vim-script-nr": 1168
}