{
	"repository": {
		"file-name": "snipMate.zip",
		"type": "archive",
		"unpack-sequence": [
			"zip"
		],
		"url": "http://www.vim.org/scripts/download_script.php?src_id=9981"
	},
	"version": "0.61803399"
}