{
	"author": "Kana Natsuno",
	"description": "Text objects for syntax highlighted items",
	"homepage": "http://www.vim.org/scripts/script.php?script_id=2716",
	"name": "textobj-syntax",
	"vim-script-nr": 2716
}