{
	"repository": {
		"file-name": "AutoAlign.vba.gz",
		"type": "archive",
		"unpack-sequence": [
			"gz",
			"vmb"
		],
		"url": "http://www.vim.org/scripts/download_script.php?src_id=7510"
	},
	"version": "13"
}