{
	"repository": {
		"file-name": "indexer-3.11.tar.gz",
		"type": "archive",
		"unpack-sequence": [
			"gz",
			"tar"
		],
		"url": "http://www.vim.org/scripts/download_script.php?src_id=15282"
	},
	"version": "3.11"
}