{
	"author": "ujihisa .",
	"description": "A Unite.vim plugin for changing your colorscheme.",
	"homepage": "http://www.vim.org/scripts/script.php?script_id=3318",
	"name": "unite-colorscheme",
	"vim-script-nr": 3318
}