{
	"author": "Dmitry Frank",
	"description": "Works like punto-switcher app. Helps when you type text in wrong keymap.",
	"homepage": "http://www.vim.org/scripts/script.php?script_id=3911",
	"name": "vim-punto-switcher",
	"vim-script-nr": 3911
}