{
	"repository": {
		"file-name": "emv.tar.gz",
		"type": "archive",
		"unpack-sequence": [
			"gz",
			"tar"
		],
		"url": "http://www.vim.org/scripts/download_script.php?src_id=11371"
	},
	"version": "2.00pj.4"
}