{
	"repository": {
		"file-name": "betterga-0.2.0.tar.gz",
		"type": "archive",
		"unpack-sequence": [
			"gz",
			"tar"
		],
		"url": "http://www.vim.org/scripts/download_script.php?src_id=23432"
	},
	"version": "0.2.0"
}