{
	"author": "Bram de Haan",
	"description": "Base2Tone themes use only 2 hues, this leads to a more calm color scheme",
	"homepage": "http://www.vim.org/scripts/script.php?script_id=5301",
	"name": "Base2Tone",
	"vim-script-nr": 5301
}