{
	"author": "Charles Campbell",
	"description": "Loads plugins as-needed (functions/maps/commands)  (autoload)",
	"homepage": "http://www.vim.org/scripts/script.php?script_id=915",
	"name": "AsNeeded",
	"vim-script-nr": 915
}