{
	"author": "Ben Fritz",
	"description": "Autodetect installed Windows encodings for :TOhtml",
	"homepage": "http://www.vim.org/scripts/script.php?script_id=3316",
	"name": "tohtml_wincp",
	"vim-script-nr": 3316
}