{
	"author": "Fabio Stumbo",
	"description": "Syntax files for Axiom computer algebra system files",
	"homepage": "http://www.vim.org/scripts/script.php?script_id=4765",
	"name": "axiom",
	"vim-script-nr": 4765
}