{
	"repository": {
		"file-name": "objc_matchbracket.vim",
		"type": "file",
		"url": "http://www.vim.org/scripts/download_script.php?src_id=10517",
		"vim-directory": "ftplugin"
	},
	"version": "0.5"
}