{
	"author": "Maximilian Nickel",
	"description": "A script that lets you insert hex color codes by using OS X's color picker",
	"homepage": "http://www.vim.org/scripts/script.php?script_id=3014",
	"name": "ColorX",
	"vim-script-nr": 3014
}