{
	"repository": {
		"file-name": "vim-php-manual.zip",
		"strip-components": 1,
		"type": "archive",
		"unpack-sequence": [
			"zip"
		],
		"url": "http://www.vim.org/scripts/download_script.php?src_id=22747"
	},
	"version": "5.6"
}