{
	"repository": {
		"file-name": "conque_gdb.vmb",
		"type": "archive",
		"unpack-sequence": [
			"vmb"
		],
		"url": "http://www.vim.org/scripts/download_script.php?src_id=20340"
	},
	"version": "0.5"
}