{
	"repository": {
		"file-name": "ack.tar.gz",
		"type": "archive",
		"unpack-sequence": [
			"gz",
			"tar"
		],
		"url": "http://www.vim.org/scripts/download_script.php?src_id=10433"
	},
	"version": "0.3.1"
}