{
	"author": "Kana Natsuno",
	"description": "Operate on lines matched to the last search pattern (:g/re/x)",
	"homepage": "http://www.vim.org/scripts/script.php?script_id=2773",
	"name": "grex",
	"vim-script-nr": 2773
}