{
	"author": "Jeremy Cantrell",
	"description": "Work with python virtualenvs within vim",
	"homepage": "http://www.vim.org/scripts/script.php?script_id=3486",
	"name": "virtualenv",
	"vim-script-nr": 3486
}