{
	"author": "tenfy zhong",
	"description": "auto generate c++ function definition or declaration",
	"homepage": "http://www.vim.org/scripts/script.php?script_id=5401",
	"name": "vim-gencode-cpp",
	"vim-script-nr": 5401
}