{
	"repository": {
		"file-name": "factorus.tar",
		"type": "archive",
		"unpack-sequence": [
			"tar"
		],
		"url": "http://www.vim.org/scripts/download_script.php?src_id=25461"
	},
	"version": "1.984375"
}