{
	"author": "Kana Natsuno",
	"description": "Text objects for ouputs of diff(1)",
	"homepage": "http://www.vim.org/scripts/script.php?script_id=2415",
	"name": "textobj-diff",
	"vim-script-nr": 2415
}