{
	"repository": {
		"file-name": "slimv0913.zip",
		"type": "archive",
		"unpack-sequence": [
			"zip"
		],
		"url": "http://www.vim.org/scripts/download_script.php?src_id=25041"
	},
	"version": "0.9.13"
}