{
	"repository": {
		"file-name": "PreserveNoEOL-1.00.vmb.gz",
		"type": "archive",
		"unpack-sequence": [
			"gz",
			"vmb"
		],
		"url": "http://www.vim.org/scripts/download_script.php?src_id=19941"
	},
	"version": "1.00"
}