{
	"author": "Stephen Mann",
	"description": "a minimal typing tutor for touch-typists",
	"homepage": "http://www.vim.org/scripts/script.php?script_id=3093",
	"name": "TortoiseTyping",
	"vim-script-nr": 3093
}