{
	"repository": {
		"file-name": "vimmpc-20070410.tar.gz",
		"strip-components": 1,
		"type": "archive",
		"unpack-sequence": [
			"gz",
			"tar"
		],
		"url": "http://www.vim.org/scripts/download_script.php?src_id=11762"
	},
	"version": "20070410"
}