{
	"repository": {
		"file-name": "vim-slidedown.tgz",
		"strip-components": 1,
		"type": "archive",
		"unpack-sequence": [
			"gz",
			"tar"
		],
		"url": "http://www.vim.org/scripts/download_script.php?src_id=12880"
	},
	"version": "0.1"
}