{
	"author": "Finlay Cannon",
	"description": "Syntax highlighting for MDX (OLAP queries) ",
	"homepage": "http://www.vim.org/scripts/script.php?script_id=3110",
	"name": "mdx",
	"vim-script-nr": 3110
}