{
	"author": "Alexey Radkov",
	"description": "Utility functions for custom indentation of line under cursor",
	"homepage": "http://www.vim.org/scripts/script.php?script_id=4575",
	"name": "prev_indent",
	"vim-script-nr": 4575
}