{
	"author": "Sergey Vakulenko",
	"description": "This plugin was created to manages your task/notes by days/weeks/years.",
	"homepage": "http://www.vim.org/scripts/script.php?script_id=3956",
	"name": "fwk_notes",
	"vim-script-nr": 3956
}