{
	"author": "Riccardo Casini",
	"description": "colorize AutoIt scripting language, from Hiddensoft",
	"homepage": "http://www.vim.org/scripts/script.php?script_id=968",
	"name": "autoit",
	"vim-script-nr": 968
}