{
	"author": "H\u00e5kan Wikstr\u00f6m",
	"description": "Pale blue and green winter colors",
	"homepage": "http://www.vim.org/scripts/script.php?script_id=1176",
	"name": "oceanlight",
	"vim-script-nr": 1176
}