{
	"author": "Hector Menendez",
	"description": "A super simple session-navigator using obsession / prosession",
	"homepage": "http://www.vim.org/scripts/script.php?script_id=5434",
	"name": "ctrlp-obsession",
	"vim-script-nr": 5434
}