{
	"author": "Artem Nezvigin",
	"description": "Open a buffer for writing without having to create the parent directories.",
	"homepage": "http://www.vim.org/scripts/script.php?script_id=4839",
	"name": "writepath",
	"vim-script-nr": 4839
}