{
	"repository": {
		"file-name": "vim-rest-console-2.3.0.tgz",
		"type": "file",
		"url": "http://www.vim.org/scripts/download_script.php?src_id=24131",
		"vim-directory": "other"
	},
	"version": "2.3.0"
}