{
	"repository": {
		"file-name": "gulp-vim.tar.gz",
		"strip-components": 1,
		"type": "archive",
		"unpack-sequence": [
			"gz",
			"tar"
		],
		"url": "http://www.vim.org/scripts/download_script.php?src_id=23744"
	},
	"version": "v0.7.1"
}