{
	"repository": {
		"file-name": "dbext_230.zip",
		"type": "archive",
		"unpack-sequence": [
			"zip"
		],
		"url": "http://www.vim.org/scripts/download_script.php?src_id=4576"
	},
	"version": "2.30"
}