{
	"author": "zpcat  su",
	"description": "a vim script to load a license template",
	"homepage": "http://www.vim.org/scripts/script.php?script_id=4064",
	"name": "license_loader",
	"vim-script-nr": 4064
}