{
	"author": "Alex Efros",
	"description": "Limbo (OS Inferno's language) syntax highlight",
	"homepage": "http://www.vim.org/scripts/script.php?script_id=3894",
	"name": "Limbo_syntax",
	"vim-script-nr": 3894
}