{
	"author": "Greg Sexton",
	"description": "Light color scheme designed to be very readable, clean and professional.",
	"homepage": "http://www.vim.org/scripts/script.php?script_id=3521",
	"name": "Gravity",
	"vim-script-nr": 3521
}