{
	"repository": {
		"file-name": "indent-guides-1.2.tar.gz",
		"type": "archive",
		"unpack-sequence": [
			"gz",
			"tar"
		],
		"url": "http://www.vim.org/scripts/download_script.php?src_id=14721"
	},
	"version": "1.2"
}