{
	"repository": {
		"file-name": "exUtility-4.2.0.tar",
		"strip-components": 1,
		"type": "archive",
		"unpack-sequence": [
			"tar"
		],
		"url": "http://www.vim.org/scripts/download_script.php?src_id=6516"
	},
	"version": "4.2.0"
}