{
	"author": "stefan otte",
	"description": "A simple tool for presenting slides in vim based on text files.",
	"homepage": "http://www.vim.org/scripts/script.php?script_id=4653",
	"name": "presenting",
	"vim-script-nr": 4653
}