{
	"repository": {
		"file-name": "outlookvim_v1.zip",
		"type": "archive",
		"unpack-sequence": [
			"zip"
		],
		"url": "http://www.vim.org/scripts/download_script.php?src_id=12963"
	},
	"version": "1.0"
}