{
	"author": "Yecheng Fu",
	"description": "Helper to call uncrustify in vim.",
	"homepage": "http://www.vim.org/scripts/script.php?script_id=5141",
	"name": "vim-uncrustify",
	"vim-script-nr": 5141
}