{
	"author": "rohit seth",
	"description": "Start your own Url Rotator Service",
	"homepage": "http://www.vim.org/scripts/script.php?script_id=2323",
	"name": "PHP_Scripts_-_Advertisement__Internet",
	"vim-script-nr": 2323
}