{
	"author": "Andrey Bartashevitch",
	"description": "uniform contrast light and dark colorscheme",
	"homepage": "http://www.vim.org/scripts/script.php?script_id=5450",
	"name": "unicon",
	"vim-script-nr": 5450
}