{
	"author": "Shuhei Kubota",
	"description": "Highlights words under the cursor.",
	"homepage": "http://www.vim.org/scripts/script.php?script_id=4306",
	"name": "HiCursorWords",
	"vim-script-nr": 4306
}