{
	"author": "Huanming Peng",
	"description": "Another gitignore plugin for Vim",
	"homepage": "http://www.vim.org/scripts/script.php?script_id=5183",
	"name": "vim-gitignore",
	"vim-script-nr": 5183
}