{
	"author": "Mitchell Bowden",
	"description": "PorterStem implements the Porter stemming algorithm for use as script utility ",
	"homepage": "http://www.vim.org/scripts/script.php?script_id=3228",
	"name": "porter-stem",
	"vim-script-nr": 3228
}