{
	"author": "Anders Th\u00f8gersen",
	"description": "Syntax file for plantuml",
	"homepage": "http://www.vim.org/scripts/script.php?script_id=3538",
	"name": "plantuml-syntax",
	"vim-script-nr": 3538
}