{
	"repository": {
		"file-name": "heroku.zip",
		"type": "archive",
		"unpack-sequence": [
			"zip"
		],
		"url": "http://www.vim.org/scripts/download_script.php?src_id=21749"
	},
	"version": "1.0"
}