{
	"repository": {
		"file-name": "VimLite-712.tar.bz2",
		"strip-components": 1,
		"type": "archive",
		"unpack-sequence": [
			"bz2",
			"tar"
		],
		"url": "http://www.vim.org/scripts/download_script.php?src_id=18317"
	},
	"version": "0.9.0.3"
}