{
	"author": "Mahlon Smith",
	"description": "A dark theme, mimicing the TextMate theme of the same name.",
	"homepage": "http://www.vim.org/scripts/script.php?script_id=2277",
	"name": "DevEiate_theme",
	"vim-script-nr": 2277
}