{
	"repository": {
		"file-name": "tmpl_gen.tar.gz",
		"type": "archive",
		"unpack-sequence": [
			"gz",
			"tar"
		],
		"url": "http://www.vim.org/scripts/download_script.php?src_id=1460"
	},
	"version": "0.25"
}