{
	"author": "Jose Elera",
	"description": "Improved Highlight for Ajax, DOM and Browser Objects, Methods and Properties",
	"homepage": "http://www.vim.org/scripts/script.php?script_id=3425",
	"name": "Enhanced_Javascript_syntax",
	"vim-script-nr": 3425
}