{
	"author": "Mikolaj Machowski",
	"description": "DocBook 4.4 vim7 xml data file\n",
	"homepage": "http://www.vim.org/scripts/script.php?script_id=1463",
	"name": "docbook44",
	"vim-script-nr": 1463
}