{
	"repository": {
		"file-name": "mark-2.8.3.vmb.gz",
		"type": "archive",
		"unpack-sequence": [
			"gz",
			"vmb"
		],
		"url": "http://www.vim.org/scripts/download_script.php?src_id=21926"
	},
	"version": "2.8.3"
}