{
	"repository": {
		"file-name": "projectionist.zip",
		"type": "archive",
		"unpack-sequence": [
			"zip"
		],
		"url": "http://www.vim.org/scripts/download_script.php?src_id=22231"
	},
	"version": "1.0"
}