{
	"repository": {
		"file-name": "txtfmt_v2.1.tar.gz",
		"type": "archive",
		"unpack-sequence": [
			"gz",
			"tar"
		],
		"url": "http://www.vim.org/scripts/download_script.php?src_id=11802"
	},
	"version": "2.1"
}