{
	"author": "zhang bin",
	"description": "Support Miscrosoft Visual C++ 2003 ToolKit",
	"homepage": "http://www.vim.org/scripts/script.php?script_id=1029",
	"name": "msvc2003",
	"vim-script-nr": 1029
}