{
	"author": "Yury Altukhou",
	"description": "coloring plain text reports created by ant for JUnit tests.",
	"homepage": "http://www.vim.org/scripts/script.php?script_id=1121",
	"name": "anttestreport",
	"vim-script-nr": 1121
}