{
	"author": "Alexey Shipunov",
	"description": "Highlight DNA and RNA sequences",
	"homepage": "http://www.vim.org/scripts/script.php?script_id=1684",
	"name": "DNA_sequence_highlighter",
	"vim-script-nr": 1684
}