{
	"author": "David Morris",
	"description": "Active Directory Email Lookup using Python and LDAP",
	"homepage": "http://www.vim.org/scripts/script.php?script_id=1372",
	"name": "ldap",
	"vim-script-nr": 1372
}