{
	"author": "Yasuhiro Matsumoto",
	"description": "complete files in command line for ftp.",
	"homepage": "http://www.vim.org/scripts/script.php?script_id=963",
	"name": "FTP_Completion",
	"vim-script-nr": 963
}