{
	"author": "Narayanan Iyer",
	"description": "Dark brown colorscheme with beutiful highlighing",
	"homepage": "http://www.vim.org/scripts/script.php?script_id=1351",
	"name": "Mud%1351",
	"vim-script-nr": 1351
}