{
	"repository": {
		"file-name": "vim-tmuxify-1.1.tar.gz",
		"type": "archive",
		"unpack-sequence": [
			"gz",
			"tar"
		],
		"url": "http://www.vim.org/scripts/download_script.php?src_id=19702"
	},
	"version": "1.1"
}