{
	"author": "Javier Rojas",
	"description": "syntax highlighting for ikiwiki files",
	"homepage": "http://www.vim.org/scripts/script.php?script_id=3156",
	"name": "ikiwiki-syntax",
	"vim-script-nr": 3156
}