{
	"author": "Vital Kudzelka",
	"description": "Useful mappings for manage simple TODO lists",
	"homepage": "http://www.vim.org/scripts/script.php?script_id=4323",
	"name": "vim-simple-todo",
	"vim-script-nr": 4323
}