{
	"author": "Makoto Kishimoto",
	"description": "VIM Syntax file for NSL hardware description language. ",
	"homepage": "http://www.vim.org/scripts/script.php?script_id=3904",
	"name": "nsl",
	"vim-script-nr": 3904
}