{
	"repository": {
		"file-name": "rubysnippets.zip",
		"type": "archive",
		"unpack-sequence": [
			"zip"
		],
		"url": "http://www.vim.org/scripts/download_script.php?src_id=7440"
	},
	"version": "0.0.9"
}