{
	"author": "kamil stachowski",
	"description": "Lightweight alternative support for TeX",
	"homepage": "http://www.vim.org/scripts/script.php?script_id=4352",
	"name": "tex_alt",
	"vim-script-nr": 4352
}