{
	"author": "Johannes Holzfu\u00df",
	"description": "Allows you to save files into directories that do not exist yet.",
	"homepage": "http://www.vim.org/scripts/script.php?script_id=3352",
	"name": "auto_mkdir",
	"vim-script-nr": 3352
}