{
	"author": "Robert Rowsome",
	"description": "A compiler plugin for the xmlwf xml well-formedness checker",
	"homepage": "http://www.vim.org/scripts/script.php?script_id=1025",
	"name": "xmlwf",
	"vim-script-nr": 1025
}