{
	"repository": {
		"file-name": "xemacs-mouse-drag-copy.vim",
		"type": "file",
		"url": "http://www.vim.org/scripts/download_script.php?src_id=7894",
		"vim-directory": "plugin"
	},
	"version": "1.0"
}