{
	"repository": {
		"file-name": "cmdline_completion.vim",
		"type": "file",
		"url": "http://www.vim.org/scripts/download_script.php?src_id=18931",
		"vim-directory": "plugin"
	},
	"version": "0.04"
}