{
	"repository": {
		"file-name": "UltraBlog.vba",
		"type": "archive",
		"unpack-sequence": [
			"vmb"
		],
		"url": "http://www.vim.org/scripts/download_script.php?src_id=15383"
	},
	"version": "1.1"
}