{
	"repository": {
		"file-name": "vtreeexplorer-1.20.tar.gz",
		"type": "archive",
		"unpack-sequence": [
			"gz",
			"tar"
		],
		"url": "http://www.vim.org/scripts/download_script.php?src_id=3740"
	},
	"version": "1.20"
}