{
	"author": "Ciro Somma",
	"description": "Loading your code quickly on Sprunge",
	"homepage": "http://www.vim.org/scripts/script.php?script_id=4600",
	"name": "Sprunge_Paste_Upload",
	"vim-script-nr": 4600
}