{
	"author": "Ivan Tkalin",
	"description": "Execute OS file/dir handler from NERDTree",
	"homepage": "http://www.vim.org/scripts/script.php?script_id=4672",
	"name": "nerdtree-execute",
	"vim-script-nr": 4672
}