{
	"repository": {
		"file-name": "verilog_emacsauto.vim",
		"type": "file",
		"url": "http://www.vim.org/scripts/download_script.php?src_id=7031",
		"vim-directory": "ftplugin"
	},
	"version": "0.1"
}