{
	"author": "ujihisa .",
	"description": "A Unite.vim plugin to find/open files easily, using locate command",
	"homepage": "http://www.vim.org/scripts/script.php?script_id=3330",
	"name": "unite-locate",
	"vim-script-nr": 3330
}