{
	"repository": {
		"file-name": "pytest.tar.gz",
		"strip-components": 1,
		"type": "archive",
		"unpack-sequence": [
			"gz",
			"tar"
		],
		"url": "http://www.vim.org/scripts/download_script.php?src_id=15593"
	},
	"version": "0.6.1"
}