{
	"repository": {
		"file-name": "delimitMate.vba.gz",
		"type": "archive",
		"unpack-sequence": [
			"gz",
			"vmb"
		],
		"url": "http://www.vim.org/scripts/download_script.php?src_id=11463"
	},
	"version": "1.4"
}