{
	"author": "joey twiddle",
	"description": "When moving between windows, uses history not cursor position to select target.",
	"homepage": "http://www.vim.org/scripts/script.php?script_id=4286",
	"name": "navigation_enhancer",
	"vim-script-nr": 4286
}