{
	"author": "Walter Hutchins",
	"description": "Dark colorscheme. Looks like a black light.",
	"homepage": "http://www.vim.org/scripts/script.php?script_id=1596",
	"name": "blacklight",
	"vim-script-nr": 1596
}