{
	"author": "Questions toask",
	"description": "symlinks don\\\\\\'t overwrite existing files, uninstall only deletes symlinks",
	"homepage": "http://www.vim.org/scripts/script.php?script_id=5475",
	"name": "Install_a_Plugin_in_Vim",
	"vim-script-nr": 5475
}