{
	"author": "Luke Maciak",
	"description": "Simple and neat status line that looks good and works well.",
	"homepage": "http://www.vim.org/scripts/script.php?script_id=4587",
	"name": "vim-neatstatus",
	"vim-script-nr": 4587
}