{
	"author": "Yakov Lerner",
	"description": "stopwatch timing of execution time of vim commands and command sequences",
	"homepage": "http://www.vim.org/scripts/script.php?script_id=1530",
	"name": "timing",
	"vim-script-nr": 1530
}