{
	"author": "Paul Banks",
	"description": "Syntax script for MHEG-5 DTB (and UK Profile)",
	"homepage": "http://www.vim.org/scripts/script.php?script_id=3333",
	"name": "mheg",
	"vim-script-nr": 3333
}