{
	"author": "Ray Wallace",
	"description": "Send Lisp code to an interpreter running in a Vim window",
	"homepage": "http://www.vim.org/scripts/script.php?script_id=903",
	"name": "fvl",
	"vim-script-nr": 903
}