{
	"repository": {
		"file-name": "ffeedvim-0.1.0.vba",
		"type": "archive",
		"unpack-sequence": [
			"vmb"
		],
		"url": "http://www.vim.org/scripts/download_script.php?src_id=8717"
	},
	"version": "0.1.0"
}