{
	"repository": {
		"file-name": "ywvim_mb-1.7.tar.bz2",
		"strip-components": 1,
		"type": "archive",
		"unpack-sequence": [
			"bz2",
			"tar"
		],
		"url": "http://www.vim.org/scripts/download_script.php?src_id=10759"
	},
	"version": "1.7+"
}