{
	"author": "Alex Efros",
	"description": "Support command mode in Russian keyboard layout",
	"homepage": "http://www.vim.org/scripts/script.php?script_id=3885",
	"name": "ruscmd",
	"vim-script-nr": 3885
}