{
	"repository": {
		"file-name": "xterm16-2.4.tbz2",
		"strip-components": 1,
		"type": "archive",
		"unpack-sequence": [
			"bz2",
			"tar"
		],
		"url": "http://www.vim.org/scripts/download_script.php?src_id=5515"
	},
	"version": "2.4"
}