{
	"author": "David Sanson",
	"description": "Insert Extended Markdown Footnotes with Vim",
	"homepage": "http://www.vim.org/scripts/script.php?script_id=3744",
	"name": "MarkdownFootnotes",
	"vim-script-nr": 3744
}