{
	"author": "Matthew Hawkins",
	"description": "syntax highlighting for additional glib types",
	"homepage": "http://www.vim.org/scripts/script.php?script_id=186",
	"name": "glib",
	"vim-script-nr": 186
}