{
	"author": "Benjamin L",
	"description": "Syntax highlighting for ferm; \"For Easy Rule Making\", a frontend for iptables.",
	"homepage": "http://www.vim.org/scripts/script.php?script_id=4390",
	"name": "ferm",
	"vim-script-nr": 4390
}