{
	"author": "Basil Gor",
	"description": "vim plugin for easy ctags and cscope handling in a separate directory ",
	"homepage": "http://www.vim.org/scripts/script.php?script_id=4263",
	"name": "autotags",
	"vim-script-nr": 4263
}