{
	"repository": {
		"file-name": "Recover-0.15.vmb",
		"type": "archive",
		"unpack-sequence": [
			"vmb"
		],
		"url": "http://www.vim.org/scripts/download_script.php?src_id=18443"
	},
	"version": "15"
}