{
	"author": "Marc Weber",
	"description": "provide nice selection of all <tab> completion choices in commandline",
	"homepage": "http://www.vim.org/scripts/script.php?script_id=4340",
	"name": "vim-addon-commandline-completion",
	"vim-script-nr": 4340
}