{
	"author": "Bruce Christensen",
	"description": "Syntax highlighting for FreeS/WAN ipsec.conf",
	"homepage": "http://www.vim.org/scripts/script.php?script_id=312",
	"name": "ipsec_conf",
	"vim-script-nr": 312
}