{
	"repository": {
		"file-name": "rd.zip",
		"type": "archive",
		"unpack-sequence": [
			"gz",
			"tar"
		],
		"url": "http://www.vim.org/scripts/download_script.php?src_id=17809"
	},
	"version": "0.0"
}