{
	"repository": {
		"file-name": "vim-rest-console-1.2.0.tgz",
		"strip-components": 1,
		"type": "archive",
		"unpack-sequence": [
			"gz",
			"tar"
		],
		"url": "http://www.vim.org/scripts/download_script.php?src_id=23333"
	},
	"version": "1.2.0"
}