{
	"repository": {
		"file-name": "substitute.vba.gz",
		"type": "archive",
		"unpack-sequence": [
			"gz",
			"vmb"
		],
		"url": "http://www.vim.org/scripts/download_script.php?src_id=10093"
	},
	"version": "1.1"
}