{
	"author": "Sameer Sheorey",
	"description": "Matlab code checker (mlint) compiler file",
	"homepage": "http://www.vim.org/scripts/script.php?script_id=1781",
	"name": "mlint",
	"vim-script-nr": 1781
}