{
	"repository": {
		"file-name": "bufexplorer-7.3.1.zip",
		"type": "archive",
		"unpack-sequence": [
			"zip"
		],
		"url": "http://www.vim.org/scripts/download_script.php?src_id=19122"
	},
	"version": "7.3.1"
}