{
	"author": "Michael Geddes",
	"description": "Generate a HTML Thumbnail Photoboard using ImageMagic",
	"homepage": "http://www.vim.org/scripts/script.php?script_id=470",
	"name": "HTML_Photo_Board",
	"vim-script-nr": 470
}