{
	"repository": {
		"file-name": "ColorV-2.5.4.tar.gz",
		"strip-components": 1,
		"type": "archive",
		"unpack-sequence": [
			"gz",
			"tar"
		],
		"url": "http://www.vim.org/scripts/download_script.php?src_id=17294"
	},
	"version": "2.5.4"
}