{
	"author": "parv .",
	"description": "Seeing only the interesting parts of procmail log",
	"homepage": "http://www.vim.org/scripts/script.php?script_id=894",
	"name": "Viewing_Procmail_Log",
	"vim-script-nr": 894
}