{
	"repository": {
		"file-name": "aspnetide.zip",
		"type": "archive",
		"unpack-sequence": [
			"zip"
		],
		"url": "http://www.vim.org/scripts/download_script.php?src_id=13897"
	},
	"version": "0.92"
}