{
	"author": "Ingo Karkat",
	"description": "Insert mode completion that completes a sequence of words based on anchors.",
	"homepage": "http://www.vim.org/scripts/script.php?script_id=4805",
	"name": "MultiWordComplete",
	"vim-script-nr": 4805
}