{
	"repository": {
		"file-name": "ColorSamplerPack.zip",
		"type": "archive",
		"unpack-sequence": [
			"zip"
		],
		"url": "http://www.vim.org/scripts/download_script.php?src_id=18915"
	},
	"version": "2012.10.28"
}