{
	"repository": {
		"file-name": "thesaurus_query.vim-0.1.0-beta.zip",
		"strip-components": 1,
		"type": "archive",
		"unpack-sequence": [
			"zip"
		],
		"url": "http://www.vim.org/scripts/download_script.php?src_id=24065"
	},
	"version": "0.1.0-b"
}