{
	"author": "Peter Odding",
	"description": "Easily & quickly switch between color schemes",
	"homepage": "http://www.vim.org/scripts/script.php?script_id=4586",
	"name": "vim-colorscheme-switcher",
	"vim-script-nr": 4586
}