{
	"author": "zhu nianyang",
	"description": "Loading templates as html,makefile,class ... and you can make template yourself!",
	"homepage": "http://www.vim.org/scripts/script.php?script_id=2957",
	"name": "load_template",
	"vim-script-nr": 2957
}