{
	"author": "Ingo Karkat",
	"description": "Highlighting of searches via star, auto-highlighting.",
	"homepage": "http://www.vim.org/scripts/script.php?script_id=4320",
	"name": "SearchHighlighting",
	"vim-script-nr": 4320
}