{
	"repository": {
		"file-name": "c-support.zip",
		"type": "archive",
		"unpack-sequence": [
			"zip"
		],
		"url": "http://www.vim.org/scripts/download_script.php?src_id=24474"
	},
	"version": "6.2"
}