{
	"author": "Klaus Horsten",
	"description": "Use php console application for debug messages (for windows)",
	"homepage": "http://www.vim.org/scripts/script.php?script_id=779",
	"name": "php_console",
	"vim-script-nr": 779
}