{
	"author": "joey twiddle",
	"description": "Briefly highlights the cursor line whenever the cursor jumps vertically.",
	"homepage": "http://www.vim.org/scripts/script.php?script_id=4288",
	"name": "highlight_line_after_jump",
	"vim-script-nr": 4288
}