{
	"repository": {
		"file-name": "dokuwiki-1.tar",
		"type": "archive",
		"unpack-sequence": [
			"tar"
		],
		"url": "http://www.vim.org/scripts/download_script.php?src_id=17098"
	},
	"version": "1"
}