{
	"repository": {
		"file-name": "vimagit-1.6.0.tgz",
		"strip-components": 1,
		"type": "archive",
		"unpack-sequence": [
			"gz",
			"tar"
		],
		"url": "http://www.vim.org/scripts/download_script.php?src_id=24103"
	},
	"version": "1.6.0"
}