{
	"author": "Yasuhiro Matsumoto",
	"description": "Easy and high speed coding method",
	"homepage": "http://www.vim.org/scripts/script.php?script_id=3790",
	"name": "SonicTemplate",
	"vim-script-nr": 3790
}