{
	"repository": {
		"file-name": "xhtml1-strict.zip",
		"type": "archive",
		"unpack-sequence": [
			"zip"
		],
		"url": "http://www.vim.org/scripts/download_script.php?src_id=4658"
	},
	"version": "2.1"
}