{
	"author": "yong xie",
	"description": "auto complete c/c++/java ,using global make a proj to find define and reference",
	"homepage": "http://www.vim.org/scripts/script.php?script_id=4928",
	"name": "clang_pro",
	"vim-script-nr": 4928
}