{
	"author": "Tom Link",
	"description": "A slimmed-down version of the viki plugin: a personal wiki",
	"homepage": "http://www.vim.org/scripts/script.php?script_id=5551",
	"name": "vikibase",
	"vim-script-nr": 5551
}