{
	"repository": {
		"file-name": "winwksexplorer.zip",
		"type": "archive",
		"unpack-sequence": [
			"zip"
		],
		"url": "http://www.vim.org/scripts/download_script.php?src_id=8602"
	},
	"version": "0.33.2+eg"
}