{
	"author": "Preben Randhol",
	"description": "Different shades of blue (colour scheme)",
	"homepage": "http://www.vim.org/scripts/script.php?script_id=1681",
	"name": "ekvoli",
	"vim-script-nr": 1681
}