{
	"repository": {
		"file-name": "cu-vim-0.1.tgz",
		"strip-components": 1,
		"type": "archive",
		"unpack-sequence": [
			"gz",
			"tar"
		],
		"url": "http://www.vim.org/scripts/download_script.php?src_id=19730"
	},
	"version": "0.1"
}