{
	"repository": {
		"file-name": "AXETabsOnlyForIndent.vim",
		"type": "file",
		"url": "http://www.vim.org/scripts/download_script.php?src_id=15622",
		"vim-directory": "indent"
	},
	"version": "1.1"
}