{
	"author": "zuopeng chen",
	"description": "More convenience way to use ctags and cscope in vim",
	"homepage": "http://www.vim.org/scripts/script.php?script_id=2943",
	"name": "ccvext",
	"vim-script-nr": 2943
}