{
	"repository": {
		"file-name": "node-0.6.0.zip",
		"type": "archive",
		"unpack-sequence": [
			"zip"
		],
		"url": "http://www.vim.org/scripts/download_script.php?src_id=20704"
	},
	"version": "0.6.0"
}