{
	"repository": {
		"file-name": "qfn-20080417.zip",
		"type": "archive",
		"unpack-sequence": [
			"zip"
		],
		"url": "http://www.vim.org/scripts/download_script.php?src_id=8573"
	},
	"version": "20080417"
}