{
	"repository": {
		"file-name": "quilt-0.9.3.tar.gz",
		"type": "archive",
		"unpack-sequence": [
			"gz",
			"tar"
		],
		"url": "http://www.vim.org/scripts/download_script.php?src_id=6406"
	},
	"version": "0.9.3"
}