{
	"author": "Hien Vuong",
	"description": "A tiny plugin for searching Stackoverflow from VIM editor ",
	"homepage": "http://www.vim.org/scripts/script.php?script_id=5384",
	"name": "vim-stackoverflow",
	"vim-script-nr": 5384
}