{
	"author": "brook hong",
	"description": "A cloud-based clipboard, copy text on a machine, paste it on another",
	"homepage": "http://www.vim.org/scripts/script.php?script_id=4994",
	"name": "cloudboard",
	"vim-script-nr": 4994
}