{
	"author": "Evgeny Podjachev",
	"description": "This plugin makes search in tags more convenient.",
	"homepage": "http://www.vim.org/scripts/script.php?script_id=2068",
	"name": "yate",
	"vim-script-nr": 2068
}