{
	"repository": {
		"file-name": "szw-vim-g-0.0.4.zip",
		"strip-components": 1,
		"type": "archive",
		"unpack-sequence": [
			"zip"
		],
		"url": "http://www.vim.org/scripts/download_script.php?src_id=18461"
	},
	"version": "0.0.4"
}