{
	"repository": {
		"file-name": "changingColor.vmb",
		"type": "archive",
		"unpack-sequence": [
			"vmb"
		],
		"url": "http://www.vim.org/scripts/download_script.php?src_id=25483"
	},
	"version": "23.0"
}