{
	"author": "Marc Chantreux",
	"description": "Arrays lib based on curly  braces names",
	"homepage": "http://www.vim.org/scripts/script.php?script_id=510",
	"name": "Varrays",
	"vim-script-nr": 510
}