{
	"repository": {
		"file-name": "quickbuf.zip",
		"type": "archive",
		"unpack-sequence": [
			"zip"
		],
		"url": "http://www.vim.org/scripts/download_script.php?src_id=7190"
	},
	"version": "0.11"
}