{
	"author": "Po Shan Cheah",
	"description": "Plugin for solving Sudoku puzzles",
	"homepage": "http://www.vim.org/scripts/script.php?script_id=1493",
	"name": "Sudoku_Solver",
	"vim-script-nr": 1493
}