{
	"author": "Roman Dobosz",
	"description": "reStructuredText to Blogger Interface",
	"homepage": "http://www.vim.org/scripts/script.php?script_id=3367",
	"name": "vimblogger_ft",
	"vim-script-nr": 3367
}