{
	"author": "Rolf Asmund",
	"description": "whitespace syntax highlight",
	"homepage": "http://www.vim.org/scripts/script.php?script_id=5035",
	"name": "whitespace_syntax_highlight",
	"vim-script-nr": 5035
}