{
	"repository": {
		"file-name": "Drupal5.0-core_functions.dict",
		"type": "file",
		"url": "http://www.vim.org/scripts/download_script.php?src_id=6275",
		"vim-directory": "syntax"
	},
	"version": "1.0"
}