{
	"author": "ZyX  ",
	"description": "Adds some features of Python OOP model to vim.",
	"homepage": "http://www.vim.org/scripts/script.php?script_id=3189",
	"name": "vimoop",
	"vim-script-nr": 3189
}