{
	"author": "ujihisa .",
	"description": "A Unite.vim plugin to search/install RubyGems packages easily, using gem command",
	"homepage": "http://www.vim.org/scripts/script.php?script_id=3348",
	"name": "unite-gem",
	"vim-script-nr": 3348
}