{
	"repository": {
		"file-name": "mlessnau_block_shift.vim",
		"type": "file",
		"url": "http://www.vim.org/scripts/download_script.php?src_id=20968",
		"vim-directory": "plugin"
	},
	"version": "0.0.1"
}