{
	"repository": {
		"file-name": "IndentCommentPrefix.vim",
		"type": "file",
		"url": "http://www.vim.org/scripts/download_script.php?src_id=10953",
		"vim-directory": "plugin"
	},
	"version": "1.01.009"
}