{
	"author": "Hari Krishna Dara",
	"description": "*obsolete* Script library to extend the notion of Vim's mode() function",
	"homepage": "http://www.vim.org/scripts/script.php?script_id=745",
	"name": "curcmdmode",
	"vim-script-nr": 745
}