{
	"repository": {
		"file-name": "gina-0.1.0.zip",
		"type": "archive",
		"unpack-sequence": [
			"zip"
		],
		"url": "http://www.vim.org/scripts/download_script.php?src_id=24996"
	},
	"version": "v0.1.0"
}