{
	"author": "Andrew Radev",
	"description": "Perform a grep and edit the results directly",
	"homepage": "http://www.vim.org/scripts/script.php?script_id=4865",
	"name": "writable_search",
	"vim-script-nr": 4865
}