{
	"author": "Gergely Kontra",
	"description": "Do all your insert-mode completion with Tab!",
	"homepage": "http://www.vim.org/scripts/script.php?script_id=182",
	"name": "SuperTab%182",
	"vim-script-nr": 182
}