{
	"repository": {
		"file-name": "vim-update-scripts.py",
		"type": "file",
		"url": "http://www.vim.org/scripts/download_script.php?src_id=16091",
		"vim-directory": "other"
	},
	"version": "1.0.1"
}