{
	"author": "Pedro Alejandro L\u00f3pez-Valencia",
	"description": " groff latin1/cp1252/utf-8 keymap conversion file",
	"homepage": "http://www.vim.org/scripts/script.php?script_id=1051",
	"name": "groff_keymap",
	"vim-script-nr": 1051
}