{
	"author": "Marc Prud'hommeaux",
	"description": "Allow vim to read in a PDF file as plain text",
	"homepage": "http://www.vim.org/scripts/script.php?script_id=989",
	"name": "pdftotext",
	"vim-script-nr": 989
}