{
	"author": "Teemu Likonen",
	"description": "Quickly align and format paragraphs and text areas: left, right, justify, center",
	"homepage": "http://www.vim.org/scripts/script.php?script_id=2324",
	"name": "TextFormat",
	"vim-script-nr": 2324
}