{
	"repository": {
		"file-name": "VimCalc3-3.3.zip",
		"strip-components": 1,
		"type": "archive",
		"unpack-sequence": [
			"zip"
		],
		"url": "http://www.vim.org/scripts/download_script.php?src_id=25656"
	},
	"version": "3.3"
}