{
	"author": "Charles Campbell",
	"description": "Automatically align as you type (autoalign): bib c c++ html maple matlab tex vim",
	"homepage": "http://www.vim.org/scripts/script.php?script_id=884",
	"name": "AutoAlign",
	"vim-script-nr": 884
}