{
	"repository": {
		"file-name": "autoproject.zip",
		"type": "archive",
		"unpack-sequence": [
			"zip"
		],
		"url": "http://www.vim.org/scripts/download_script.php?src_id=25083"
	},
	"version": "0.01"
}