{
	"repository": {
		"file-name": "emmet-vim.zip",
		"type": "archive",
		"unpack-sequence": [
			"zip"
		],
		"url": "http://www.vim.org/scripts/download_script.php?src_id=21081"
	},
	"version": "0.83"
}