{
	"repository": {
		"file-name": "LatexBox.vba",
		"type": "archive",
		"unpack-sequence": [
			"vmb"
		],
		"url": "http://www.vim.org/scripts/download_script.php?src_id=13663"
	},
	"version": "0.9.2"
}