{
	"repository": {
		"file-name": "vim-r-plugin-0.9.9.7.zip",
		"type": "archive",
		"unpack-sequence": [
			"zip"
		],
		"url": "http://www.vim.org/scripts/download_script.php?src_id=20996"
	},
	"version": "0.9.9.7"
}