{
	"author": "Bastian Winkler",
	"description": "Keep your environment variables in sync with tmux",
	"homepage": "http://www.vim.org/scripts/script.php?script_id=4891",
	"name": "nomad",
	"vim-script-nr": 4891
}