{
	"author": "Christian Richard Kalhöfer",
	"description": "syntax highlighting for octopus",
	"homepage": "http://www.vim.org/scripts/script.php?script_id=5599",
	"name": "octopus",
	"vim-script-nr": 5599
}