{
	"repository": {
		"file-name": "vimtips.zip",
		"type": "archive",
		"unpack-sequence": [
			"zip"
		],
		"url": "http://www.vim.org/scripts/download_script.php?src_id=1434"
	},
	"version": "2.0"
}