{
	"repository": {
		"file-name": "vimlib_sql_installer_sourceme.zip",
		"type": "archive",
		"unpack-sequence": [
			"zip"
		],
		"url": "http://www.vim.org/scripts/download_script.php?src_id=9251"
	},
	"version": "0.0"
}