{
	"author": "Mohammed Chelouti",
	"description": "Operator to change case (camelCase, snake_case, UPPER CASE etc.) of text",
	"homepage": "http://www.vim.org/scripts/script.php?script_id=5579",
	"name": "change-case",
	"vim-script-nr": 5579
}