{
	"repository": {
		"file-name": "wiked.tgz",
		"type": "archive",
		"unpack-sequence": [
			"gz",
			"tar"
		],
		"url": "http://www.vim.org/scripts/download_script.php?src_id=3727"
	},
	"version": "1.04beta"
}