{
	"repository": {
		"file-name": "vim-gista-0.1.15.zip",
		"strip-components": 1,
		"type": "archive",
		"unpack-sequence": [
			"zip"
		],
		"url": "http://www.vim.org/scripts/download_script.php?src_id=22155"
	},
	"version": "0.1.15"
}