{
	"author": "Pierre  Vittet",
	"description": "Annotation for mutiple files + bugfixes",
	"homepage": "http://www.vim.org/scripts/script.php?script_id=3906",
	"name": "ocamlMultiAnnot",
	"vim-script-nr": 3906
}