{
	"author": "Ali Vakilzade",
	"description": "use vim as your personal wiki using dokuwiki syntax",
	"homepage": "http://www.vim.org/scripts/script.php?script_id=3853",
	"name": "dokuwiki%3853",
	"vim-script-nr": 3853
}