{
	"repository": {
		"file-name": "yankring_190.zip",
		"type": "archive",
		"unpack-sequence": [
			"zip"
		],
		"url": "http://www.vim.org/scripts/download_script.php?src_id=23487"
	},
	"version": "19.0"
}