{
	"repository": {
		"file-name": "vim-workspace-1.4.7.tar.gz",
		"strip-components": 1,
		"type": "archive",
		"unpack-sequence": [
			"gz",
			"tar"
		],
		"url": "http://www.vim.org/scripts/download_script.php?src_id=24865"
	},
	"version": "1.4.7"
}