{
	"repository": {
		"file-name": "SnippetsEmu_1.0.1.vba",
		"type": "archive",
		"unpack-sequence": [
			"vmb"
		],
		"url": "http://www.vim.org/scripts/download_script.php?src_id=6561"
	},
	"version": "1.0.1"
}