{
	"repository": {
		"file-name": "conque_2.1.zip",
		"type": "archive",
		"unpack-sequence": [
			"zip"
		],
		"url": "http://www.vim.org/scripts/download_script.php?src_id=15384"
	},
	"version": "2.1++"
}