{
	"repository": {
		"file-name": "vim-game-code-break-1.1.6.zip",
		"strip-components": 1,
		"type": "archive",
		"unpack-sequence": [
			"zip"
		],
		"url": "http://www.vim.org/scripts/download_script.php?src_id=25380"
	},
	"version": "1.1.6"
}