{
	"repository": {
		"file-name": "Recover-0.18.vmb",
		"type": "archive",
		"unpack-sequence": [
			"vmb"
		],
		"url": "http://www.vim.org/scripts/download_script.php?src_id=20655"
	},
	"version": "18"
}