{
	"repository": {
		"file-name": "vim-colors-pencil-0.6.zip",
		"type": "archive",
		"unpack-sequence": [
			"zip"
		],
		"url": "http://www.vim.org/scripts/download_script.php?src_id=21597"
	},
	"version": "0.6"
}