{
	"author": "Andrew Stewart",
	"description": "Shows a git diff summary in the sign column and stages/reverts individual hunks.",
	"homepage": "http://www.vim.org/scripts/script.php?script_id=4827",
	"name": "vim-gitgutter",
	"vim-script-nr": 4827
}