{
	"author": "Henrik Lissner",
	"description": "Multi-selection editing for vim, inspired by Sublime Text",
	"homepage": "http://www.vim.org/scripts/script.php?script_id=4467",
	"name": "vim-multiedit",
	"vim-script-nr": 4467
}