{
	"repository": {
		"file-name": "taglist_45.zip",
		"type": "archive",
		"unpack-sequence": [
			"zip"
		],
		"url": "http://www.vim.org/scripts/download_script.php?src_id=7701"
	},
	"version": "4.5"
}