{
	"author": "Alexey Radkov",
	"description": "Automatic Keyboard Layout Switcher",
	"homepage": "http://www.vim.org/scripts/script.php?script_id=4503",
	"name": "vim-xkbswitch",
	"vim-script-nr": 4503
}