{
	"repository": {
		"file-name": "git-switcher.vim-1.6.0.zip",
		"strip-components": 1,
		"type": "archive",
		"unpack-sequence": [
			"zip"
		],
		"url": "http://www.vim.org/scripts/download_script.php?src_id=25605"
	},
	"version": "1.6.0"
}