{
	"repository": {
		"file-name": "vimwiki_0_4.vba",
		"type": "archive",
		"unpack-sequence": [
			"vmb"
		],
		"url": "http://www.vim.org/scripts/download_script.php?src_id=8744"
	},
	"version": "0.4"
}