{
	"author": "Yuji Yamamoto",
	"description": "Ruby Indentation with IndentAnything",
	"homepage": "http://www.vim.org/scripts/script.php?script_id=2742",
	"name": "ruby%2742",
	"vim-script-nr": 2742
}