{
	"repository": {
		"file-name": "sharefix.zip",
		"type": "archive",
		"unpack-sequence": [
			"zip"
		],
		"url": "http://www.vim.org/scripts/download_script.php?src_id=18109"
	},
	"version": "1.0.0"
}