{
	"author": "Ed Ralston",
	"description": "syntax for STOL (Satellite Test and Operations Language)",
	"homepage": "http://www.vim.org/scripts/script.php?script_id=652",
	"name": "stol",
	"vim-script-nr": 652
}