{
	"repository": {
		"file-name": "javacomplete0.77.1.2.zip",
		"type": "archive",
		"unpack-sequence": [
			"zip"
		],
		"url": "http://www.vim.org/scripts/download_script.php?src_id=14914"
	},
	"version": "0.77.1.2"
}