{
	"author": "Zhao Cai",
	"description": "a Unite.vim plugin to find/open runtime scriptnames",
	"homepage": "http://www.vim.org/scripts/script.php?script_id=3854",
	"name": "unite-scriptenames",
	"vim-script-nr": 3854
}