{
	"repository": {
		"file-name": "fountainwiki-1-2.vba",
		"type": "archive",
		"unpack-sequence": [
			"vmb"
		],
		"url": "http://www.vim.org/scripts/download_script.php?src_id=17510"
	},
	"version": "1.2"
}