{
	"repository": {
		"file-name": "vim-textobj-fold-0.1.1.zip",
		"strip-components": 1,
		"type": "archive",
		"unpack-sequence": [
			"zip"
		],
		"url": "http://www.vim.org/scripts/download_script.php?src_id=8858"
	},
	"version": "0.1.1"
}