{
	"author": "\u9648 \u52c7",
	"description": "Vhdl/Verilog fast instant and generate testbench file.",
	"homepage": "http://www.vim.org/scripts/script.php?script_id=3371",
	"name": "hdl_plugin",
	"vim-script-nr": 3371
}