{
	"author": "Handsome Cheung",
	"description": "a Vim Plug-in, move fast in linei of text.",
	"homepage": "http://www.vim.org/scripts/script.php?script_id=4114",
	"name": "LineMotion",
	"vim-script-nr": 4114
}