{
	"author": "Horror Vacui",
	"description": "Umber and green monochrome monitor nostalgia.",
	"homepage": "http://www.vim.org/scripts/script.php?script_id=772",
	"name": "umber-green",
	"vim-script-nr": 772
}