{
	"author": "Sergej Tatrincev",
	"description": "Syntax for bemhtml template language",
	"homepage": "http://www.vim.org/scripts/script.php?script_id=4837",
	"name": "vim-bemhtml",
	"vim-script-nr": 4837
}