{
	"repository": {
		"file-name": "histwin-0.25.vba",
		"type": "archive",
		"unpack-sequence": [
			"vmb"
		],
		"url": "http://www.vim.org/scripts/download_script.php?src_id=16266"
	},
	"version": "25"
}