{
	"author": "Ren\u00e9 K\u00f6cher",
	"description": "Modification of the original impact colorscheme",
	"homepage": "http://www.vim.org/scripts/script.php?script_id=1406",
	"name": "impactG",
	"vim-script-nr": 1406
}