{
	"author": "Ricky Cintron",
	"description": "A bright, white color scheme for gVim.",
	"homepage": "http://www.vim.org/scripts/script.php?script_id=2739",
	"name": "bclear",
	"vim-script-nr": 2739
}