{
	"author": "Nick Reynolds",
	"description": "Tools for working with CakePHP from vim",
	"homepage": "http://www.vim.org/scripts/script.php?script_id=3650",
	"name": "cakephp",
	"vim-script-nr": 3650
}