{
	"repository": {
		"file-name": "SumOfSelection-1.8.vim",
		"type": "file",
		"url": "http://www.vim.org/scripts/download_script.php?src_id=25115",
		"vim-directory": "plugin"
	},
	"version": "1.8"
}