{
	"author": "Alvan L",
	"description": "Display the definition of functions, variables, etc. (Tags, PHP/JS/Vim/...)",
	"homepage": "http://www.vim.org/scripts/script.php?script_id=2805",
	"name": "assistant",
	"vim-script-nr": 2805
}