{
	"author": "sm smithfield",
	"description": "syntax coloring for sqlite inside tcl, extends tcl.vim",
	"homepage": "http://www.vim.org/scripts/script.php?script_id=1716",
	"name": "tcl_sqlite",
	"vim-script-nr": 1716
}