{
	"author": "Michael Geddes",
	"description": "Get/Yank a UNC pathname using 'net share'",
	"homepage": "http://www.vim.org/scripts/script.php?script_id=434",
	"name": "Get_UNC_Path_Win32",
	"vim-script-nr": 434
}