{
	"repository": {
		"file-name": "vikitasks.vba",
		"type": "archive",
		"unpack-sequence": [
			"vmb"
		],
		"url": "http://www.vim.org/scripts/download_script.php?src_id=12756"
	},
	"version": "0.2b"
}