{
	"author": "Manish Jethani",
	"description": "Syntax file for ActionScript",
	"homepage": "http://www.vim.org/scripts/script.php?script_id=1585",
	"name": "actionscript%1585",
	"vim-script-nr": 1585
}