{
	"repository": {
		"file-name": "rapid_for_vim_v140_20170625.zip",
		"type": "archive",
		"unpack-sequence": [
			"zip"
		],
		"url": "http://www.vim.org/scripts/download_script.php?src_id=25343"
	},
	"version": "1.4.0"
}