{
	"repository": {
		"file-name": "vim-now.tgz",
		"strip-components": 1,
		"type": "archive",
		"unpack-sequence": [
			"gz",
			"tar"
		],
		"url": "http://www.vim.org/scripts/download_script.php?src_id=23717"
	},
	"version": "0.3.1"
}