{
	"repository": {
		"file-name": "perl-completion-vim-0.5.tar.gz",
		"type": "archive",
		"unpack-sequence": [
			"gz",
			"tar"
		],
		"url": "http://www.vim.org/scripts/download_script.php?src_id=11727"
	},
	"version": "0.5"
}