{
	"author": "Yubao Liu",
	"description": "Switch tags option automatically between different projects",
	"homepage": "http://www.vim.org/scripts/script.php?script_id=1344",
	"name": "switchtags",
	"vim-script-nr": 1344
}