{
	"repository": {
		"file-name": "merginal_v1.5.0.zip",
		"type": "archive",
		"unpack-sequence": [
			"zip"
		],
		"url": "http://www.vim.org/scripts/download_script.php?src_id=22916"
	},
	"version": "1.5.0"
}