{
	"repository": {
		"file-name": "misc.zip",
		"type": "archive",
		"unpack-sequence": [
			"zip"
		],
		"url": "http://www.vim.org/scripts/download_script.php?src_id=23300"
	},
	"version": "1.17.6"
}