{
	"author": "Dmitry Frank",
	"description": "Auto-generate tags for all files of project(s) and keep tags up-to-date",
	"homepage": "http://www.vim.org/scripts/script.php?script_id=3221",
	"name": "indexer.tar.gz",
	"vim-script-nr": 3221
}