{
	"author": "Taylon Silmer",
	"description": "Shows a GTK dialog with the color or image below the cursor",
	"homepage": "http://www.vim.org/scripts/script.php?script_id=2734",
	"name": "PreviewDialog",
	"vim-script-nr": 2734
}