{
	"repository": {
		"file-name": "GAMP.tar",
		"type": "archive",
		"unpack-sequence": [
			"tar"
		],
		"url": "http://www.vim.org/scripts/download_script.php?src_id=22083"
	},
	"version": "0.5.5"
}