{
	"author": "Chong HE",
	"description": "Easily generate link to image of equation in markdown file",
	"homepage": "http://www.vim.org/scripts/script.php?script_id=5357",
	"name": "md_insert_equation",
	"vim-script-nr": 5357
}