{
	"author": "Johan Steinberg",
	"description": "A white, clean colorscheme made for CSS, HTML and PHP.",
	"homepage": "http://www.vim.org/scripts/script.php?script_id=3666",
	"name": "skyWeb",
	"vim-script-nr": 3666
}