{
	"author": "Paul Isambert",
	"description": "Snippets Again, with Regular Expressions",
	"homepage": "http://www.vim.org/scripts/script.php?script_id=4925",
	"name": "snare",
	"vim-script-nr": 4925
}