{
	"repository": {
		"file-name": "tabwins-master.v2.0.0.tgz",
		"strip-components": 1,
		"type": "archive",
		"unpack-sequence": [
			"gz",
			"tar"
		],
		"url": "http://www.vim.org/scripts/download_script.php?src_id=21040"
	},
	"version": "2.0.0"
}