{
	"repository": {
		"file-name": "formatvim-2.4.2.tar.gz",
		"type": "archive",
		"unpack-sequence": [
			"gz",
			"tar"
		],
		"url": "http://www.vim.org/scripts/download_script.php?src_id=14190"
	},
	"version": "2.4.2+"
}