{
	"author": "Charles Campbell",
	"description": "ignore this -- uploading error",
	"homepage": "http://www.vim.org/scripts/script.php?script_id=550",
	"name": "ignore_this%550",
	"vim-script-nr": 550
}