{
	"repository": {
		"file-name": "gtk-vim-syntax.tar.gz",
		"strip-components": 1,
		"type": "archive",
		"unpack-sequence": [
			"gz",
			"tar"
		],
		"url": "http://www.vim.org/scripts/download_script.php?src_id=5459"
	},
	"version": "2006-03-19"
}