{
	"author": "Geir Isene",
	"description": "Makes it easier to write HP-41 calculator programs in VIM",
	"homepage": "http://www.vim.org/scripts/script.php?script_id=1361",
	"name": "HP-41_file_type_plugin",
	"vim-script-nr": 1361
}