{
	"author": "Maestro Entheon",
	"description": "Dark and colorful forrest khaki theme works with 256 color xterms",
	"homepage": "http://www.vim.org/scripts/script.php?script_id=1348",
	"name": "The_Vim_Gardener",
	"vim-script-nr": 1348
}