{
	"repository": {
		"file-name": "AnsiEsc.zip",
		"type": "archive",
		"unpack-sequence": [
			"zip"
		],
		"url": "http://www.vim.org/scripts/download_script.php?src_id=24018"
	},
	"version": "13.3+"
}