{
	"repository": {
		"file-name": "vimoutliner-0.3.6.zip",
		"type": "archive",
		"unpack-sequence": [
			"zip"
		],
		"url": "http://www.vim.org/scripts/download_script.php?src_id=15688"
	},
	"version": "0.3.6"
}