{
	"repository": {
		"file-name": "headerguard-0.2.1.zip",
		"type": "archive",
		"unpack-sequence": [
			"zip"
		],
		"url": "http://www.vim.org/scripts/download_script.php?src_id=20875"
	},
	"version": "0.2.1"
}