{
	"author": "jeff lanzarotta",
	"description": "Easy color scheme browsing",
	"homepage": "http://www.vim.org/scripts/script.php?script_id=1298",
	"name": "Color_Scheme_Explorer",
	"vim-script-nr": 1298
}