{
	"repository": {
		"file-name": "ctrlp-funky-0.6.2.zip",
		"strip-components": 1,
		"type": "archive",
		"unpack-sequence": [
			"zip"
		],
		"url": "http://www.vim.org/scripts/download_script.php?src_id=20898"
	},
	"version": "0.6.2"
}