{
	"repository": {
		"file-name": "tex_nine-1.05.tar.gz",
		"strip-components": 1,
		"type": "archive",
		"unpack-sequence": [
			"gz",
			"tar"
		],
		"url": "http://www.vim.org/scripts/download_script.php?src_id=15586"
	},
	"version": "1.05"
}