{
	"author": "Alisue Lambda",
	"description": "A simple compiler for testing javascript/coffeescript with nodeunit",
	"homepage": "http://www.vim.org/scripts/script.php?script_id=3843",
	"name": "nodeunit",
	"vim-script-nr": 3843
}