{
	"repository": {
		"file-name": "line_length.vmb.zip",
		"type": "archive",
		"unpack-sequence": [
			"zip",
			"vmb"
		],
		"url": "http://www.vim.org/scripts/download_script.php?src_id=19166"
	},
	"version": "0.0.1"
}