{
	"author": "Kurt Brown",
	"description": "Syntax highlighting for Extensible Binding Language (XBL)",
	"homepage": "http://www.vim.org/scripts/script.php?script_id=1153",
	"name": "xbl",
	"vim-script-nr": 1153
}