{
	"repository": {
		"file-name": "SingleCompile.zip",
		"type": "archive",
		"unpack-sequence": [
			"zip"
		],
		"url": "http://www.vim.org/scripts/download_script.php?src_id=15636"
	},
	"version": "2.8beta"
}