{
	"author": "Yulya Shtyryakova",
	"description": "Smooth natural colors on dark background. Put some jungle in your Vim.",
	"homepage": "http://www.vim.org/scripts/script.php?script_id=4647",
	"name": "ecostation",
	"vim-script-nr": 4647
}