{
	"author": "Steve Kreyer",
	"description": "Inserts all import clauses to your java source file",
	"homepage": "http://www.vim.org/scripts/script.php?script_id=1526",
	"name": "javaimports",
	"vim-script-nr": 1526
}