{
	"author": "Amal Khailtash",
	"description": "Syntax highlighting for Xilinx Design Constraints",
	"homepage": "http://www.vim.org/scripts/script.php?script_id=4262",
	"name": "vim-xdc-syntax",
	"vim-script-nr": 4262
}