{
	"author": "Yakov Lerner",
	"description": "{download + build + install} latest vim7.1 from svn sources in 1 command.",
	"homepage": "http://www.vim.org/scripts/script.php?script_id=1473",
	"name": "vim7-install.sh",
	"vim-script-nr": 1473
}