{
	"author": "Marko Mahni\u010d",
	"description": "Vim UI extensions: a pack of plugins that use an overlapping  popup list",
	"homepage": "http://www.vim.org/scripts/script.php?script_id=2606",
	"name": "vimuiex",
	"vim-script-nr": 2606
}