{
	"repository": {
		"file-name": "notes-1.8.zip",
		"type": "archive",
		"unpack-sequence": [
			"zip"
		],
		"url": "http://www.vim.org/scripts/download_script.php?src_id=11189"
	},
	"version": "1.8"
}