{
	"repository": {
		"file-name": "vimoop-1.1.2.tar.gz",
		"type": "archive",
		"unpack-sequence": [
			"gz",
			"tar"
		],
		"url": "http://www.vim.org/scripts/download_script.php?src_id=14572"
	},
	"version": "1.1.2"
}