{
	"author": "Geoff Wood",
	"description": "Open new files in gvim in new tabs, splits or vertical splits",
	"homepage": "http://www.vim.org/scripts/script.php?script_id=4214",
	"name": "gvimt",
	"vim-script-nr": 4214
}