{
	"author": "Antoine Mechelynck",
	"description": "Switching to Unicode in an orderly manner",
	"homepage": "http://www.vim.org/scripts/script.php?script_id=789",
	"name": "set_utf8",
	"vim-script-nr": 789
}