{
	"author": "Kirill Frolov",
	"description": "syntax higlighting for Atmel AVR assembler",
	"homepage": "http://www.vim.org/scripts/script.php?script_id=1181",
	"name": "avr",
	"vim-script-nr": 1181
}