{
	"author": "eiji kumiai",
	"description": "Perfom non-cumulative multi-replace",
	"homepage": "http://www.vim.org/scripts/script.php?script_id=2938",
	"name": "Multi-Replace",
	"vim-script-nr": 2938
}