{
	"author": "Dave Silvia",
	"description": "source/execute current file from toolbar or function key",
	"homepage": "http://www.vim.org/scripts/script.php?script_id=1055",
	"name": "curBuf",
	"vim-script-nr": 1055
}