{
	"repository": {
		"file-name": "golden-ratio-0.0.5.tar.gz",
		"strip-components": 1,
		"type": "archive",
		"unpack-sequence": [
			"gz",
			"tar"
		],
		"url": "http://www.vim.org/scripts/download_script.php?src_id=18723"
	},
	"version": "0.0.5"
}