{
	"author": "Rich Healey",
	"description": "Provides a Cd command and associated autocmd calls",
	"homepage": "http://www.vim.org/scripts/script.php?script_id=3918",
	"name": "cd-hook",
	"vim-script-nr": 3918
}