{
	"repository": {
		"file-name": "verilog_auto_testbench.vim",
		"type": "file",
		"url": "http://www.vim.org/scripts/download_script.php?src_id=20198",
		"vim-directory": "plugin"
	},
	"version": "1.0"
}