{
	"author": "Sergey Vakulenko",
	"description": "hop language (scheme web extention ) syntax highlight",
	"homepage": "http://www.vim.org/scripts/script.php?script_id=3946",
	"name": "hop_language_syntax_highlight",
	"vim-script-nr": 3946
}