{
	"author": "Johann Pfefferl",
	"description": "Color scheme for the Gnome2 \"nuvola\" theme",
	"homepage": "http://www.vim.org/scripts/script.php?script_id=719",
	"name": "nuvola",
	"vim-script-nr": 719
}