{
	"repository": {
		"file-name": "localvimrc.vba",
		"type": "archive",
		"unpack-sequence": [
			"vmb"
		],
		"url": "http://www.vim.org/scripts/download_script.php?src_id=18689"
	},
	"version": "2.1.0"
}