{
	"repository": {
		"file-name": "consultadict.zip",
		"type": "archive",
		"unpack-sequence": [
			"zip"
		],
		"url": "http://www.vim.org/scripts/download_script.php?src_id=21590"
	},
	"version": "0.801"
}