{
	"repository": {
		"file-name": "css3_syntax_file.tar",
		"strip-components": 1,
		"type": "archive",
		"unpack-sequence": [
			"tar"
		],
		"url": "http://www.vim.org/scripts/download_script.php?src_id=17611"
	},
	"version": "0.1"
}