{
	"author": "olivier vermersch",
	"description": "a rubik's cube game in vim script",
	"homepage": "http://www.vim.org/scripts/script.php?script_id=1271",
	"name": "rubikscube",
	"vim-script-nr": 1271
}