{
	"repository": {
		"file-name": "supertab.vba",
		"type": "archive",
		"unpack-sequence": [
			"vmb"
		],
		"url": "http://www.vim.org/scripts/download_script.php?src_id=15029"
	},
	"version": "1.5"
}