{
	"repository": {
		"file-name": "securemodelines.vim",
		"type": "file",
		"url": "http://www.vim.org/scripts/download_script.php?src_id=7038",
		"vim-directory": "plugin"
	},
	"version": "20070409"
}