{
	"repository": {
		"file-name": "LatexBox.vmb",
		"type": "archive",
		"unpack-sequence": [
			"vmb"
		],
		"url": "http://www.vim.org/scripts/download_script.php?src_id=16732"
	},
	"version": "0.9.5"
}