{
	"author": "Romain Maurer",
	"description": "Select and Open a File by typing part of its path.",
	"homepage": "http://www.vim.org/scripts/script.php?script_id=3088",
	"name": "GetFile",
	"vim-script-nr": 3088
}