{
	"repository": {
		"file-name": "dbext_400.zip",
		"type": "archive",
		"unpack-sequence": [
			"zip"
		],
		"url": "http://www.vim.org/scripts/download_script.php?src_id=6221"
	},
	"version": "4.03"
}