{
	"author": "Henning Hasemann",
	"description": "A dark red, still somewhat colorful colorscheme",
	"homepage": "http://www.vim.org/scripts/script.php?script_id=2499",
	"name": "blood",
	"vim-script-nr": 2499
}