{
	"author": "Susan Potter",
	"description": "Vim plugin for using Rebar commands conveniently inside Vim",
	"homepage": "http://www.vim.org/scripts/script.php?script_id=3488",
	"name": "rebar",
	"vim-script-nr": 3488
}