{
	"repository": {
		"file-name": "splitjoin.zip",
		"type": "archive",
		"unpack-sequence": [
			"zip"
		],
		"url": "http://www.vim.org/scripts/download_script.php?src_id=17608"
	},
	"version": "0.4.1"
}