{
	"repository": {
		"file-name": "EditSimilar-2.30.vmb.gz",
		"type": "archive",
		"unpack-sequence": [
			"gz",
			"vmb"
		],
		"url": "http://www.vim.org/scripts/download_script.php?src_id=19152"
	},
	"version": "2.30"
}