{
	"repository": {
		"file-name": "surfer-2.1.2.zip",
		"strip-components": 1,
		"type": "archive",
		"unpack-sequence": [
			"zip"
		],
		"url": "http://www.vim.org/scripts/download_script.php?src_id=21382"
	},
	"version": "2.1.2"
}