{
	"author": "omi taku",
	"description": "mail message posting plugin. (python required)",
	"homepage": "http://www.vim.org/scripts/script.php?script_id=2341",
	"name": "postmail",
	"vim-script-nr": 2341
}