{
	"author": "Yasuhiro Matsumoto",
	"description": "vim plugins for HTML and CSS hi-speed coding.",
	"homepage": "http://www.vim.org/scripts/script.php?script_id=2981",
	"name": "Emmet",
	"vim-script-nr": 2981
}