{
	"author": "Dmitry Kichenko",
	"description": "An easy on the eyes dark blue theme",
	"homepage": "http://www.vim.org/scripts/script.php?script_id=2977",
	"name": "underwater",
	"vim-script-nr": 2977
}