{
	"author": "Marcin Szamotulski",
	"description": "This is filetype plugin for vim scripts.",
	"homepage": "http://www.vim.org/scripts/script.php?script_id=3322",
	"name": "FTPDEV",
	"vim-script-nr": 3322
}