{
	"repository": {
		"file-name": "shellinsidevim.tbz2",
		"type": "archive",
		"unpack-sequence": [
			"bz2",
			"tar"
		],
		"url": "http://www.vim.org/scripts/download_script.php?src_id=10114"
	},
	"version": "2.2"
}