{
	"author": "Tom Link",
	"description": "Monitor buffer-local options and variables in the statusline",
	"homepage": "http://www.vim.org/scripts/script.php?script_id=5549",
	"name": "tstatus",
	"vim-script-nr": 5549
}