{
	"repository": {
		"file-name": "NumUtils.vmb",
		"type": "archive",
		"unpack-sequence": [
			"vmb"
		],
		"url": "http://www.vim.org/scripts/download_script.php?src_id=20428"
	},
	"version": "1.0"
}