{
	"repository": {
		"file-name": "udt_highlight.tar",
		"type": "archive",
		"unpack-sequence": [
			"tar"
		],
		"url": "http://www.vim.org/scripts/download_script.php?src_id=816"
	},
	"version": "1.01"
}