{
	"author": "Shotaro Aoyama",
	"description": "Hilights a pair of parens/braces that surround the cursor",
	"homepage": "http://www.vim.org/scripts/script.php?script_id=1753",
	"name": "surrparen",
	"vim-script-nr": 1753
}