{
	"author": "Sergey Potapov",
	"description": "Plugin for previewing markup files(markdown,rdoc,textile,html)",
	"homepage": "http://www.vim.org/scripts/script.php?script_id=3344",
	"name": "preview%3344",
	"vim-script-nr": 3344
}