{
	"repository": {
		"file-name": "ft_improved-0.4.vmb",
		"type": "archive",
		"unpack-sequence": [
			"vmb"
		],
		"url": "http://www.vim.org/scripts/download_script.php?src_id=18572"
	},
	"version": "4"
}