{
	"author": "Felipe Contreras",
	"description": "This script converts the guifg/guibg parameters of a colorscheme to cterm.",
	"homepage": "http://www.vim.org/scripts/script.php?script_id=4746",
	"name": "tocterm2",
	"vim-script-nr": 4746
}