{
	"author": "Sebastian Sareyko",
	"description": "A simple VIM plugin to help you pretty print your data.",
	"homepage": "http://www.vim.org/scripts/script.php?script_id=4678",
	"name": "neat",
	"vim-script-nr": 4678
}