{
	"author": "Wenzhi Liang",
	"description": "Vim syntax file for ClearCase update log.",
	"homepage": "http://www.vim.org/scripts/script.php?script_id=1019",
	"name": "updt",
	"vim-script-nr": 1019
}