{
	"author": "Leonid Shvechikov",
	"description": "Contrast colourful light-background scheme",
	"homepage": "http://www.vim.org/scripts/script.php?script_id=2319",
	"name": "thegoodluck",
	"vim-script-nr": 2319
}