{
	"author": "A Quach",
	"description": "Edit MediaWiki right from Vim!",
	"homepage": "http://www.vim.org/scripts/script.php?script_id=5150",
	"name": "vim-mediawiki-editor",
	"vim-script-nr": 5150
}