{
	"author": "ujihisa .",
	"description": "A Unite.vim plugin for changing your font.",
	"homepage": "http://www.vim.org/scripts/script.php?script_id=3319",
	"name": "unite-font",
	"vim-script-nr": 3319
}