{
	"repository": {
		"file-name": "vim-publish-helper-0.6.tgz",
		"type": "archive",
		"unpack-sequence": [
			"gz",
			"tar"
		],
		"url": "http://www.vim.org/scripts/download_script.php?src_id=21291"
	},
	"version": "0.6"
}