{
	"repository": {
		"file-name": "VimLite-470.tar.bz2",
		"strip-components": 1,
		"type": "archive",
		"unpack-sequence": [
			"bz2",
			"tar"
		],
		"url": "http://www.vim.org/scripts/download_script.php?src_id=16980"
	},
	"version": "0.8.7.1"
}