{
	"repository": {
		"file-name": "vim-javacomplete2-2.3.5.tar.gz",
		"strip-components": 1,
		"type": "archive",
		"unpack-sequence": [
			"gz",
			"tar"
		],
		"url": "http://www.vim.org/scripts/download_script.php?src_id=24102"
	},
	"version": "v2.3.5"
}