{
	"repository": {
		"file-name": "twitvim-0.2.3.vba",
		"type": "archive",
		"unpack-sequence": [
			"vmb"
		],
		"url": "http://www.vim.org/scripts/download_script.php?src_id=8547"
	},
	"version": "0.2.3"
}