{
	"repository": {
		"file-name": "timestamp.tbz2",
		"type": "archive",
		"unpack-sequence": [
			"bz2",
			"tar"
		],
		"url": "http://www.vim.org/scripts/download_script.php?src_id=3250"
	},
	"version": "1.15"
}