{
	"repository": {
		"file-name": "NrrwRgn-0.12.vba",
		"type": "archive",
		"unpack-sequence": [
			"vmb"
		],
		"url": "http://www.vim.org/scripts/download_script.php?src_id=13422"
	},
	"version": "0.12"
}