{
	"author": "zhang guo",
	"description": "Automatic generator for Verilog HDL (upgraded) & RtlTree",
	"homepage": "http://www.vim.org/scripts/script.php?script_id=4067",
	"name": "automatic_for_Verilog__RtlTree",
	"vim-script-nr": 4067
}