{
	"author": "Sappy Goel",
	"description": "To find a string in the files in current directory",
	"homepage": "http://www.vim.org/scripts/script.php?script_id=825",
	"name": "find_in_files",
	"vim-script-nr": 825
}