{
	"author": "Borislav Velichkov",
	"description": "light color scheme, GUI and 256",
	"homepage": "http://www.vim.org/scripts/script.php?script_id=4798",
	"name": "swamplight",
	"vim-script-nr": 4798
}