{
	"author": "Jeremy Cowgar",
	"description": "Simple syntax highlighting for EDI files",
	"homepage": "http://www.vim.org/scripts/script.php?script_id=1110",
	"name": "edifile",
	"vim-script-nr": 1110
}