{
	"repository": {
		"file-name": "purge_undodir.vim-1.0.zip",
		"strip-components": 1,
		"type": "archive",
		"unpack-sequence": [
			"zip"
		],
		"url": "http://www.vim.org/scripts/download_script.php?src_id=25562"
	},
	"version": "v1.0"
}