{
	"repository": {
		"file-name": "hyperlist.vmb",
		"type": "archive",
		"unpack-sequence": [
			"vmb"
		],
		"url": "http://www.vim.org/scripts/download_script.php?src_id=25318"
	},
	"version": "2.3.6"
}