{
	"repository": {
		"file-name": "vim-lastplace-3.0.3.tar.gz",
		"type": "archive",
		"unpack-sequence": [
			"gz",
			"tar"
		],
		"url": "http://www.vim.org/scripts/download_script.php?src_id=24443"
	},
	"version": "3.0.3"
}