{
	"author": "Hong Wu",
	"description": "automatic insert function prototypes in your code ",
	"homepage": "http://www.vim.org/scripts/script.php?script_id=3459",
	"name": "funprototypes",
	"vim-script-nr": 3459
}