{
	"repository": {
		"file-name": "vim-flydiff-0.0.1.zip",
		"strip-components": 1,
		"type": "archive",
		"unpack-sequence": [
			"zip"
		],
		"url": "http://www.vim.org/scripts/download_script.php?src_id=8867"
	},
	"version": "0.0.1"
}