{
	"author": "Payton Swick",
	"description": "vim plugin for grepping and finding on a remote server",
	"homepage": "http://www.vim.org/scripts/script.php?script_id=4792",
	"name": "netgrep",
	"vim-script-nr": 4792
}