{
	"author": "Peter Odding",
	"description": "Transaction-Level Verilog support for Vim",
	"homepage": "http://www.vim.org/scripts/script.php?script_id=5130",
	"name": "vim-tlv-mode",
	"vim-script-nr": 5130
}