{
	"author": "Patricia Jung",
	"description": "Syntax highlighting for tpp presentation files",
	"homepage": "http://www.vim.org/scripts/script.php?script_id=1087",
	"name": "tpp",
	"vim-script-nr": 1087
}