{
	"repository": {
		"file-name": "vim2ansi.v1.3b.tgz",
		"strip-components": 1,
		"type": "archive",
		"unpack-sequence": [
			"gz",
			"tar"
		],
		"url": "http://www.vim.org/scripts/download_script.php?src_id=3890"
	},
	"version": "1.3b"
}