{
	"author": "Bj\u00f6rn Michaelsen",
	"description": "Colorscheme matching PrettyBlueish and Purplehaze",
	"homepage": "http://www.vim.org/scripts/script.php?script_id=796",
	"name": "bmichaelsen",
	"vim-script-nr": 796
}