{
	"author": "Aristotle Pagaltzis",
	"description": "Use the tabline to render buffer tabs",
	"homepage": "http://www.vim.org/scripts/script.php?script_id=5057",
	"name": "buftabline",
	"vim-script-nr": 5057
}