{
	"repository": {
		"file-name": "DBEXT_506_RDB.ZIP",
		"type": "archive",
		"unpack-sequence": [
			"zip"
		],
		"url": "http://www.vim.org/scripts/download_script.php?src_id=7624"
	},
	"version": "506"
}