{
	"repository": {
		"file-name": "vimclojure-2.3.0.zip",
		"type": "archive",
		"unpack-sequence": [
			"zip"
		],
		"url": "http://www.vim.org/scripts/download_script.php?src_id=16625"
	},
	"version": "2.3.0"
}