{
	"author": "Alisue Lambda",
	"description": "Simple compiler for testing python with nose",
	"homepage": "http://www.vim.org/scripts/script.php?script_id=3842",
	"name": "nose",
	"vim-script-nr": 3842
}