{
	"repository": {
		"file-name": "easytree.vim-0.2.zip",
		"strip-components": 1,
		"type": "archive",
		"unpack-sequence": [
			"zip"
		],
		"url": "http://www.vim.org/scripts/download_script.php?src_id=18839"
	},
	"version": "0.2"
}