{
	"repository": {
		"file-name": "IndentCommentPrefix.vba.gz",
		"type": "archive",
		"unpack-sequence": [
			"gz",
			"vmb"
		],
		"url": "http://www.vim.org/scripts/download_script.php?src_id=15338"
	},
	"version": "1.10"
}