{
	"repository": {
		"file-name": "orawb.tgz",
		"type": "archive",
		"unpack-sequence": [
			"gz",
			"tar"
		],
		"url": "http://www.vim.org/scripts/download_script.php?src_id=19600"
	},
	"version": "1.7"
}