{
	"repository": {
		"file-name": "R_with_vim_0.03-29.tar.gz",
		"type": "archive",
		"unpack-sequence": [
			"gz",
			"tar"
		],
		"url": "http://www.vim.org/scripts/download_script.php?src_id=4459"
	},
	"version": "0.03-29"
}