{
	"repository": {
		"file-name": "colourscheme_bandit.vba",
		"type": "archive",
		"unpack-sequence": [
			"vmb"
		],
		"url": "http://www.vim.org/scripts/download_script.php?src_id=10977"
	},
	"version": "r274"
}