{
	"repository": {
		"file-name": "sunset-1.2.0.vmb",
		"type": "archive",
		"unpack-sequence": [
			"vmb"
		],
		"url": "http://www.vim.org/scripts/download_script.php?src_id=18950"
	},
	"version": "1.2.0"
}