{
	"repository": {
		"file-name": "copycppdectoimp.vim",
		"type": "file",
		"url": "http://www.vim.org/scripts/download_script.php?src_id=2040",
		"vim-directory": "ftplugin"
	},
	"version": "0.46"
}