{
	"author": "Eric Haarbauer",
	"description": "iptables-save/restore syntax highlighter",
	"homepage": "http://www.vim.org/scripts/script.php?script_id=1425",
	"name": "iptables",
	"vim-script-nr": 1425
}