{
	"repository": {
		"file-name": "vim-game-code-break-1.3.0.zip",
		"strip-components": 1,
		"type": "archive",
		"unpack-sequence": [
			"zip"
		],
		"url": "http://www.vim.org/scripts/download_script.php?src_id=25453"
	},
	"version": "1.3.0"
}