{
	"repository": {
		"file-name": "libperl-vim-0.72.tar.gz",
		"type": "archive",
		"unpack-sequence": [
			"gz",
			"tar"
		],
		"url": "http://www.vim.org/scripts/download_script.php?src_id=11873"
	},
	"version": "0.72"
}