{
	"author": "kamarali khan",
	"description": "plugin for setting colors in difference mode",
	"homepage": "http://www.vim.org/scripts/script.php?script_id=4091",
	"name": "Difference_mode_color_settings",
	"vim-script-nr": 4091
}