{
	"author": "Bram de Haan",
	"description": "Sulphurpool is a purplish colorscheme",
	"homepage": "http://www.vim.org/scripts/script.php?script_id=5146",
	"name": "AtelierSulphurpool",
	"vim-script-nr": 5146
}