{
	"author": "Alan Hamlett",
	"description": "Fully automatic time tracking for Vim",
	"homepage": "http://www.vim.org/scripts/script.php?script_id=4639",
	"name": "vim-wakatime",
	"vim-script-nr": 4639
}