{
	"repository": {
		"file-name": "latex-mik-0_5.zip",
		"type": "archive",
		"unpack-sequence": [
			"zip"
		],
		"url": "http://www.vim.org/scripts/download_script.php?src_id=2629"
	},
	"version": "v0.5"
}