{
	"repository": {
		"file-name": "LargeFile.vba.gz",
		"type": "archive",
		"unpack-sequence": [
			"gz",
			"vmb"
		],
		"url": "http://www.vim.org/scripts/download_script.php?src_id=9275"
	},
	"version": "4+"
}