{
	"repository": {
		"file-name": "vim-latex-light-0.3.zip",
		"strip-components": 1,
		"type": "archive",
		"unpack-sequence": [
			"zip"
		],
		"url": "http://www.vim.org/scripts/download_script.php?src_id=24004"
	},
	"version": "0.3"
}