{
	"author": "Michal N\u00e1n\u00e1si",
	"description": "Simple syntax highlighting for Kerbal Space Program saves and .craft files.",
	"homepage": "http://www.vim.org/scripts/script.php?script_id=4960",
	"name": "Kerbal_Space_Program_Syntax",
	"vim-script-nr": 4960
}