{
	"author": "Naseer Ahmed",
	"description": "Syntax highlighting for Android logcat files",
	"homepage": "http://www.vim.org/scripts/script.php?script_id=2735",
	"name": "Logcat_syntax_highlighter",
	"vim-script-nr": 2735
}