{
	"repository": {
		"file-name": "repeatableMapping-2.01.vmb.gz",
		"type": "archive",
		"unpack-sequence": [
			"gz",
			"vmb"
		],
		"url": "http://www.vim.org/scripts/download_script.php?src_id=22630"
	},
	"version": "2.01"
}