{
	"repository": {
		"file-name": "txtbrowser.zip",
		"type": "archive",
		"unpack-sequence": [
			"zip"
		],
		"url": "http://www.vim.org/scripts/download_script.php?src_id=12563"
	},
	"version": "1.2"
}