{
	"repository": {
		"file-name": "vim-ale-1.6.1.zip",
		"type": "archive",
		"unpack-sequence": [
			"zip"
		],
		"url": "http://www.vim.org/scripts/download_script.php?src_id=25639"
	},
	"version": "1.6.1"
}