{
	"repository": {
		"file-name": "vim-do-0.1.0.tar.gz",
		"type": "archive",
		"unpack-sequence": [
			"gz",
			"tar"
		],
		"url": "http://www.vim.org/scripts/download_script.php?src_id=23783"
	},
	"version": "0.1.0"
}