{
	"repository": {
		"file-name": "php-indent_1-38.zip",
		"strip-components": 1,
		"type": "archive",
		"unpack-sequence": [
			"zip"
		],
		"url": "http://www.vim.org/scripts/download_script.php?src_id=20592"
	},
	"version": "1.38"
}