{
	"repository": {
		"file-name": "MessageFormatter.vba",
		"type": "archive",
		"unpack-sequence": [
			"vmb"
		],
		"url": "http://www.vim.org/scripts/download_script.php?src_id=15612"
	},
	"version": "7.0"
}