{
	"repository": {
		"file-name": "pyref.zip",
		"type": "archive",
		"unpack-sequence": [
			"zip"
		],
		"url": "http://www.vim.org/scripts/download_script.php?src_id=19874"
	},
	"version": "0.7.9"
}