{
	"author": "Rainer Borene",
	"description": "TimeTap helps you track the time you spend coding on each project while in Vim.",
	"homepage": "http://www.vim.org/scripts/script.php?script_id=4055",
	"name": "TimeTap",
	"vim-script-nr": 4055
}