{
	"repository": {
		"file-name": "vim-pad_0.9.1.zip",
		"type": "archive",
		"unpack-sequence": [
			"zip"
		],
		"url": "http://www.vim.org/scripts/download_script.php?src_id=21410"
	},
	"version": "0.9.1"
}