{
	"repository": {
		"file-name": "ctags_cache-v1.0.5.tbz",
		"strip-components": 1,
		"type": "archive",
		"unpack-sequence": [
			"bz2",
			"tar"
		],
		"url": "http://www.vim.org/scripts/download_script.php?src_id=16264"
	},
	"version": "v1.0.5"
}