{
	"author": "Ingo Karkat",
	"description": "Create a duplicate clone of the current buffer with a similar name.",
	"homepage": "http://www.vim.org/scripts/script.php?script_id=4897",
	"name": "cloneSimilar",
	"vim-script-nr": 4897
}