{
	"author": "Sean Cannon",
	"description": "A syntax file for Poser 3-D library and scene files and WaveFront OBJects",
	"homepage": "http://www.vim.org/scripts/script.php?script_id=496",
	"name": "poser",
	"vim-script-nr": 496
}