{
	"repository": {
		"file-name": "ingo-library-1.016.vmb.gz",
		"type": "archive",
		"unpack-sequence": [
			"gz",
			"vmb"
		],
		"url": "http://www.vim.org/scripts/download_script.php?src_id=21356"
	},
	"version": "1.016"
}