{
	"repository": {
		"file-name": "blogger-1.1.zip",
		"strip-components": 1,
		"type": "archive",
		"unpack-sequence": [
			"zip"
		],
		"url": "http://www.vim.org/scripts/download_script.php?src_id=10647"
	},
	"version": "1.1"
}