{
	"author": "Daniel Francis",
	"description": "Indentation for some languages according to their most used style guidelines.",
	"homepage": "http://www.vim.org/scripts/script.php?script_id=4858",
	"name": "stdtabs",
	"vim-script-nr": 4858
}