{
	"repository": {
		"file-name": "DBGPavim.zip",
		"type": "archive",
		"unpack-sequence": [
			"zip"
		],
		"url": "http://www.vim.org/scripts/download_script.php?src_id=17919"
	},
	"version": "1.0"
}