{
	"author": "Ingo Karkat",
	"description": "Insert mode completion that completes an entire sequence of non-blank characters",
	"homepage": "http://www.vim.org/scripts/script.php?script_id=5613",
	"name": "WORDComplete",
	"vim-script-nr": 5613
}