{
	"author": "Chris Houser",
	"description": "capture useful text from, and delete, all the vim swap files in ~/.vim/swap",
	"homepage": "http://www.vim.org/scripts/script.php?script_id=1188",
	"name": "cleanswap",
	"vim-script-nr": 1188
}