{
	"author": "Takuya Nishigori",
	"description": "Enhanced to allow increment the list that you have defined",
	"homepage": "http://www.vim.org/scripts/script.php?script_id=4817",
	"name": "increment-activator",
	"vim-script-nr": 4817
}