{
	"repository": {
		"file-name": "SearchHighlighting-1.22.vmb.gz",
		"type": "archive",
		"unpack-sequence": [
			"gz",
			"vmb"
		],
		"url": "http://www.vim.org/scripts/download_script.php?src_id=22058"
	},
	"version": "1.22"
}