{
	"author": "Paul Contreras",
	"description": "Teases you on things you are unsure of",
	"homepage": "http://www.vim.org/scripts/script.php?script_id=4982",
	"name": "Buddy_Challenge",
	"vim-script-nr": 4982
}