{
	"repository": {
		"file-name": "DoxygenToolkit.vim",
		"type": "file",
		"url": "http://www.vim.org/scripts/download_script.php?src_id=14064",
		"vim-directory": "plugin"
	},
	"version": "0.2.13"
}