{
	"author": "Stephen Bach",
	"description": "Dynamic filesystem and buffer explorer",
	"homepage": "http://www.vim.org/scripts/script.php?script_id=1890",
	"name": "LustyExplorer",
	"vim-script-nr": 1890
}