{
	"repository": {
		"file-name": "vim-header-0.1.0.tar.gz",
		"strip-components": 1,
		"type": "archive",
		"unpack-sequence": [
			"tar"
		],
		"url": "http://www.vim.org/scripts/download_script.php?src_id=24099"
	},
	"version": "v0.1.0"
}