{
	"repository": {
		"file-name": "vim-solarized8-0.8.tar.gz",
		"strip-components": 1,
		"type": "archive",
		"unpack-sequence": [
			"gz",
			"tar"
		],
		"url": "http://www.vim.org/scripts/download_script.php?src_id=25627"
	},
	"version": "v0.8"
}