{
	"repository": {
		"file-name": "win32bin.zip",
		"strip-components": 1,
		"type": "archive",
		"unpack-sequence": [
			"zip"
		],
		"url": "http://www.vim.org/scripts/download_script.php?src_id=18737"
	},
	"version": "1.4"
}