{
	"repository": {
		"file-name": "writebackupVersionControl.vim",
		"type": "file",
		"url": "http://www.vim.org/scripts/download_script.php?src_id=8838",
		"vim-directory": "plugin"
	},
	"version": "1.20.010"
}