{
	"repository": {
		"file-name": "hungarian_to_english.vim",
		"type": "file",
		"url": "http://www.vim.org/scripts/download_script.php?src_id=957",
		"vim-directory": "plugin"
	},
	"version": "1.0.1"
}