{
	"repository": {
		"file-name": "SingleCompile-2.9.3.zip",
		"type": "archive",
		"unpack-sequence": [
			"zip"
		],
		"url": "http://www.vim.org/scripts/download_script.php?src_id=17187"
	},
	"version": "2.9.3"
}