{
	"repository": {
		"file-name": "vimwiki-2-0-stu.vba.gz",
		"type": "archive",
		"unpack-sequence": [
			"gz",
			"vmb"
		],
		"url": "http://www.vim.org/scripts/download_script.php?src_id=18100"
	},
	"version": "2.0.stu"
}