{
	"author": "Paul L",
	"description": "A light color scheme for coders whom also read newspapers",
	"homepage": "http://www.vim.org/scripts/script.php?script_id=3338",
	"name": "newspaper",
	"vim-script-nr": 3338
}