{
	"repository": {
		"file-name": "vim-gista-v2.5.0.zip",
		"type": "archive",
		"unpack-sequence": [
			"zip"
		],
		"url": "http://www.vim.org/scripts/download_script.php?src_id=24977"
	},
	"version": "v2.5.0"
}