{
	"repository": {
		"file-name": "command-t-1.13.vba",
		"type": "archive",
		"unpack-sequence": [
			"vmb"
		],
		"url": "http://www.vim.org/scripts/download_script.php?src_id=23238"
	},
	"version": "1.13"
}