{
	"author": "Bruno Dupuis",
	"description": "Makes the cursor blink in x terms when the user is in insert mode",
	"homepage": "http://www.vim.org/scripts/script.php?script_id=2000",
	"name": "blinking_cursor",
	"vim-script-nr": 2000
}