{
	"author": "Gary Johnson",
	"description": "Display function name in the title bar and/or the status line",
	"homepage": "http://www.vim.org/scripts/script.php?script_id=610",
	"name": "ctags%610",
	"vim-script-nr": 610
}