{
	"repository": {
		"file-name": "neocomplcache-4.30a.zip",
		"strip-components": 1,
		"type": "archive",
		"unpack-sequence": [
			"zip"
		],
		"url": "http://www.vim.org/scripts/download_script.php?src_id=13084"
	},
	"version": "4.30a"
}