{
	"author": "wei ko kao",
	"description": "Yet Another JavaScript Syntax file for Vim",
	"homepage": "http://www.vim.org/scripts/script.php?script_id=4974",
	"name": "YAJS_Yet_Another_JavaScript_Syntax",
	"vim-script-nr": 4974
}