{
	"author": "Michael Schenk",
	"description": "Simple, seamless, lightweight time tracking for all your git projects",
	"homepage": "http://www.vim.org/scripts/script.php?script_id=5419",
	"name": "gtm-plugin",
	"vim-script-nr": 5419
}