{
	"author": "Oleg Potapov",
	"description": "Vim navigation plugin for Sails framework. Heavily inspired by vim-rails.",
	"homepage": "http://www.vim.org/scripts/script.php?script_id=4909",
	"name": "vim-sails",
	"vim-script-nr": 4909
}