{
	"author": "AlpT Aliptah",
	"description": "A vim WoC browser. It enables hyperlinks for sources and ASCII texts.",
	"homepage": "http://www.vim.org/scripts/script.php?script_id=1771",
	"name": "woc",
	"vim-script-nr": 1771
}