{
	"author": "Christian J. Robinson",
	"description": "Delete all the buffers except the current/named buffer",
	"homepage": "http://www.vim.org/scripts/script.php?script_id=1071",
	"name": "BufOnly",
	"vim-script-nr": 1071
}