{
	"repository": {
		"file-name": "Lokaltog-vim-easymotion-1.0.8-0-g24c9f6c.zip",
		"strip-components": 1,
		"type": "archive",
		"unpack-sequence": [
			"zip"
		],
		"url": "http://www.vim.org/scripts/download_script.php?src_id=15339"
	},
	"version": "1.0.8"
}