{
	"repository": {
		"file-name": "vim-r-plugin2-090519.tar.gz",
		"type": "archive",
		"unpack-sequence": [
			"gz",
			"tar"
		],
		"url": "http://www.vim.org/scripts/download_script.php?src_id=10637"
	},
	"version": "090519"
}