{
	"repository": {
		"file-name": "EnhancedJumps.vba.gz",
		"type": "archive",
		"unpack-sequence": [
			"gz",
			"vmb"
		],
		"url": "http://www.vim.org/scripts/download_script.php?src_id=11009"
	},
	"version": "1.11"
}