{
	"repository": {
		"file-name": "eruby.tar.gz",
		"type": "archive",
		"unpack-sequence": [
			"gz",
			"tar"
		],
		"url": "http://www.vim.org/scripts/download_script.php?src_id=1456"
	},
	"version": "1.5"
}