{
	"repository": {
		"file-name": "vim_vgrep141.tar.gz",
		"type": "archive",
		"unpack-sequence": [
			"gz",
			"tar"
		],
		"url": "http://www.vim.org/scripts/download_script.php?src_id=8959"
	},
	"version": "1.4.1"
}