{
	"repository": {
		"file-name": "misc.zip",
		"type": "archive",
		"unpack-sequence": [
			"zip"
		],
		"url": "http://www.vim.org/scripts/download_script.php?src_id=20421"
	},
	"version": "1.8.1"
}