{
	"repository": {
		"file-name": "headlights_1.4.1.zip",
		"strip-components": 1,
		"type": "archive",
		"unpack-sequence": [
			"zip"
		],
		"url": "http://www.vim.org/scripts/download_script.php?src_id=17375"
	},
	"version": "1.4.1"
}