{
	"repository": {
		"file-name": "vim-inccomplete-1.0.6.zip",
		"strip-components": 1,
		"type": "archive",
		"unpack-sequence": [
			"zip"
		],
		"url": "http://www.vim.org/scripts/download_script.php?src_id=14579"
	},
	"version": "1.0.6"
}