{
	"author": "William Lee",
	"description": "A plugin to diff and merge two directories recursively.",
	"homepage": "http://www.vim.org/scripts/script.php?script_id=102",
	"name": "DirDiff",
	"vim-script-nr": 102
}