{
	"author": "Vincent Velociter",
	"description": "behat runtime files (adapted from cucumber ftplugin)",
	"homepage": "http://www.vim.org/scripts/script.php?script_id=3865",
	"name": "behat.zip",
	"vim-script-nr": 3865
}