{
	"repository": {
		"file-name": "SumOfSelection-1.13.vim",
		"type": "file",
		"url": "http://www.vim.org/scripts/download_script.php?src_id=25216",
		"vim-directory": "plugin"
	},
	"version": "1.13"
}