{
	"author": "Connor Berry",
	"description": "color scheme to mimic writeroom/darkroom editors",
	"homepage": "http://www.vim.org/scripts/script.php?script_id=2246",
	"name": "darkroom",
	"vim-script-nr": 2246
}