{
	"repository": {
		"file-name": "yankring_150.zip",
		"type": "archive",
		"unpack-sequence": [
			"zip"
		],
		"url": "http://www.vim.org/scripts/download_script.php?src_id=19300"
	},
	"version": "15.0"
}