{
	"repository": {
		"file-name": "AutomaticTexPlugin_9.6.1.vba",
		"type": "archive",
		"unpack-sequence": [
			"vmb"
		],
		"url": "http://www.vim.org/scripts/download_script.php?src_id=15868"
	},
	"version": "9.6.1"
}