{
	"author": "Anton Beloglazov",
	"description": "A Vim plugin for looking up words in an online thesaurus",
	"homepage": "http://www.vim.org/scripts/script.php?script_id=4588",
	"name": "vim-online-thesaurus",
	"vim-script-nr": 4588
}