{
	"author": "Artem Shcherbina",
	"description": "Vim Tex / LaTeX ftplugin to automatically change keymap (language)",
	"homepage": "http://www.vim.org/scripts/script.php?script_id=3812",
	"name": "tex_AutoKeymap",
	"vim-script-nr": 3812
}