{
	"repository": {
		"file-name": "AsyncCommand.zip",
		"strip-components": 1,
		"type": "archive",
		"unpack-sequence": [
			"zip"
		],
		"url": "http://www.vim.org/scripts/download_script.php?src_id=17998"
	},
	"version": "4.0"
}