{
	"repository": {
		"file-name": "launchassociated.vim",
		"type": "file",
		"url": "http://www.vim.org/scripts/download_script.php?src_id=20972",
		"vim-directory": "plugin"
	},
	"version": "0.0.1"
}