{
	"repository": {
		"file-name": "vimgitlog-version_4.0.0.tar.gz",
		"strip-components": 1,
		"type": "archive",
		"unpack-sequence": [
			"gz",
			"tar"
		],
		"url": "http://www.vim.org/scripts/download_script.php?src_id=23039"
	},
	"version": "4.0.0"
}