{
	"repository": {
		"file-name": "quickmenu-1.2.2.zip",
		"type": "archive",
		"unpack-sequence": [
			"zip"
		],
		"url": "http://www.vim.org/scripts/download_script.php?src_id=25423"
	},
	"version": "1.2.2"
}