{
	"author": "thomas ramming",
	"description": "add all files recursively as menu entry",
	"homepage": "http://www.vim.org/scripts/script.php?script_id=80",
	"name": "files2menu.pm",
	"vim-script-nr": 80
}