{
	"repository": {
		"file-name": "maximize.zip",
		"type": "archive",
		"unpack-sequence": [
			"zip"
		],
		"url": "http://www.vim.org/scripts/download_script.php?src_id=7804"
	},
	"version": "1.1a"
}