{
	"author": "Britton Kerin",
	"description": "automatically add/update line directives in perl embedded in vim scripts",
	"homepage": "http://www.vim.org/scripts/script.php?script_id=3406",
	"name": "update_perl_line_directives",
	"vim-script-nr": 3406
}