{
	"author": "Lorenz M\u00f6senlechner",
	"description": "Use Makefile.am for project management",
	"homepage": "http://www.vim.org/scripts/script.php?script_id=1339",
	"name": "Autoproject",
	"vim-script-nr": 1339
}