{
	"author": "James Dominy",
	"description": "Vim becomes an integrated debugger for any language with a text based debugger",
	"homepage": "http://www.vim.org/scripts/script.php?script_id=1703",
	"name": "vdb",
	"vim-script-nr": 1703
}