{
	"repository": {
		"file-name": "vim-compile.tar.gz",
		"strip-components": 1,
		"type": "archive",
		"unpack-sequence": [
			"gz",
			"tar"
		],
		"url": "http://www.vim.org/scripts/download_script.php?src_id=23428"
	},
	"version": "v0.3.1.1"
}