{
	"author": "Tom Link",
	"description": "Jump to an index in an alphabetically ordered file",
	"homepage": "http://www.vim.org/scripts/script.php?script_id=1414",
	"name": "bibFindIndex",
	"vim-script-nr": 1414
}