{
	"author": "Craig Emery",
	"description": "Change directory to one containing a Makefile",
	"homepage": "http://www.vim.org/scripts/script.php?script_id=799",
	"name": "FindMakefile",
	"vim-script-nr": 799
}