{
	"author": "Gary Holloway",
	"description": "Display line(s) in the command area (like echo), but syntax highlighted.",
	"homepage": "http://www.vim.org/scripts/script.php?script_id=381",
	"name": "ShowLine",
	"vim-script-nr": 381
}