{
	"author": "Vincent B",
	"description": "A compiler description for nVidia cg compiler",
	"homepage": "http://www.vim.org/scripts/script.php?script_id=2886",
	"name": "cgc",
	"vim-script-nr": 2886
}