{
	"author": "Miikka-Markus Leskinen",
	"description": "Practical, beautiful seasonal colors.",
	"homepage": "http://www.vim.org/scripts/script.php?script_id=1107",
	"name": "AutumnLeaf",
	"vim-script-nr": 1107
}