{
	"author": "Mykola Golubyev",
	"description": "Add std:: includes to your file according to what you have used.",
	"homepage": "http://www.vim.org/scripts/script.php?script_id=2575",
	"name": "std_includes",
	"vim-script-nr": 2575
}