{
	"author": "rohit seth",
	"description": "Attract A Load Of Traffic To Your Web Site With Little Or No Effort!",
	"homepage": "http://www.vim.org/scripts/script.php?script_id=2316",
	"name": "Viral_Marketing_Script",
	"vim-script-nr": 2316
}