{
	"repository": {
		"file-name": "Recover-0.5.vba",
		"type": "archive",
		"unpack-sequence": [
			"vmb"
		],
		"url": "http://www.vim.org/scripts/download_script.php?src_id=12943"
	},
	"version": "0.5"
}