{
	"author": "Nathan Witmer",
	"description": "Copy syntax-highlighted code from vim to the OS X clipboard as RTF text",
	"homepage": "http://www.vim.org/scripts/script.php?script_id=3676",
	"name": "copy-as-rtf",
	"vim-script-nr": 3676
}