{
	"repository": {
		"file-name": "tskeleton.vba",
		"type": "archive",
		"unpack-sequence": [
			"vmb"
		],
		"url": "http://www.vim.org/scripts/download_script.php?src_id=22104"
	},
	"version": "5.02"
}