{
	"author": "Tim Pope",
	"description": "Work with several variants of a word at once",
	"homepage": "http://www.vim.org/scripts/script.php?script_id=1545",
	"name": "abolish",
	"vim-script-nr": 1545
}