{
	"author": "Yakov Lerner",
	"description": "Time execution of vim command(s) with subsecond resolution",
	"homepage": "http://www.vim.org/scripts/script.php?script_id=1622",
	"name": "TIMEIT",
	"vim-script-nr": 1622
}