{
	"repository": {
		"file-name": "ctrlp-locate-0.3.vmb",
		"type": "archive",
		"unpack-sequence": [
			"vmb"
		],
		"url": "http://www.vim.org/scripts/download_script.php?src_id=23467"
	},
	"version": "0.3"
}