{
	"author": "Jeff Crawford",
	"description": "Count number of bytes on current line or in visual block of lines.",
	"homepage": "http://www.vim.org/scripts/script.php?script_id=638",
	"name": "WC",
	"vim-script-nr": 638
}