{
	"author": "Yasuhiro Matsumoto",
	"description": "Yet Another Lisp Engine Written In Pure VimScript",
	"homepage": "http://www.vim.org/scripts/script.php?script_id=3819",
	"name": "Lisper",
	"vim-script-nr": 3819
}