{
	"author": "Tom Link",
	"description": "Facilitate definition of triggers on CursorMoved[I] events",
	"homepage": "http://www.vim.org/scripts/script.php?script_id=2037",
	"name": "hookcursormoved",
	"vim-script-nr": 2037
}