{
	"author": "Martin Krischik",
	"description": "Complete Ada-Mode as Vim-Ball or Tar.bz2",
	"homepage": "http://www.vim.org/scripts/script.php?script_id=1609",
	"name": "Ada_Bundle",
	"vim-script-nr": 1609
}