{
	"repository": {
		"file-name": "genutils-2.5.zip",
		"type": "archive",
		"unpack-sequence": [
			"zip"
		],
		"url": "http://www.vim.org/scripts/download_script.php?src_id=11399"
	},
	"version": "2.5"
}