{
	"repository": {
		"file-name": "colorscheme-switcher.zip",
		"type": "archive",
		"unpack-sequence": [
			"zip"
		],
		"url": "http://www.vim.org/scripts/download_script.php?src_id=22069"
	},
	"version": "0.4"
}