{
	"repository": {
		"file-name": "translit3-2.1.1.tar.gz",
		"type": "archive",
		"unpack-sequence": [
			"gz",
			"tar"
		],
		"url": "http://www.vim.org/scripts/download_script.php?src_id=13836"
	},
	"version": "2.1.1"
}