{
	"repository": {
		"file-name": "vim-abbrev-matcher.zip",
		"strip-components": 1,
		"type": "archive",
		"unpack-sequence": [
			"zip"
		],
		"url": "http://www.vim.org/scripts/download_script.php?src_id=23705"
	},
	"version": "1.0"
}