{
	"repository": {
		"file-name": "sovim.zip",
		"type": "archive",
		"unpack-sequence": [
			"zip"
		],
		"url": "http://www.vim.org/scripts/download_script.php?src_id=21022"
	},
	"version": "0.0.0"
}