{
	"author": "Ingo Karkat",
	"description": "Motions to the borders of the same syntax highlighting.",
	"homepage": "http://www.vim.org/scripts/script.php?script_id=4338",
	"name": "SameSyntaxMotion",
	"vim-script-nr": 4338
}