{
	"repository": {
		"file-name": "shell.zip",
		"type": "archive",
		"unpack-sequence": [
			"zip"
		],
		"url": "http://www.vim.org/scripts/download_script.php?src_id=20273"
	},
	"version": "0.12.10"
}