{
	"repository": {
		"file-name": "play.zip",
		"type": "archive",
		"unpack-sequence": [
			"zip"
		],
		"url": "http://www.vim.org/scripts/download_script.php?src_id=20619"
	},
	"version": "0.9.2"
}