{
	"author": "Ralf Holly",
	"description": "A dark color scheme dedicated to Antoine de Saint-Exup\u00e9ry",
	"homepage": "http://www.vim.org/scripts/script.php?script_id=2272",
	"name": "nightflight2",
	"vim-script-nr": 2272
}