{
	"repository": {
		"file-name": "vim-fileutils-0.6.1.tar.gz",
		"type": "archive",
		"unpack-sequence": [
			"gz",
			"tar"
		],
		"url": "http://www.vim.org/scripts/download_script.php?src_id=14261"
	},
	"version": "0.6.1"
}