{
	"repository": {
		"file-name": "NrrwRgn-0.16.vba",
		"type": "archive",
		"unpack-sequence": [
			"vmb"
		],
		"url": "http://www.vim.org/scripts/download_script.php?src_id=14289"
	},
	"version": "16"
}