{
	"author": "Matthew Brett",
	"description": "Plugin to work with sections in ReST",
	"homepage": "http://www.vim.org/scripts/script.php?script_id=4486",
	"name": "vim-rst-sections",
	"vim-script-nr": 4486
}