{
	"author": "omi taku",
	"description": "Copy current editing file path to clipboard.",
	"homepage": "http://www.vim.org/scripts/script.php?script_id=1456",
	"name": "copypath",
	"vim-script-nr": 1456
}