{
	"repository": {
		"file-name": "gruvbox-1.3.5.zip",
		"type": "archive",
		"unpack-sequence": [
			"zip"
		],
		"url": "http://www.vim.org/scripts/download_script.php?src_id=21639"
	},
	"version": "1.3.5"
}