{
	"author": "John Biederstedt",
	"description": "Match all IP addresses withing a given IPv4 CIDR address block",
	"homepage": "http://www.vim.org/scripts/script.php?script_id=5469",
	"name": "Subnet_Search",
	"vim-script-nr": 5469
}