{
	"author": "Michael Goerz",
	"description": "Complete fortran constructs with <F7>",
	"homepage": "http://www.vim.org/scripts/script.php?script_id=2487",
	"name": "fortran_codecomplete",
	"vim-script-nr": 2487
}