{
	"repository": {
		"file-name": "mirror.zip",
		"strip-components": 1,
		"type": "archive",
		"unpack-sequence": [
			"zip"
		],
		"url": "http://www.vim.org/scripts/download_script.php?src_id=24216"
	},
	"version": "1.2.0"
}