{
	"repository": {
		"file-name": "dctl_2005.09.vim.tgz",
		"type": "archive",
		"unpack-sequence": [
			"gz",
			"tar"
		],
		"url": "http://www.vim.org/scripts/download_script.php?src_id=6012"
	},
	"version": "2005.09a"
}