{
	"repository": {
		"file-name": "asynccommand.zip",
		"type": "archive",
		"unpack-sequence": [
			"zip"
		],
		"url": "http://www.vim.org/scripts/download_script.php?src_id=15910"
	},
	"version": "3.0"
}