{
	"author": "The Happy Hacker",
	"description": "Syntax file for Splunk Search Language",
	"homepage": "http://www.vim.org/scripts/script.php?script_id=5030",
	"name": "splunk",
	"vim-script-nr": 5030
}