{
	"author": "Hari Krishna Dara",
	"description": "Provides a better :tselect command.",
	"homepage": "http://www.vim.org/scripts/script.php?script_id=1282",
	"name": "tagselect",
	"vim-script-nr": 1282
}