{
	"repository": {
		"file-name": "goyo-doc.zip",
		"strip-components": 1,
		"type": "archive",
		"unpack-sequence": [
			"zip"
		],
		"url": "http://www.vim.org/scripts/download_script.php?src_id=25059"
	},
	"version": "0.0.1"
}