{
	"author": "Yo-An Lin",
	"description": "syntax support of sd (p2p bug tracking system)",
	"homepage": "http://www.vim.org/scripts/script.php?script_id=2614",
	"name": "sdticket",
	"vim-script-nr": 2614
}