{
	"repository": {
		"file-name": "COMMENT.zip",
		"type": "archive",
		"unpack-sequence": [
			"zip"
		],
		"url": "http://www.vim.org/scripts/download_script.php?src_id=4674"
	},
	"version": "1.1"
}