{
	"repository": {
		"file-name": "html_autoclosetag.vim",
		"type": "file",
		"url": "http://www.vim.org/scripts/download_script.php?src_id=10609",
		"vim-directory": "ftplugin"
	},
	"version": "0.3"
}