{
	"author": "Juan Carlos Alvarez",
	"description": "Ruby syntax checker, display error and warnings in a quickfix split",
	"homepage": "http://www.vim.org/scripts/script.php?script_id=4547",
	"name": "ruby-syntaxchecker",
	"vim-script-nr": 4547
}