{
	"repository": {
		"file-name": "debugger2.0.1.zip",
		"type": "archive",
		"unpack-sequence": [
			"zip"
		],
		"url": "http://www.vim.org/scripts/download_script.php?src_id=17798"
	},
	"version": "2.0.1"
}