{
	"author": "Jeremy Blain",
	"description": "A dark color scheme for Vim.",
	"homepage": "http://www.vim.org/scripts/script.php?script_id=5498",
	"name": "Broduo_Color_Scheme",
	"vim-script-nr": 5498
}