{
	"author": "vijayandra singh",
	"description": "Quick Selection Between projects",
	"homepage": "http://www.vim.org/scripts/script.php?script_id=2395",
	"name": "Fly_Between_Projects",
	"vim-script-nr": 2395
}