{
	"author": "Markus Braun",
	"description": "Plugin for transparent editing of gpg encrypted files.",
	"homepage": "http://www.vim.org/scripts/script.php?script_id=661",
	"name": "gnupg",
	"vim-script-nr": 661
}