{
	"repository": {
		"file-name": "viewdoc.vmb",
		"type": "archive",
		"unpack-sequence": [
			"vmb"
		],
		"url": "http://www.vim.org/scripts/download_script.php?src_id=21111"
	},
	"version": "1.7"
}