{
	"repository": {
		"file-name": "vimcompcrtr-1.2.3.tar.gz",
		"type": "archive",
		"unpack-sequence": [
			"gz",
			"tar"
		],
		"url": "http://www.vim.org/scripts/download_script.php?src_id=14336"
	},
	"version": "1.2.3"
}