{
	"repository": {
		"file-name": "vim-prettyprint-0.3.1.zip",
		"type": "archive",
		"unpack-sequence": [
			"zip"
		],
		"url": "http://www.vim.org/scripts/download_script.php?src_id=13769"
	},
	"version": "0.3.1"
}