{
	"author": "Arithran Thurairetnam",
	"description": "Clean your file buffer when you work for long periods on a large project",
	"homepage": "http://www.vim.org/scripts/script.php?script_id=5583",
	"name": "DeleteHiddenBuffers",
	"vim-script-nr": 5583
}