{
	"author": "Ingo Karkat",
	"description": "Locate the quickfix item at the cursor position.",
	"homepage": "http://www.vim.org/scripts/script.php?script_id=4449",
	"name": "QuickFixCurrentNumber",
	"vim-script-nr": 4449
}