{
	"repository": {
		"file-name": "vim-simple-todo-0.17.zip",
		"strip-components": 1,
		"type": "archive",
		"unpack-sequence": [
			"zip"
		],
		"url": "http://www.vim.org/scripts/download_script.php?src_id=24979"
	},
	"version": "0.17"
}