{
	"repository": {
		"file-name": "django-template-textobjects-master.zip",
		"strip-components": 1,
		"type": "archive",
		"unpack-sequence": [
			"zip"
		],
		"url": "http://www.vim.org/scripts/download_script.php?src_id=21656"
	},
	"version": "0.7.4"
}