{
	"repository": {
		"file-name": "vim-sandwich-1.2.2.zip",
		"strip-components": 1,
		"type": "archive",
		"unpack-sequence": [
			"zip"
		],
		"url": "http://www.vim.org/scripts/download_script.php?src_id=23686"
	},
	"version": "1.2.2"
}