{
	"repository": {
		"file-name": "einstimer.vim.gz",
		"type": "file",
		"unpack-sequence": [
			"gz"
		],
		"url": "http://www.vim.org/scripts/download_script.php?src_id=828",
		"vim-directory": "syntax"
	},
	"version": "6.1+"
}