{
	"repository": {
		"file-name": "sli-0.4.1.tar.gz",
		"strip-components": 1,
		"type": "archive",
		"unpack-sequence": [
			"gz",
			"tar"
		],
		"url": "http://www.vim.org/scripts/download_script.php?src_id=22380"
	},
	"version": "0.4.1"
}