{
	"author": "Kana Natsuno",
	"description": "Insert several candidates with a single key",
	"homepage": "http://www.vim.org/scripts/script.php?script_id=2290",
	"name": "smartchr",
	"vim-script-nr": 2290
}