{
	"author": "Marcin Szamotulski",
	"description": "dispatch CR in the command line",
	"homepage": "http://www.vim.org/scripts/script.php?script_id=4856",
	"name": "CRDispatcher",
	"vim-script-nr": 4856
}