{
	"repository": {
		"file-name": "fortran_line_length.vim",
		"type": "file",
		"url": "http://www.vim.org/scripts/download_script.php?src_id=11880",
		"vim-directory": "plugin"
	},
	"version": "0.0.2"
}