{
	"author": "Mark Jaroski",
	"description": "Creates folds in POD files based on =head[123] sections",
	"homepage": "http://www.vim.org/scripts/script.php?script_id=691",
	"name": "POD_Folder",
	"vim-script-nr": 691
}