{
	"repository": {
		"file-name": "rainbow_parentheses_improved.zip",
		"type": "archive",
		"unpack-sequence": [
			"zip"
		],
		"url": "http://www.vim.org/scripts/download_script.php?src_id=18422"
	},
	"version": "1.01"
}