{
	"author": "Olivier Le Thanh Duong",
	"description": "A ViM plugin to send code to a pastebin such as paste.debian.net using XML-RPC",
	"homepage": "http://www.vim.org/scripts/script.php?script_id=2269",
	"name": "vim-rpcpaste",
	"vim-script-nr": 2269
}