{
	"repository": {
		"file-name": "coffee-check.vim-0.1.vmb",
		"type": "archive",
		"unpack-sequence": [
			"vmb"
		],
		"url": "http://www.vim.org/scripts/download_script.php?src_id=17279"
	},
	"version": "0.1"
}