{
	"repository": {
		"file-name": "pyinteractive-vim.zip",
		"type": "archive",
		"unpack-sequence": [
			"zip"
		],
		"url": "http://www.vim.org/scripts/download_script.php?src_id=20520"
	},
	"version": "0.7.0"
}