{
	"author": "Lay\u00e1na \u01e8aynolj Kon\u00f3vo",
	"description": "NewtonScript syntax highlighting",
	"homepage": "http://www.vim.org/scripts/script.php?script_id=4589",
	"name": "newt",
	"vim-script-nr": 4589
}