{
	"repository": {
		"file-name": "xpt-0.4.8-r1031.tgz",
		"type": "archive",
		"unpack-sequence": [
			"gz",
			"tar"
		],
		"url": "http://www.vim.org/scripts/download_script.php?src_id=14395"
	},
	"version": "0.4.8-1031"
}