{
	"repository": {
		"file-name": "SpitVspit.tar.gz",
		"strip-components": 1,
		"type": "archive",
		"unpack-sequence": [
			"gz",
			"tar"
		],
		"url": "http://www.vim.org/scripts/download_script.php?src_id=14577"
	},
	"version": "2.0.4"
}