{
	"author": "Eustaquio Rangel de Oliveira Jr.",
	"description": "Some abbreviations to use with Ruby",
	"homepage": "http://www.vim.org/scripts/script.php?script_id=1966",
	"name": "Ruby_Snippets",
	"vim-script-nr": 1966
}