{
	"author": "Suraj Kurapati",
	"description": "A filetype lazy, disjoint folder Vim script loader!",
	"homepage": "http://www.vim.org/scripts/script.php?script_id=4744",
	"name": "unbundle",
	"vim-script-nr": 4744
}