{
	"repository": {
		"file-name": "auto_tag_gen_v0.00.05win32.zip",
		"strip-components": 1,
		"type": "archive",
		"unpack-sequence": [
			"zip"
		],
		"url": "http://www.vim.org/scripts/download_script.php?src_id=23492"
	},
	"version": "0.00.05"
}