{
	"author": "Tim Brown",
	"description": "Simple syntax for racket (http://racket-lang.org)",
	"homepage": "http://www.vim.org/scripts/script.php?script_id=3755",
	"name": "racket",
	"vim-script-nr": 3755
}