{
	"author": "peter jakobi",
	"description": "make vim part of a unix pipe and allow it to edit the pipe contents",
	"homepage": "http://www.vim.org/scripts/script.php?script_id=2769",
	"name": "pipe",
	"vim-script-nr": 2769
}