{
	"author": "vivek Venugopalan",
	"description": "Helper for Writing DocBook Documents",
	"homepage": "http://www.vim.org/scripts/script.php?script_id=38",
	"name": "dbhelper.tgz",
	"vim-script-nr": 38
}