{
	"repository": {
		"file-name": "explainpat_0.5.vmb",
		"type": "archive",
		"unpack-sequence": [
			"vmb"
		],
		"url": "http://www.vim.org/scripts/download_script.php?src_id=19613"
	},
	"version": "0.5"
}