{
	"author": "Rafael Kitover",
	"description": "DarkDot color scheme for 256 color terminals",
	"homepage": "http://www.vim.org/scripts/script.php?script_id=5009",
	"name": "256_darkdot",
	"vim-script-nr": 5009
}