{
	"author": "ZyX  ",
	"description": "Plugin that helps to create complicated vim scripts",
	"homepage": "http://www.vim.org/scripts/script.php?script_id=3184",
	"name": "vimpluginloader",
	"vim-script-nr": 3184
}