{
	"repository": {
		"file-name": "videm-1010-Build20131011.tar.bz2",
		"type": "archive",
		"unpack-sequence": [
			"bz2",
			"tar"
		],
		"url": "http://www.vim.org/scripts/download_script.php?src_id=20909"
	},
	"version": "1.010"
}