{
	"author": "Max Brunsfeld",
	"description": "lightweight implementation of emacs' kill ring for vim",
	"homepage": "http://www.vim.org/scripts/script.php?script_id=3834",
	"name": "yankstack",
	"vim-script-nr": 3834
}