{
	"author": "Alisue Lambda",
	"description": "Add DJANGO_SETTINGS_MODULES to enable pythoncomplete or whatever for django",
	"homepage": "http://www.vim.org/scripts/script.php?script_id=3841",
	"name": "vim-django-support",
	"vim-script-nr": 3841
}