{
	"author": "Guido Van Hoecke",
	"description": "Global plugin for automated time stamping",
	"homepage": "http://www.vim.org/scripts/script.php?script_id=371",
	"name": "timstamp",
	"vim-script-nr": 371
}