{
	"repository": {
		"file-name": "vtreeexplorer-1.26.tar.gz",
		"type": "archive",
		"unpack-sequence": [
			"gz",
			"tar"
		],
		"url": "http://www.vim.org/scripts/download_script.php?src_id=7927"
	},
	"version": "1.26"
}