{
	"author": "Kana Natsuno",
	"description": "Operator to replace text with register content",
	"homepage": "http://www.vim.org/scripts/script.php?script_id=2782",
	"name": "operator-replace",
	"vim-script-nr": 2782
}