{
	"author": "Ian Renyard",
	"description": "Formats Git Flow prefixed branch names to take less space in your status line.",
	"homepage": "http://www.vim.org/scripts/script.php?script_id=5175",
	"name": "git-flow-format",
	"vim-script-nr": 5175
}