{
	"author": "Stanislaw Klekot",
	"description": "Log::Log4perl configuration syntax",
	"homepage": "http://www.vim.org/scripts/script.php?script_id=4128",
	"name": "log4perl",
	"vim-script-nr": 4128
}