{
	"repository": {
		"file-name": "SnippetySnip-0.2.tgz",
		"type": "archive",
		"unpack-sequence": [
			"gz",
			"tar"
		],
		"url": "http://www.vim.org/scripts/download_script.php?src_id=16412"
	},
	"version": "0.2"
}