{
	"author": "Mykola Golubyev",
	"description": "Tags based search for any things you might want to find(ctags, buffers,...).",
	"homepage": "http://www.vim.org/scripts/script.php?script_id=2507",
	"name": "0scan",
	"vim-script-nr": 2507
}