{
	"repository": {
		"file-name": "seoul256-light.vim",
		"type": "file",
		"url": "http://www.vim.org/scripts/download_script.php?src_id=20580",
		"vim-directory": "colors"
	},
	"version": "1.2.10+"
}