{
	"author": "Yuxuan Wang",
	"description": "Switch between source and header files",
	"homepage": "http://www.vim.org/scripts/script.php?script_id=1514",
	"name": "SwitchExt",
	"vim-script-nr": 1514
}