{
	"author": "Alexander Chaika",
	"description": "Dark color scheme, based on robinhood",
	"homepage": "http://www.vim.org/scripts/script.php?script_id=1713",
	"name": "darker-robin",
	"vim-script-nr": 1713
}