{
	"author": "Aditya Mahajan",
	"description": "complier for context",
	"homepage": "http://www.vim.org/scripts/script.php?script_id=1925",
	"name": "context_complier_plugin",
	"vim-script-nr": 1925
}