{
	"repository": {
		"file-name": "diffchar6.3.zip",
		"type": "archive",
		"unpack-sequence": [
			"zip"
		],
		"url": "http://www.vim.org/scripts/download_script.php?src_id=24623"
	},
	"version": "6.3"
}