{
	"author": "Dmitry Vasiliev",
	"description": "Enhanced version of the python syntax highlighting script",
	"homepage": "http://www.vim.org/scripts/script.php?script_id=790",
	"name": "python%790",
	"vim-script-nr": 790
}