{
	"author": "Emil Loer",
	"description": "Syntax highlighting and indenting for mnml files",
	"homepage": "http://www.vim.org/scripts/script.php?script_id=3791",
	"name": "vim-mnml",
	"vim-script-nr": 3791
}