{
	"repository": {
		"file-name": "easybuffer.vim-0.1.2.zip",
		"strip-components": 1,
		"type": "archive",
		"unpack-sequence": [
			"zip"
		],
		"url": "http://www.vim.org/scripts/download_script.php?src_id=18600"
	},
	"version": "0.1.2"
}