{
	"repository": {
		"file-name": "left_right_text_object.vim",
		"type": "file",
		"url": "http://www.vim.org/scripts/download_script.php?src_id=15244",
		"vim-directory": "plugin"
	},
	"version": "1.0"
}