{
	"author": "SANFACE Software",
	"description": "Script to save the current file and convert it to PDF using txt2pdf",
	"homepage": "http://www.vim.org/scripts/script.php?script_id=283",
	"name": "txt2pdf",
	"vim-script-nr": 283
}