{
	"repository": {
		"file-name": "django.vim.tar.gz",
		"type": "archive",
		"unpack-sequence": [
			"gz",
			"tar"
		],
		"url": "http://www.vim.org/scripts/download_script.php?src_id=17511"
	},
	"version": "0.1.0"
}