{
	"repository": {
		"file-name": "clever-f-1.3.vim.zip",
		"strip-components": 1,
		"type": "archive",
		"unpack-sequence": [
			"zip"
		],
		"url": "http://www.vim.org/scripts/download_script.php?src_id=20829"
	},
	"version": "1.3"
}