{
	"author": "Jeff Crawford",
	"description": "Comment out blocks of C/C++ code using #if 0 #endif block",
	"homepage": "http://www.vim.org/scripts/script.php?script_id=637",
	"name": "COMMENT",
	"vim-script-nr": 637
}