{
	"author": "Adam Katz",
	"description": "Drop-in replacement for vimdiff and gvimdiff featuring automatic CVS diff",
	"homepage": "http://www.vim.org/scripts/script.php?script_id=2751",
	"name": "vimdiffvcs",
	"vim-script-nr": 2751
}