{
	"repository": {
		"file-name": "ingo-library-1.007.vmb.gz",
		"type": "archive",
		"unpack-sequence": [
			"gz",
			"vmb"
		],
		"url": "http://www.vim.org/scripts/download_script.php?src_id=20306"
	},
	"version": "1.007"
}