{
	"author": "Peter Wilson",
	"description": "A plugin to hide the menubar when the window shrinks.",
	"homepage": "http://www.vim.org/scripts/script.php?script_id=1058",
	"name": "Menu_Autohide",
	"vim-script-nr": 1058
}