{
	"author": "Rob Hoelz",
	"description": "Syntax highlighting for ASP.NET C# files",
	"homepage": "http://www.vim.org/scripts/script.php?script_id=1762",
	"name": "aspnetcs",
	"vim-script-nr": 1762
}