{
	"repository": {
		"file-name": "VimOrganizer_0304.zip",
		"strip-components": 1,
		"type": "archive",
		"unpack-sequence": [
			"zip"
		],
		"url": "http://www.vim.org/scripts/download_script.php?src_id=16810"
	},
	"version": "0.304"
}