{
	"repository": {
		"file-name": "AsNeeded.vim.gz",
		"type": "file",
		"unpack-sequence": [
			"gz"
		],
		"url": "http://www.vim.org/scripts/download_script.php?src_id=4423",
		"vim-directory": "plugin"
	},
	"version": "9"
}