{
	"author": "Michael Henry",
	"description": "Add header guards to C/C++ header files",
	"homepage": "http://www.vim.org/scripts/script.php?script_id=2021",
	"name": "headerguard",
	"vim-script-nr": 2021
}