{
	"author": "Mattes Groeger",
	"description": "bookmark and annotate lines of code",
	"homepage": "http://www.vim.org/scripts/script.php?script_id=4893",
	"name": "vim-bookmarks",
	"vim-script-nr": 4893
}