{
	"repository": {
		"file-name": "vimpluginloader-1.1.4.tar.gz",
		"type": "archive",
		"unpack-sequence": [
			"gz",
			"tar"
		],
		"url": "http://www.vim.org/scripts/download_script.php?src_id=13808"
	},
	"version": "1.1.4"
}