{
	"repository": {
		"file-name": "vim-clojure-highlight.tar.gz",
		"type": "archive",
		"unpack-sequence": [
			"gz",
			"tar"
		],
		"url": "http://www.vim.org/scripts/download_script.php?src_id=21321"
	},
	"version": "1"
}