{
	"author": "\u7530 \u751f",
	"description": "basic syntax highlight for lyric file (.lrc)",
	"homepage": "http://www.vim.org/scripts/script.php?script_id=3845",
	"name": "lrc",
	"vim-script-nr": 3845
}