{
	"repository": {
		"file-name": "vim_faq-12.vba",
		"type": "archive",
		"unpack-sequence": [
			"vmb"
		],
		"url": "http://www.vim.org/scripts/download_script.php?src_id=14128"
	},
	"version": "12"
}