{
	"author": "Niels Madan",
	"description": "execute any fragment of code directly from vim",
	"homepage": "http://www.vim.org/scripts/script.php?script_id=4492",
	"name": "mercury",
	"vim-script-nr": 4492
}