{
	"author": "Michael Le\u00dfnau",
	"description": "dark 256 color scheme inspired by railscasts",
	"homepage": "http://www.vim.org/scripts/script.php?script_id=4643",
	"name": "mlessnau_dark",
	"vim-script-nr": 4643
}