{
	"author": "fremff ff",
	"description": "Enhanced version of CSS syntax highlighting script for vim, supports for CSS3",
	"homepage": "http://www.vim.org/scripts/script.php?script_id=4089",
	"name": "css3_mod",
	"vim-script-nr": 4089
}