{
	"author": "Jeremy Cantrell",
	"description": "Simple snippet storage and retrieval separated by filetype.",
	"homepage": "http://www.vim.org/scripts/script.php?script_id=2152",
	"name": "snippets",
	"vim-script-nr": 2152
}