{
	"author": "michael lear",
	"description": "Vimake is a programming aid written in C++ for Linux",
	"homepage": "http://www.vim.org/scripts/script.php?script_id=3024",
	"name": "vimake",
	"vim-script-nr": 3024
}