{
	"repository": {
		"file-name": "vim-workspace-1.3.0.tar.gz",
		"strip-components": 1,
		"type": "archive",
		"unpack-sequence": [
			"gz",
			"tar"
		],
		"url": "http://www.vim.org/scripts/download_script.php?src_id=24846"
	},
	"version": "1.3.0"
}