{
	"author": "Maciej Ma\u0142ecki",
	"description": "File type detect plugin for vim which detects node.js shebang",
	"homepage": "http://www.vim.org/scripts/script.php?script_id=3798",
	"name": "node.js",
	"vim-script-nr": 3798
}