{
	"repository": {
		"file-name": "SpaceIdentHighlighter.vim",
		"type": "file",
		"url": "http://www.vim.org/scripts/download_script.php?src_id=22841",
		"vim-directory": "ftplugin"
	},
	"version": "1.0"
}