{
	"repository": {
		"file-name": "restart.zip",
		"type": "archive",
		"unpack-sequence": [
			"zip"
		],
		"url": "http://www.vim.org/scripts/download_script.php?src_id=14386"
	},
	"version": "0.0.4"
}