{
	"author": "Douglas Augusto",
	"description": "Allows to quickly return to the original position after a jump on the line",
	"homepage": "http://www.vim.org/scripts/script.php?script_id=3391",
	"name": "line-based_jump_memory",
	"vim-script-nr": 3391
}