{
	"repository": {
		"file-name": "R-MacVim_v1.0.4.zip",
		"strip-components": 1,
		"type": "archive",
		"unpack-sequence": [
			"zip"
		],
		"url": "http://www.vim.org/scripts/download_script.php?src_id=18898"
	},
	"version": "1.0.4"
}