{
	"author": "Matt Petty",
	"description": "The most magnetic color scheme, guaranteed. (256 color)",
	"homepage": "http://www.vim.org/scripts/script.php?script_id=3226",
	"name": "lodestone",
	"vim-script-nr": 3226
}