{
	"author": "Ingo Karkat",
	"description": "Replace lines with the contents of a register, keeping the original indent.",
	"homepage": "http://www.vim.org/scripts/script.php?script_id=5046",
	"name": "ReplaceWithSameIndentRegister",
	"vim-script-nr": 5046
}