{
	"repository": {
		"file-name": "narrow_region.vba",
		"type": "archive",
		"unpack-sequence": [
			"vmb"
		],
		"url": "http://www.vim.org/scripts/download_script.php?src_id=7757"
	},
	"version": "v1.0"
}