{
	"author": "qiming zhao",
	"description": "Run command in vim with current buffer and see the result side-by-side",
	"homepage": "http://www.vim.org/scripts/script.php?script_id=5296",
	"name": "vim-run",
	"vim-script-nr": 5296
}