{
	"author": "Yuheng Xie",
	"description": "complete command-line (: / etc.) from the current file",
	"homepage": "http://www.vim.org/scripts/script.php?script_id=2222",
	"name": "CmdlineComplete",
	"vim-script-nr": 2222
}