{
	"author": "Jai Tkker",
	"description": "Vimplate template system for vim 7.0 (supports C/C++/Cpp, Perl, make, LaTeX)",
	"homepage": "http://www.vim.org/scripts/script.php?script_id=1808",
	"name": "Vimplate_Enhanced",
	"vim-script-nr": 1808
}