{
	"repository": {
		"file-name": "AutomaticTexPlugin_9.3.5.vba",
		"type": "archive",
		"unpack-sequence": [
			"vmb"
		],
		"url": "http://www.vim.org/scripts/download_script.php?src_id=15503"
	},
	"version": "9.3.5"
}