{
	"author": "German Frigerio",
	"description": "This plugin fix spaces between = { } in your *.rb file before save it automat",
	"homepage": "http://www.vim.org/scripts/script.php?script_id=4022",
	"name": "SpaceBetween",
	"vim-script-nr": 4022
}