{
	"repository": {
		"file-name": "nerdtree-fetch.vim-1.3.tar.gz",
		"strip-components": 1,
		"type": "archive",
		"unpack-sequence": [
			"gz",
			"tar"
		],
		"url": "http://www.vim.org/scripts/download_script.php?src_id=22363"
	},
	"version": "1.3"
}