{
	"author": "Luke Ng",
	"description": "Improve paragraph motion ",
	"homepage": "http://www.vim.org/scripts/script.php?script_id=3952",
	"name": "Improved_paragraph_motion",
	"vim-script-nr": 3952
}