{
	"author": "A. Astonfe",
	"description": "Scilab syntax highlighting (Windows)",
	"homepage": "http://www.vim.org/scripts/script.php?script_id=5191",
	"name": "scilab%5191",
	"vim-script-nr": 5191
}