{
	"repository": {
		"file-name": "pt_2005.06.vim.tgz",
		"type": "archive",
		"unpack-sequence": [
			"gz",
			"tar"
		],
		"url": "http://www.vim.org/scripts/download_script.php?src_id=5927"
	},
	"version": "2005.06"
}