{
	"author": "Andre Pang",
	"description": "Overload the <Tab> key to either insert a tab, or indent the current line",
	"homepage": "http://www.vim.org/scripts/script.php?script_id=299",
	"name": "TabIndent",
	"vim-script-nr": 299
}