{
	"author": "Yichao Zhou",
	"description": "A plugin for automatically restoring file's cursor position and folding",
	"homepage": "http://www.vim.org/scripts/script.php?script_id=4021",
	"name": "restore_view",
	"vim-script-nr": 4021
}