{
	"author": "Mohammed Badran",
	"description": "A 'Bundles' menu for Vim (like TextMate)",
	"homepage": "http://www.vim.org/scripts/script.php?script_id=3455",
	"name": "Headlights",
	"vim-script-nr": 3455
}