{
	"repository": {
		"file-name": "vim-love-docs.zip",
		"type": "archive",
		"unpack-sequence": [
			"zip"
		],
		"url": "http://www.vim.org/scripts/download_script.php?src_id=25640"
	},
	"version": "0.6.0"
}