{
	"author": "Tomasz Wyderka",
	"description": "A plugin for browsing source code at functions level.",
	"homepage": "http://www.vim.org/scripts/script.php?script_id=4498",
	"name": "Code_Upstairs",
	"vim-script-nr": 4498
}