{
	"repository": {
		"file-name": "reload.zip",
		"type": "archive",
		"unpack-sequence": [
			"zip"
		],
		"url": "http://www.vim.org/scripts/download_script.php?src_id=19875"
	},
	"version": "0.6.9"
}