{
	"repository": {
		"file-name": "surround.zip",
		"type": "archive",
		"unpack-sequence": [
			"zip"
		],
		"url": "http://www.vim.org/scripts/download_script.php?src_id=6411"
	},
	"version": "1.18"
}