{
	"author": "Lorance Stinson",
	"description": "Update the 'Last Changed' line in a file",
	"homepage": "http://www.vim.org/scripts/script.php?script_id=3921",
	"name": "TagmaLast",
	"vim-script-nr": 3921
}