{
	"repository": {
		"file-name": "vimgrep.zip",
		"type": "archive",
		"unpack-sequence": [
			"zip"
		],
		"url": "http://www.vim.org/scripts/download_script.php?src_id=3407"
	},
	"version": "3.2"
}