{
	"author": "Jan Christoph Ebersbach",
	"description": "Load plugins individually - cut down start-up time.",
	"homepage": "http://www.vim.org/scripts/script.php?script_id=3809",
	"name": "ipi",
	"vim-script-nr": 3809
}