{
	"author": "Stephen Hobbs",
	"description": "SystemVerilog syntax highlighting",
	"homepage": "http://www.vim.org/scripts/script.php?script_id=1573",
	"name": "systemverilog",
	"vim-script-nr": 1573
}