{
	"author": "Jim Eberle",
	"description": "AppleScript to launch vim w/in Terminal (Mac OS X)",
	"homepage": "http://www.vim.org/scripts/script.php?script_id=1738",
	"name": "RunVim.applescript",
	"vim-script-nr": 1738
}