{
	"repository": {
		"file-name": "tail-2.2.vba",
		"type": "archive",
		"unpack-sequence": [
			"vmb"
		],
		"url": "http://www.vim.org/scripts/download_script.php?src_id=6567"
	},
	"version": "2.2"
}