{
	"repository": {
		"file-name": "vim-asterisk-0.9.3.zip",
		"strip-components": 1,
		"type": "archive",
		"unpack-sequence": [
			"zip"
		],
		"url": "http://www.vim.org/scripts/download_script.php?src_id=22681"
	},
	"version": "0.9.3"
}