{
	"repository": {
		"file-name": "txtbrowser-1.3.2.zip",
		"type": "archive",
		"unpack-sequence": [
			"zip"
		],
		"url": "http://www.vim.org/scripts/download_script.php?src_id=13309"
	},
	"version": "1.3.2"
}