{
	"repository": {
		"file-name": "vim-markdownfootnotes-1.0.0.zip",
		"type": "archive",
		"unpack-sequence": [
			"zip"
		],
		"url": "http://www.vim.org/scripts/download_script.php?src_id=16517"
	},
	"version": "1.0"
}