{
	"author": "Alexey Radkov",
	"description": "Project aware incremental tags manager",
	"homepage": "http://www.vim.org/scripts/script.php?script_id=4253",
	"name": "TagManager",
	"vim-script-nr": 4253
}