{
	"author": "Szymon Wrozynski",
	"description": "Maximizes and restores the current window in Vim.",
	"homepage": "http://www.vim.org/scripts/script.php?script_id=4376",
	"name": "vim-maximizer",
	"vim-script-nr": 4376
}