{
	"repository": {
		"file-name": "tcommand.vba",
		"type": "archive",
		"unpack-sequence": [
			"vmb"
		],
		"url": "http://www.vim.org/scripts/download_script.php?src_id=17409"
	},
	"version": "0.03"
}