{
	"author": "Luc Hermitte",
	"description": "Search files through the paths lists, and execute any command on them",
	"homepage": "http://www.vim.org/scripts/script.php?script_id=229",
	"name": "search-in-runtime",
	"vim-script-nr": 229
}