{
	"repository": {
		"file-name": "auto_update_cscope_ctags_database.tar.gz",
		"strip-components": 1,
		"type": "archive",
		"unpack-sequence": [
			"gz",
			"tar"
		],
		"url": "http://www.vim.org/scripts/download_script.php?src_id=25488"
	},
	"version": "v3.0.1"
}