{
	"author": "Alberto Miorin",
	"description": "Global markers like bookmarks",
	"homepage": "http://www.vim.org/scripts/script.php?script_id=4539",
	"name": "bookmarks%4539",
	"vim-script-nr": 4539
}