{
	"author": "John Louis del Rosario",
	"description": "Dark and cool color scheme",
	"homepage": "http://www.vim.org/scripts/script.php?script_id=3159",
	"name": "ekini_dark_colorscheme",
	"vim-script-nr": 3159
}