{
	"repository": {
		"file-name": "cvim.zip",
		"type": "archive",
		"unpack-sequence": [
			"zip"
		],
		"url": "http://www.vim.org/scripts/download_script.php?src_id=16506"
	},
	"version": "5.15.1"
}