{
	"repository": {
		"file-name": "vim-git-branch-info.zip",
		"type": "archive",
		"unpack-sequence": [
			"zip"
		],
		"url": "http://www.vim.org/scripts/download_script.php?src_id=10711"
	},
	"version": "0.1.3"
}