{
	"author": "Mikolaj Machowski",
	"description": "PHP Collection contains: compiler, ftplugin, script for K key, dicts",
	"homepage": "http://www.vim.org/scripts/script.php?script_id=326",
	"name": "PHPcollection",
	"vim-script-nr": 326
}