{
	"author": "Fox Donut",
	"description": "Light background color scheme with earthy colors.",
	"homepage": "http://www.vim.org/scripts/script.php?script_id=4514",
	"name": "forest",
	"vim-script-nr": 4514
}