{
	"author": "Marc Weber",
	"description": "run adobe fcsh Flex compiler shell in background decreasing compilation times",
	"homepage": "http://www.vim.org/scripts/script.php?script_id=2933",
	"name": "vim-addon-fcsh",
	"vim-script-nr": 2933
}