{
	"repository": {
		"file-name": "vim-online-thesaurus.tar.gz",
		"strip-components": 1,
		"type": "archive",
		"unpack-sequence": [
			"gz",
			"tar"
		],
		"url": "http://www.vim.org/scripts/download_script.php?src_id=23198"
	},
	"version": "0.2.2"
}