{
	"author": "Caglar Toklu",
	"description": "According to the file extension of a FORTRAN source file, a valid length is set.",
	"homepage": "http://www.vim.org/scripts/script.php?script_id=2868",
	"name": "fortran_line_length",
	"vim-script-nr": 2868
}