{
	"repository": {
		"file-name": "ragtag.zip",
		"type": "archive",
		"unpack-sequence": [
			"zip"
		],
		"url": "http://www.vim.org/scripts/download_script.php?src_id=12338"
	},
	"version": "2.0"
}