{
	"author": "Vitor Appolinario",
	"description": "parse a FIX protocol message into xml",
	"homepage": "http://www.vim.org/scripts/script.php?script_id=5115",
	"name": "vim-fixprotocol",
	"vim-script-nr": 5115
}