{
	"repository": {
		"file-name": "vimlomni-vim-0.14.tar.gz",
		"type": "archive",
		"unpack-sequence": [
			"gz",
			"tar"
		],
		"url": "http://www.vim.org/scripts/download_script.php?src_id=12045"
	},
	"version": "0.14"
}