{
	"author": "Marko Mahni\u010d",
	"description": "A scheme that adds interwiki linking to the script UTL ",
	"homepage": "http://www.vim.org/scripts/script.php?script_id=2997",
	"name": "utlx_interwiki",
	"vim-script-nr": 2997
}