{
	"repository": {
		"file-name": "vim-cmdline-insertdatetime.zip",
		"strip-components": 1,
		"type": "archive",
		"unpack-sequence": [
			"zip"
		],
		"url": "http://www.vim.org/scripts/download_script.php?src_id=15718"
	},
	"version": "0.1"
}