{
	"repository": {
		"file-name": "myprojects.vba",
		"type": "archive",
		"unpack-sequence": [
			"vmb"
		],
		"url": "http://www.vim.org/scripts/download_script.php?src_id=10303"
	},
	"version": "0.0.60"
}