{
	"repository": {
		"file-name": "conque_1.1.vba",
		"type": "archive",
		"unpack-sequence": [
			"vmb"
		],
		"url": "http://www.vim.org/scripts/download_script.php?src_id=13071"
	},
	"version": "1.1"
}