{
	"author": "Ren\u00e9 K\u00f6cher",
	"description": "Nice dark colorscheme for term/cterm only",
	"homepage": "http://www.vim.org/scripts/script.php?script_id=1326",
	"name": "Impact",
	"vim-script-nr": 1326
}