{
	"author": "Fritz Mehner",
	"description": "Generate Doxygen comments from user defined templates",
	"homepage": "http://www.vim.org/scripts/script.php?script_id=1955",
	"name": "doxygen-support",
	"vim-script-nr": 1955
}