{
	"author": "Maxime Boisvert",
	"description": "simple toggle comment script",
	"homepage": "http://www.vim.org/scripts/script.php?script_id=2844",
	"name": "simple_comment",
	"vim-script-nr": 2844
}