{
	"repository": {
		"file-name": "dbext_2200.zip",
		"type": "archive",
		"unpack-sequence": [
			"zip"
		],
		"url": "http://www.vim.org/scripts/download_script.php?src_id=23512"
	},
	"version": "22.00"
}