{
	"repository": {
		"file-name": "ctrlp-funky-703b7f.zip",
		"type": "archive",
		"unpack-sequence": [
			"zip"
		],
		"url": "http://www.vim.org/scripts/download_script.php?src_id=20189"
	},
	"version": "0.4.0"
}