{
	"repository": {
		"file-name": "vim-addon-sbt-0.1.1.2.zip",
		"type": "archive",
		"unpack-sequence": [
			"zip"
		],
		"url": "http://www.vim.org/scripts/download_script.php?src_id=13409"
	},
	"version": "0.1.1.2"
}