{
	"author": "Greg Berenfield",
	"description": "Automagic folding of \u03bb clojure code based on 'foldwords'",
	"homepage": "http://www.vim.org/scripts/script.php?script_id=4412",
	"name": "cljfold",
	"vim-script-nr": 4412
}