{
	"repository": {
		"file-name": "vis.vba.gz",
		"type": "archive",
		"unpack-sequence": [
			"gz",
			"vmb"
		],
		"url": "http://www.vim.org/scripts/download_script.php?src_id=5847"
	},
	"version": "19"
}