{
	"repository": {
		"file-name": "LanguageTool.zip",
		"type": "archive",
		"unpack-sequence": [
			"zip"
		],
		"url": "http://www.vim.org/scripts/download_script.php?src_id=18652"
	},
	"version": "1.22"
}