{
	"author": "omi taku",
	"description": "read the contents of many files at one time.",
	"homepage": "http://www.vim.org/scripts/script.php?script_id=2789",
	"name": "rargs",
	"vim-script-nr": 2789
}