{
	"repository": {
		"file-name": "fixkey-0.3.7.zip",
		"type": "archive",
		"unpack-sequence": [
			"zip"
		],
		"url": "http://www.vim.org/scripts/download_script.php?src_id=24094"
	},
	"version": "0.3.7"
}