{
	"repository": {
		"file-name": "sal.tar.bz2",
		"type": "archive",
		"unpack-sequence": [
			"bz2",
			"tar"
		],
		"url": "http://www.vim.org/scripts/download_script.php?src_id=6511"
	},
	"version": "0.1"
}