{
	"repository": {
		"file-name": "woc-1.0.tar.bz2",
		"strip-components": 1,
		"type": "archive",
		"unpack-sequence": [
			"bz2",
			"tar"
		],
		"url": "http://www.vim.org/scripts/download_script.php?src_id=6637"
	},
	"version": "1.0"
}