{
	"author": "Dan Sharp",
	"description": "Programming language for the UniVerse Database",
	"homepage": "http://www.vim.org/scripts/script.php?script_id=2143",
	"name": "unibasic",
	"vim-script-nr": 2143
}