{
	"repository": {
		"file-name": "linepower.vim-1.0.0.zip",
		"type": "archive",
		"unpack-sequence": [
			"zip"
		],
		"url": "http://www.vim.org/scripts/download_script.php?src_id=20056"
	},
	"version": "1.0.0"
}