{
	"repository": {
		"file-name": "smartput_0.6.zip",
		"type": "archive",
		"unpack-sequence": [
			"zip"
		],
		"url": "http://www.vim.org/scripts/download_script.php?src_id=8062"
	},
	"version": "0.6"
}