{
	"author": "Mohammad Satrio",
	"description": "Light color scheme designed for Ruby programming",
	"homepage": "http://www.vim.org/scripts/script.php?script_id=3398",
	"name": "fokus",
	"vim-script-nr": 3398
}