{
	"repository": {
		"file-name": "vim-coffee-script-v001.zip",
		"type": "archive",
		"unpack-sequence": [
			"zip"
		],
		"url": "http://www.vim.org/scripts/download_script.php?src_id=16701"
	},
	"version": "v001"
}