{
	"repository": {
		"file-name": "PrevInsertComplete-1.10.vmb.gz",
		"type": "archive",
		"unpack-sequence": [
			"gz",
			"vmb"
		],
		"url": "http://www.vim.org/scripts/download_script.php?src_id=18808"
	},
	"version": "1.10"
}