{
	"repository": {
		"file-name": "ywvim.vim_1.21.zip",
		"type": "archive",
		"unpack-sequence": [
			"zip"
		],
		"url": "http://www.vim.org/scripts/download_script.php?src_id=18177"
	},
	"version": "1.21"
}