{
	"author": "sathiyamoorthy subramanian",
	"description": "replace the numbers with the equivalent text to it",
	"homepage": "http://www.vim.org/scripts/script.php?script_id=2560",
	"name": "numbertotext",
	"vim-script-nr": 2560
}