{
	"repository": {
		"file-name": "lua_omni_rev0.13.zip",
		"type": "archive",
		"unpack-sequence": [
			"zip"
		],
		"url": "http://www.vim.org/scripts/download_script.php?src_id=15289"
	},
	"version": "0.13"
}