{
	"repository": {
		"file-name": "ezcomment.zip",
		"type": "archive",
		"unpack-sequence": [
			"zip"
		],
		"url": "http://www.vim.org/scripts/download_script.php?src_id=8850"
	},
	"version": "0.1.3"
}