{
	"repository": {
		"file-name": "vimgrep_vim.zip",
		"strip-components": 1,
		"type": "archive",
		"unpack-sequence": [
			"zip"
		],
		"url": "http://www.vim.org/scripts/download_script.php?src_id=3330"
	},
	"version": "3.0 b"
}