{
	"author": "Clayton Parker",
	"description": "A plugin to reveal extended URLs from the buildout cache",
	"homepage": "http://www.vim.org/scripts/script.php?script_id=3290",
	"name": "RevealExtends",
	"vim-script-nr": 3290
}