{
	"author": "Wenzhi Liang",
	"description": "A vim script for managing subversion sandbox.",
	"homepage": "http://www.vim.org/scripts/script.php?script_id=2468",
	"name": "sandbox",
	"vim-script-nr": 2468
}