{
	"repository": {
		"file-name": "translit3-2.2.10.tar.gz",
		"type": "archive",
		"unpack-sequence": [
			"gz",
			"tar"
		],
		"url": "http://www.vim.org/scripts/download_script.php?src_id=14566"
	},
	"version": "2.2.10"
}