{
	"author": "Paul Contreras",
	"description": "Does a 'timer' for vimscript like there is on other languages",
	"homepage": "http://www.vim.org/scripts/script.php?script_id=3244",
	"name": "Timer_routine",
	"vim-script-nr": 3244
}