{
	"repository": {
		"file-name": "SingleCompile-2.10.1-beta.zip",
		"type": "archive",
		"unpack-sequence": [
			"zip"
		],
		"url": "http://www.vim.org/scripts/download_script.php?src_id=17552"
	},
	"version": "2.10.1beta"
}