{
	"author": "wyw acczy",
	"description": "xsltassistant.vim helps you write the XSLT file",
	"homepage": "http://www.vim.org/scripts/script.php?script_id=2547",
	"name": "xsltassistant",
	"vim-script-nr": 2547
}