{
	"author": "Philippe Fremy",
	"description": "Always set the correct indentation for the file you are editing.",
	"homepage": "http://www.vim.org/scripts/script.php?script_id=513",
	"name": "Indent_Finder",
	"vim-script-nr": 513
}