{
	"author": "Sunil Shukla",
	"description": "Defines internal signals in VHDL",
	"homepage": "http://www.vim.org/scripts/script.php?script_id=2875",
	"name": "signal_dec_VHDL",
	"vim-script-nr": 2875
}