{
	"author": "Szymon Kielbasa",
	"description": "Higlights the matching brace or surrounding ones.",
	"homepage": "http://www.vim.org/scripts/script.php?script_id=757",
	"name": "showpairs-mutated",
	"vim-script-nr": 757
}