{
	"author": "Tom Bast",
	"description": "This will createGet/set methods automatically for a Java class.",
	"homepage": "http://www.vim.org/scripts/script.php?script_id=436",
	"name": "javaGetSet",
	"vim-script-nr": 436
}