{
	"repository": {
		"file-name": "vimpluginloader-1.3.10.tar.gz",
		"type": "archive",
		"unpack-sequence": [
			"gz",
			"tar"
		],
		"url": "http://www.vim.org/scripts/download_script.php?src_id=14676"
	},
	"version": "1.3.10"
}