{
	"repository": {
		"file-name": "outlookvim_v9.zip",
		"type": "archive",
		"unpack-sequence": [
			"zip"
		],
		"url": "http://www.vim.org/scripts/download_script.php?src_id=20106"
	},
	"version": "9.0"
}