{
	"repository": {
		"file-name": "syntastic.zip",
		"type": "archive",
		"unpack-sequence": [
			"zip"
		],
		"url": "http://www.vim.org/scripts/download_script.php?src_id=17007"
	},
	"version": "2.0.0"
}