{
	"repository": {
		"file-name": "vimlib_svn_support_installer_sourceme.zip",
		"type": "archive",
		"unpack-sequence": [
			"zip"
		],
		"url": "http://www.vim.org/scripts/download_script.php?src_id=7955"
	},
	"version": "0.1"
}