{
	"repository": {
		"file-name": "natsamrat_english-1347288.zip",
		"type": "archive",
		"unpack-sequence": [
			"zip"
		],
		"url": "http://www.vim.org/scripts/download_script.php?src_id=24509"
	},
	"version": "1"
}