{
	"repository": {
		"file-name": "sonictemplate-vim.zip",
		"type": "archive",
		"unpack-sequence": [
			"zip"
		],
		"url": "http://www.vim.org/scripts/download_script.php?src_id=16781"
	},
	"version": "0.04"
}