{
	"repository": {
		"file-name": "vim-infobasic-V1.0.zip",
		"strip-components": 1,
		"type": "archive",
		"unpack-sequence": [
			"zip"
		],
		"url": "http://www.vim.org/scripts/download_script.php?src_id=6822"
	},
	"version": "1.0"
}