{
	"repository": {
		"file-name": "vim-less.zip",
		"strip-components": 1,
		"type": "archive",
		"unpack-sequence": [
			"zip"
		],
		"url": "http://www.vim.org/scripts/download_script.php?src_id=22128"
	},
	"version": "1.32"
}