{
	"author": "Sanae Kotiya",
	"description": "An RGSS Editor Plugin ",
	"homepage": "http://www.vim.org/scripts/script.php?script_id=4367",
	"name": "RGSS_Script_Editor_Plugin",
	"vim-script-nr": 4367
}