{
	"repository": {
		"file-name": "outlookvim_v2.zip",
		"type": "archive",
		"unpack-sequence": [
			"zip"
		],
		"url": "http://www.vim.org/scripts/download_script.php?src_id=12965"
	},
	"version": "2.0"
}