{
	"author": "Srinath Avadhanula",
	"description": "LaTeX macros in Vim (which emulate operator-pending mode operations)",
	"homepage": "http://www.vim.org/scripts/script.php?script_id=93",
	"name": "tex",
	"vim-script-nr": 93
}