{
	"repository": {
		"file-name": "ctrlsf.tar.gz",
		"type": "archive",
		"unpack-sequence": [
			"gz",
			"tar"
		],
		"url": "http://www.vim.org/scripts/download_script.php?src_id=23337"
	},
	"version": "1.00"
}