{
	"author": "fly vim",
	"description": "An integrated code development environment (incl. Cscope, Web Search, Man Pages)",
	"homepage": "http://www.vim.org/scripts/script.php?script_id=2502",
	"name": "fly",
	"vim-script-nr": 2502
}