{
	"author": "M K",
	"description": "Klip that queries vim.sf.net for recent scripts",
	"homepage": "http://www.vim.org/scripts/script.php?script_id=1226",
	"name": "Vim_klip_for_Serence_Klipfolio_Windows",
	"vim-script-nr": 1226
}