{
	"author": "Martin Kopischke",
	"description": "Make Vim persist editing state without fuss",
	"homepage": "http://www.vim.org/scripts/script.php?script_id=5099",
	"name": "vim-stay",
	"vim-script-nr": 5099
}