{
	"author": "Leandro Penz",
	"description": "A better indentation for HTML and embedded javascript",
	"homepage": "http://www.vim.org/scripts/script.php?script_id=1830",
	"name": "html_improved_indentation",
	"vim-script-nr": 1830
}