{
	"repository": {
		"file-name": "gedim.zip",
		"strip-components": 1,
		"type": "archive",
		"unpack-sequence": [
			"zip"
		],
		"url": "http://www.vim.org/scripts/download_script.php?src_id=13562"
	},
	"version": "1.1b"
}