{
	"author": "Ignacio Nunez",
	"description": "Easily Highlight Lines with Marks, and Add/Remove Marks",
	"homepage": "http://www.vim.org/scripts/script.php?script_id=3394",
	"name": "BOOKMARKS_Mark__Highlight_Full_Lines",
	"vim-script-nr": 3394
}