{
	"repository": {
		"file-name": "vimplate-0.2.2.tar.gz",
		"type": "archive",
		"unpack-sequence": [
			"gz",
			"tar"
		],
		"url": "http://www.vim.org/scripts/download_script.php?src_id=4438"
	},
	"version": "0.2.2"
}