{
	"author": "Christian Brabandt",
	"description": "Use Signs for different things",
	"homepage": "http://www.vim.org/scripts/script.php?script_id=3965",
	"name": "DynamicSigns",
	"vim-script-nr": 3965
}