{
	"repository": {
		"file-name": "TclShell-Vim.zip",
		"strip-components": 1,
		"type": "archive",
		"unpack-sequence": [
			"zip"
		],
		"url": "http://www.vim.org/scripts/download_script.php?src_id=17607"
	},
	"version": "0.7"
}