{
	"repository": {
		"file-name": "VIlisp.2.2.tgz",
		"strip-components": 1,
		"type": "archive",
		"unpack-sequence": [
			"gz",
			"tar"
		],
		"url": "http://www.vim.org/scripts/download_script.php?src_id=4532"
	},
	"version": "2.2"
}