{
	"repository": {
		"file-name": "js-mask.tar.gz",
		"type": "archive",
		"unpack-sequence": [
			"gz",
			"tar"
		],
		"url": "http://www.vim.org/scripts/download_script.php?src_id=14255"
	},
	"version": "0.0"
}