{
	"repository": {
		"file-name": "vimwiki_0_9_2a_vba.zip",
		"type": "archive",
		"unpack-sequence": [
			"zip",
			"vmb"
		],
		"url": "http://www.vim.org/scripts/download_script.php?src_id=10518"
	},
	"version": "0.9.2a"
}