{
	"author": "Niklas Lindstr\u00f6m",
	"description": "A tool for toning vim highlight colors",
	"homepage": "http://www.vim.org/scripts/script.php?script_id=3417",
	"name": "toner",
	"vim-script-nr": 3417
}