{
	"author": "Matthew Hawkins",
	"description": "A blue scheme, inverse of navajo",
	"homepage": "http://www.vim.org/scripts/script.php?script_id=271",
	"name": "navajo-night",
	"vim-script-nr": 271
}