{
	"repository": {
		"file-name": "aurum-1.5.7.tar.gz",
		"type": "archive",
		"unpack-sequence": [
			"gz",
			"tar"
		],
		"url": "http://www.vim.org/scripts/download_script.php?src_id=18750"
	},
	"version": "1.5.7"
}