{
	"author": "Derek Wyatt",
	"description": "Allows switching between companion source files (like a.vim)",
	"homepage": "http://www.vim.org/scripts/script.php?script_id=2590",
	"name": "FSwitch",
	"vim-script-nr": 2590
}