{
	"author": "Lex Leonard",
	"description": "Automated indentation for Verilog and SystemVerilog",
	"homepage": "http://www.vim.org/scripts/script.php?script_id=5040",
	"name": "verilog%5040",
	"vim-script-nr": 5040
}