{
	"author": "Phong Cao",
	"description": "Looking up meaning of words inside Vim using SDCV dictionary",
	"homepage": "http://www.vim.org/scripts/script.php?script_id=5117",
	"name": "vim-stardict",
	"vim-script-nr": 5117
}