{
	"author": "Jim Persson",
	"description": "LBNF (Labeled Backus Naur Form) syntax file",
	"homepage": "http://www.vim.org/scripts/script.php?script_id=1470",
	"name": "lbnf",
	"vim-script-nr": 1470
}