{
	"repository": {
		"file-name": "cake.zip",
		"strip-components": 1,
		"type": "archive",
		"unpack-sequence": [
			"zip"
		],
		"url": "http://www.vim.org/scripts/download_script.php?src_id=17804"
	},
	"version": "2.4.1"
}