{
	"repository": {
		"file-name": "notes.zip",
		"type": "archive",
		"unpack-sequence": [
			"zip"
		],
		"url": "http://www.vim.org/scripts/download_script.php?src_id=20140"
	},
	"version": "0.20.1"
}