{
	"repository": {
		"file-name": "ToggleComment.tar",
		"strip-components": 1,
		"type": "archive",
		"unpack-sequence": [
			"tar"
		],
		"url": "http://www.vim.org/scripts/download_script.php?src_id=2917"
	},
	"version": "1.6"
}