{
	"repository": {
		"file-name": "UltraBlog.vba",
		"type": "archive",
		"unpack-sequence": [
			"vmb"
		],
		"url": "http://www.vim.org/scripts/download_script.php?src_id=16133"
	},
	"version": "3.0.0"
}