{
	"author": "Tuomas Kasmra",
	"description": "Light and simple color scheme for Gvim",
	"homepage": "http://www.vim.org/scripts/script.php?script_id=1841",
	"name": "nicotine",
	"vim-script-nr": 1841
}