{
	"author": "Ondrej Chaloupka",
	"description": "Saving syntax match rules to be loaded next time",
	"homepage": "http://www.vim.org/scripts/script.php?script_id=5376",
	"name": "Syntax_match",
	"vim-script-nr": 5376
}