{
	"repository": {
		"file-name": "ctrlp-py-matcher-0.9b.zip",
		"strip-components": 1,
		"type": "archive",
		"unpack-sequence": [
			"zip"
		],
		"url": "http://www.vim.org/scripts/download_script.php?src_id=21571"
	},
	"version": "0.9b"
}