{
	"repository": {
		"file-name": "incsearch.vim-0.9.8.zip",
		"strip-components": 1,
		"type": "archive",
		"unpack-sequence": [
			"zip"
		],
		"url": "http://www.vim.org/scripts/download_script.php?src_id=22564"
	},
	"version": "0.9.8"
}