{
	"repository": {
		"file-name": "vim-ipython2012-01-23.zip",
		"type": "archive",
		"unpack-sequence": [
			"zip"
		],
		"url": "http://www.vim.org/scripts/download_script.php?src_id=17309"
	},
	"version": "20120123"
}