{
	"author": "forneus forneus",
	"description": "Grey background and soft, eye pleasing foreground colours",
	"homepage": "http://www.vim.org/scripts/script.php?script_id=2757",
	"name": "forneus",
	"vim-script-nr": 2757
}