{
	"repository": {
		"file-name": "dirdiff.zip",
		"type": "archive",
		"unpack-sequence": [
			"zip"
		],
		"url": "http://www.vim.org/scripts/download_script.php?src_id=22871"
	},
	"version": "1.1.5"
}