{
	"repository": {
		"file-name": "Colorizer-0.7.vmb",
		"type": "archive",
		"unpack-sequence": [
			"vmb"
		],
		"url": "http://www.vim.org/scripts/download_script.php?src_id=18312"
	},
	"version": "7"
}