{
	"author": "adam rutkowski",
	"description": "Generic erlang templates for vim",
	"homepage": "http://www.vim.org/scripts/script.php?script_id=3503",
	"name": "vim-erlang-skeleteons",
	"vim-script-nr": 3503
}