{
	"repository": {
		"file-name": "vim-srcery-0.7.0.zip",
		"strip-components": 1,
		"type": "archive",
		"unpack-sequence": [
			"zip"
		],
		"url": "http://www.vim.org/scripts/download_script.php?src_id=24476"
	},
	"version": "0.7.0"
}