{
	"repository": {
		"file-name": "simpleHighlighting.vimrc",
		"type": "file",
		"url": "http://www.vim.org/scripts/download_script.php?src_id=23481",
		"vim-directory": "plugin"
	},
	"version": "1.2.1"
}