{
	"repository": {
		"file-name": "atomcoder.zip",
		"type": "archive",
		"unpack-sequence": [
			"zip"
		],
		"url": "http://www.vim.org/scripts/download_script.php?src_id=25332"
	},
	"version": "3"
}