{
	"repository": {
		"file-name": "jasoncodes-ctrlp-modified.vim-v0.1.0-0-g9650669.zip",
		"type": "archive",
		"unpack-sequence": [
			"zip"
		],
		"url": "http://www.vim.org/scripts/download_script.php?src_id=18880"
	},
	"version": "0.1.0"
}