{
	"author": "Roberto Bonvallet",
	"description": "Syntax file for LPL (Linear/Logical Programming Language)",
	"homepage": "http://www.vim.org/scripts/script.php?script_id=1123",
	"name": "lpl",
	"vim-script-nr": 1123
}