{
	"author": "Geir Isene",
	"description": "Makes for easier writing and viewing of HP-25 calculator program files",
	"homepage": "http://www.vim.org/scripts/script.php?script_id=5523",
	"name": "VIM_syntax_highlighting__filetype_plugi",
	"vim-script-nr": 5523
}