{
	"repository": {
		"file-name": "php.zip",
		"strip-components": 1,
		"type": "archive",
		"unpack-sequence": [
			"zip"
		],
		"url": "http://www.vim.org/scripts/download_script.php?src_id=977"
	},
	"version": "0.1.1"
}