{
	"repository": {
		"file-name": "SingleCompile-2.10.0beta.zip",
		"type": "archive",
		"unpack-sequence": [
			"zip"
		],
		"url": "http://www.vim.org/scripts/download_script.php?src_id=17306"
	},
	"version": "2.10.0beta"
}