{
	"repository": {
		"file-name": "filestyle-1.1.0.zip",
		"strip-components": 1,
		"type": "archive",
		"unpack-sequence": [
			"zip"
		],
		"url": "http://www.vim.org/scripts/download_script.php?src_id=23383"
	},
	"version": "1.1.0"
}