{
	"repository": {
		"file-name": "dbext_700.zip",
		"type": "archive",
		"unpack-sequence": [
			"zip"
		],
		"url": "http://www.vim.org/scripts/download_script.php?src_id=9261"
	},
	"version": "7.00"
}