{
	"author": "Shawn Axsom",
	"description": "Tan/blue GUI color scheme modified from Desert, akin to OceanDeep, & Zenburn",
	"homepage": "http://www.vim.org/scripts/script.php?script_id=1404",
	"name": "desertedocean%1404",
	"vim-script-nr": 1404
}