{
	"author": "Caglar Toklu",
	"description": "Switches colorschemes according to the file type.",
	"homepage": "http://www.vim.org/scripts/script.php?script_id=5028",
	"name": "ftcolor",
	"vim-script-nr": 5028
}