{
	"repository": {
		"file-name": "Colorizer-0.8.vmb",
		"type": "archive",
		"unpack-sequence": [
			"vmb"
		],
		"url": "http://www.vim.org/scripts/download_script.php?src_id=19185"
	},
	"version": "8"
}