{
	"author": "Guten Ye",
	"description": "a project helper for ruby gem/libraray development",
	"homepage": "http://www.vim.org/scripts/script.php?script_id=3523",
	"name": "gem",
	"vim-script-nr": 3523
}