{
	"author": "Dmitry Frank",
	"description": "Quickly close another window and keep working in current window",
	"homepage": "http://www.vim.org/scripts/script.php?script_id=3573",
	"name": "quit-another-window",
	"vim-script-nr": 3573
}