{
	"author": "Michael Scherer",
	"description": "Show diff  when commiting changes on a subversion repository",
	"homepage": "http://www.vim.org/scripts/script.php?script_id=978",
	"name": "svn-diff",
	"vim-script-nr": 978
}