{
	"author": "Andreas Lynge",
	"description": "GDB command line interface and terminal emulator in (G)Vim.",
	"homepage": "http://www.vim.org/scripts/script.php?script_id=4582",
	"name": "Conque_GDB",
	"vim-script-nr": 4582
}