{
	"repository": {
		"file-name": "vim-rspec-0.0.6.zip",
		"type": "archive",
		"unpack-sequence": [
			"gz",
			"tar"
		],
		"url": "http://www.vim.org/scripts/download_script.php?src_id=14141"
	},
	"version": "0.0.6"
}