{
	"repository": {
		"file-name": "vimuiex.zip",
		"type": "archive",
		"unpack-sequence": [
			"zip"
		],
		"url": "http://www.vim.org/scripts/download_script.php?src_id=13761"
	},
	"version": "0.7.0"
}