{
	"author": "Tye Zdrojewski",
	"description": "Collection of low-contrast color schemes",
	"homepage": "http://www.vim.org/scripts/script.php?script_id=1448",
	"name": "Low-Contrast_Color_Schemes",
	"vim-script-nr": 1448
}