{
	"author": "Ammar Khaku",
	"description": "Allows showing and removing unused imports in a java file.",
	"homepage": "http://www.vim.org/scripts/script.php?script_id=5408",
	"name": "vim-java-ununsed-imports",
	"vim-script-nr": 5408
}