{
	"author": "Jason Dusek",
	"description": "Updated with `for` in standalone deriving.",
	"homepage": "http://www.vim.org/scripts/script.php?script_id=2641",
	"name": "haskell%2641",
	"vim-script-nr": 2641
}