{
	"author": "Gage Peterson",
	"description": "a small edit of a beautifully picked color scheme",
	"homepage": "http://www.vim.org/scripts/script.php?script_id=2758",
	"name": "Mustang2",
	"vim-script-nr": 2758
}