{
	"author": "Michael Neumann",
	"description": "Create colorized HTML from source code",
	"homepage": "http://www.vim.org/scripts/script.php?script_id=646",
	"name": "colorize%646",
	"vim-script-nr": 646
}