{
	"repository": {
		"file-name": "vide-1.2.1.tar.gz",
		"strip-components": 1,
		"type": "archive",
		"unpack-sequence": [
			"gz",
			"tar"
		],
		"url": "http://www.vim.org/scripts/download_script.php?src_id=21666"
	},
	"version": "1.2.1"
}