{
	"repository": {
		"file-name": "vim-task-org-git-20110704-1.src.tar.gz",
		"strip-components": 1,
		"type": "archive",
		"unpack-sequence": [
			"gz",
			"tar"
		],
		"url": "http://www.vim.org/scripts/download_script.php?src_id=16029"
	},
	"version": "0.3.1"
}