{
	"repository": {
		"file-name": "visualrepeat-1.20.vmb.gz",
		"type": "archive",
		"unpack-sequence": [
			"gz",
			"vmb"
		],
		"url": "http://www.vim.org/scripts/download_script.php?src_id=21043"
	},
	"version": "1.20"
}