{
	"repository": {
		"file-name": "vimdb.tar",
		"strip-components": 1,
		"type": "archive",
		"unpack-sequence": [
			"tar"
		],
		"url": "http://www.vim.org/scripts/download_script.php?src_id=8986"
	},
	"version": "0.4"
}