{
	"repository": {
		"file-name": "indexer-3.17.tar.gz",
		"strip-components": 1,
		"type": "archive",
		"unpack-sequence": [
			"gz",
			"tar"
		],
		"url": "http://www.vim.org/scripts/download_script.php?src_id=16324"
	},
	"version": "3.17"
}