{
	"repository": {
		"file-name": "tetsuo13-Vim-log4j-0.1-0-gc88aeac.zip",
		"strip-components": 1,
		"type": "archive",
		"unpack-sequence": [
			"zip"
		],
		"url": "http://www.vim.org/scripts/download_script.php?src_id=18176"
	},
	"version": "0.1"
}