{
	"repository": {
		"file-name": "stwiki.zip",
		"type": "archive",
		"unpack-sequence": [
			"zip"
		],
		"url": "http://www.vim.org/scripts/download_script.php?src_id=8218"
	},
	"version": "0.31"
}