{
	"author": "Higor Eur\u00edpedes",
	"description": "A syntax file to the script files used in the Tikle tool",
	"homepage": "http://www.vim.org/scripts/script.php?script_id=2728",
	"name": "tkl",
	"vim-script-nr": 2728
}