{
	"author": "Edwin Pujols",
	"description": "A blue/gray theme with a colorful palette.",
	"homepage": "http://www.vim.org/scripts/script.php?script_id=4669",
	"name": "bluecloud",
	"vim-script-nr": 4669
}