{
	"author": "Tom Link",
	"description": "Check for syntax errors (r, javascript, php, ruby, tex ...)",
	"homepage": "http://www.vim.org/scripts/script.php?script_id=1431",
	"name": "checksyntax",
	"vim-script-nr": 1431
}