{
	"repository": {
		"file-name": "quickhigh.tgz",
		"type": "archive",
		"unpack-sequence": [
			"gz",
			"tar"
		],
		"url": "http://www.vim.org/scripts/download_script.php?src_id=440"
	},
	"version": "1.15"
}