{
	"repository": {
		"file-name": "visualrepeat-1.03.vmb.gz",
		"type": "archive",
		"unpack-sequence": [
			"gz",
			"vmb"
		],
		"url": "http://www.vim.org/scripts/download_script.php?src_id=19556"
	},
	"version": "1.03"
}