{
	"repository": {
		"file-name": "AutomaticTexPlugin_10.3.vmb",
		"type": "archive",
		"unpack-sequence": [
			"vmb"
		],
		"url": "http://www.vim.org/scripts/download_script.php?src_id=16375"
	},
	"version": "10.3"
}