{
	"author": "Michael Brown",
	"description": "A vim client for the Trac wiki and ticketing system",
	"homepage": "http://www.vim.org/scripts/script.php?script_id=2147",
	"name": "VimTrac",
	"vim-script-nr": 2147
}