{
	"repository": {
		"file-name": "partial.tar",
		"type": "archive",
		"unpack-sequence": [
			"tar"
		],
		"url": "http://www.vim.org/scripts/download_script.php?src_id=22828"
	},
	"version": "0.1.0"
}