{
	"author": "Srinath Avadhanula",
	"description": "implementation of mkview without requiring a view file",
	"homepage": "http://www.vim.org/scripts/script.php?script_id=220",
	"name": "mkview",
	"vim-script-nr": 220
}