{
	"repository": {
		"file-name": "npm.vim.zip",
		"type": "archive",
		"unpack-sequence": [
			"zip"
		],
		"url": "http://www.vim.org/scripts/download_script.php?src_id=23393"
	},
	"version": "0.1.3"
}