{
	"repository": {
		"file-name": "incsearch.vim-2.0.0.zip",
		"strip-components": 1,
		"type": "archive",
		"unpack-sequence": [
			"zip"
		],
		"url": "http://www.vim.org/scripts/download_script.php?src_id=23445"
	},
	"version": "v2.0.0"
}