{
	"author": "L\u00e9o Flaventin Hauchecorne",
	"description": "script to preview in live html, php and css edition",
	"homepage": "http://www.vim.org/scripts/script.php?script_id=4908",
	"name": "visualHtml",
	"vim-script-nr": 4908
}