{
	"repository": {
		"file-name": "vim-preview-0.4.zip",
		"type": "archive",
		"unpack-sequence": [
			"zip"
		],
		"url": "http://www.vim.org/scripts/download_script.php?src_id=14680"
	},
	"version": "0.4"
}