{
	"author": "martin mauchauff\u00e9e",
	"description": "Based on GoldED from Amiga. Using low contrast colors to avoid flicking effects.",
	"homepage": "http://www.vim.org/scripts/script.php?script_id=3444",
	"name": "golded",
	"vim-script-nr": 3444
}