{
	"repository": {
		"file-name": "vim-qf.zip",
		"type": "archive",
		"unpack-sequence": [
			"zip"
		],
		"url": "http://www.vim.org/scripts/download_script.php?src_id=24518"
	},
	"version": "0.0.9"
}