{
	"author": "Yosuke Kurami",
	"description": "highlights JavaScript's Template Strings in other FileType syntax rule",
	"homepage": "http://www.vim.org/scripts/script.php?script_id=5222",
	"name": "vim-js-pretty-template",
	"vim-script-nr": 5222
}