{
	"repository": {
		"file-name": "EnhancedDiff-0.3.vmb",
		"type": "archive",
		"unpack-sequence": [
			"vmb"
		],
		"url": "http://www.vim.org/scripts/download_script.php?src_id=22980"
	},
	"version": "3"
}