{
	"repository": {
		"file-name": "vim-gista-2.3.0.zip",
		"type": "archive",
		"unpack-sequence": [
			"zip"
		],
		"url": "http://www.vim.org/scripts/download_script.php?src_id=23947"
	},
	"version": "2.3.0"
}