{
	"author": "Bartek Ciszkowski",
	"description": "A simple script to send your buffer or selection to Dpaste.com and returns a url",
	"homepage": "http://www.vim.org/scripts/script.php?script_id=2519",
	"name": "Dpaste.com_Plugin",
	"vim-script-nr": 2519
}