{
	"repository": {
		"file-name": "patternjump-1.0.1.zip",
		"strip-components": 1,
		"type": "archive",
		"unpack-sequence": [
			"zip"
		],
		"url": "http://www.vim.org/scripts/download_script.php?src_id=21580"
	},
	"version": "1.0.1"
}