{
	"author": "Charles Campbell",
	"description": "Zoom in/out  of windows (toggle between one window and multi-window)",
	"homepage": "http://www.vim.org/scripts/script.php?script_id=508",
	"name": "ZoomWin",
	"vim-script-nr": 508
}