{
	"author": "Aliaksei Budavei",
	"description": "Measure the pace of typing (in Insert mode &c.)",
	"homepage": "http://www.vim.org/scripts/script.php?script_id=5472",
	"name": "pace",
	"vim-script-nr": 5472
}