{
	"author": "Taurus Olson",
	"description": "Light colorscheme with bright colors.",
	"homepage": "http://www.vim.org/scripts/script.php?script_id=2774",
	"name": "whitebox",
	"vim-script-nr": 2774
}