{
	"author": "Eugene Ciurana",
	"description": "paster.vim - A configurable Vim plugin for posting text to a public pastebin",
	"homepage": "http://www.vim.org/scripts/script.php?script_id=2602",
	"name": "paster",
	"vim-script-nr": 2602
}