{
	"repository": {
		"file-name": "markdown-1.2.0.vba.gz",
		"type": "archive",
		"unpack-sequence": [
			"gz",
			"vmb"
		],
		"url": "http://www.vim.org/scripts/download_script.php?src_id=14427"
	},
	"version": "1.2.0"
}