{
	"repository": {
		"file-name": "patchreview-1.0.4.zip",
		"type": "archive",
		"unpack-sequence": [
			"zip"
		],
		"url": "http://www.vim.org/scripts/download_script.php?src_id=18309"
	},
	"version": "1.0.4"
}