{
	"repository": {
		"file-name": "HowMuch.tar.gz",
		"type": "archive",
		"unpack-sequence": [
			"gz",
			"tar"
		],
		"url": "http://www.vim.org/scripts/download_script.php?src_id=21010"
	},
	"version": "1.0.0"
}