{
	"repository": {
		"file-name": "cpp_src.tar.bz2",
		"strip-components": 1,
		"type": "archive",
		"unpack-sequence": [
			"bz2",
			"tar"
		],
		"url": "http://www.vim.org/scripts/download_script.php?src_id=9178"
	},
	"version": "0.9"
}