{
	"repository": {
		"file-name": "vimgitlog-version_5.0.0.tar.gz",
		"strip-components": 1,
		"type": "archive",
		"unpack-sequence": [
			"gz",
			"tar"
		],
		"url": "http://www.vim.org/scripts/download_script.php?src_id=23260"
	},
	"version": "5.0.0"
}