{
	"repository": {
		"file-name": "todo.txt-vim.tgz",
		"strip-components": 1,
		"type": "archive",
		"unpack-sequence": [
			"gz",
			"tar"
		],
		"url": "http://www.vim.org/scripts/download_script.php?src_id=25559"
	},
	"version": "0.8.1"
}