{
	"author": "Brandon Borkholder",
	"description": "syntax file for the SAL modeling language",
	"homepage": "http://www.vim.org/scripts/script.php?script_id=1728",
	"name": "sal_syntax",
	"vim-script-nr": 1728
}