{
	"author": "Pete Johns",
	"description": "Selects the right 'makeprg' for your build system",
	"homepage": "http://www.vim.org/scripts/script.php?script_id=4278",
	"name": "Makeshift",
	"vim-script-nr": 4278
}