{
	"repository": {
		"file-name": "twitvim-0.4.2.vba",
		"type": "archive",
		"unpack-sequence": [
			"vmb"
		],
		"url": "http://www.vim.org/scripts/download_script.php?src_id=10989"
	},
	"version": "0.4.2"
}