{
	"repository": {
		"file-name": "nekthuth-vim_0.3.2.tar.gz",
		"type": "archive",
		"unpack-sequence": [
			"gz",
			"tar"
		],
		"url": "http://www.vim.org/scripts/download_script.php?src_id=10981"
	},
	"version": "0.3.2"
}