{
	"author": "Ted Pavlic",
	"description": "Sanitizes LaTeX error messages for Vim-LaTeX.",
	"homepage": "http://www.vim.org/scripts/script.php?script_id=2182",
	"name": "vimlatex",
	"vim-script-nr": 2182
}