{
	"author": "Peter Shangov",
	"description": "Perldoc with sytnax highlighting in vim",
	"homepage": "http://www.vim.org/scripts/script.php?script_id=2171",
	"name": "PERLDOC2",
	"vim-script-nr": 2171
}