{
	"repository": {
		"file-name": "GrepCommands-1.02.vmb.gz",
		"type": "archive",
		"unpack-sequence": [
			"gz",
			"vmb"
		],
		"url": "http://www.vim.org/scripts/download_script.php?src_id=24770"
	},
	"version": "1.02"
}