{
	"author": "Sergey Khorev",
	"description": "Ftplugin, syntax and supplemental plugin for Mercury compiler",
	"homepage": "http://www.vim.org/scripts/script.php?script_id=2920",
	"name": "Mercury_compiler_support",
	"vim-script-nr": 2920
}