{
	"author": "Don Mitchell",
	"description": "Dynamically set tags option by scanning directory structure",
	"homepage": "http://www.vim.org/scripts/script.php?script_id=1398",
	"name": "tagSetting",
	"vim-script-nr": 1398
}