{
	"repository": {
		"file-name": "maroloccio3-v0.1.0.png",
		"type": "file",
		"url": "http://www.vim.org/scripts/download_script.php?src_id=9704",
		"vim-directory": "other"
	},
	"version": "0.1.0"
}