{
	"author": "Alisue Lambda",
	"description": "A unite source for set phrases",
	"homepage": "http://www.vim.org/scripts/script.php?script_id=4975",
	"name": "unite-linephrase",
	"vim-script-nr": 4975
}