{
	"repository": {
		"file-name": "ab-prefix.xz",
		"type": "archive",
		"unpack-sequence": [
			"xz",
			"tar"
		],
		"url": "http://www.vim.org/scripts/download_script.php?src_id=22604"
	},
	"version": "1.0"
}