{
	"repository": {
		"file-name": "mjbrownie-django-template-textobjects-5ee23f9.zip",
		"strip-components": 1,
		"type": "archive",
		"unpack-sequence": [
			"zip"
		],
		"url": "http://www.vim.org/scripts/download_script.php?src_id=12597"
	},
	"version": "0.2.0+"
}