{
	"repository": {
		"file-name": "git-support.zip",
		"type": "archive",
		"unpack-sequence": [
			"zip"
		],
		"url": "http://www.vim.org/scripts/download_script.php?src_id=21252"
	},
	"version": "0.9.1"
}