{
	"author": "brian hefele",
	"description": "syntax definitions for dc (desktop calculator)",
	"homepage": "http://www.vim.org/scripts/script.php?script_id=3084",
	"name": "dc",
	"vim-script-nr": 3084
}