{
	"author": "Marc Weber",
	"description": "keep list of actions you can bind to shortcuts easily on demand",
	"homepage": "http://www.vim.org/scripts/script.php?script_id=2934",
	"name": "vim-addon-actions",
	"vim-script-nr": 2934
}