{
	"author": "Ingo Karkat",
	"description": "Generic functions to support custom insert mode completions. ",
	"homepage": "http://www.vim.org/scripts/script.php?script_id=3914",
	"name": "CompleteHelper",
	"vim-script-nr": 3914
}