{
	"repository": {
		"file-name": "vim-sql-workbench.tar.gz",
		"strip-components": 1,
		"type": "archive",
		"unpack-sequence": [
			"gz",
			"tar"
		],
		"url": "http://www.vim.org/scripts/download_script.php?src_id=24815"
	},
	"version": "6.3"
}