{
	"author": "Ingo Karkat",
	"description": "Keep comment prefix in column 1 when indenting. ",
	"homepage": "http://www.vim.org/scripts/script.php?script_id=2529",
	"name": "IndentCommentPrefix",
	"vim-script-nr": 2529
}