{
	"repository": {
		"file-name": "compiler-cygwin.tar.gz",
		"strip-components": 1,
		"type": "archive",
		"unpack-sequence": [
			"gz",
			"tar"
		],
		"url": "http://www.vim.org/scripts/download_script.php?src_id=3139"
	},
	"version": "20040616"
}