{
	"author": "Daniel Campoverde",
	"description": "Syntax and utility for the Haskell Yesod web framework",
	"homepage": "http://www.vim.org/scripts/script.php?script_id=5486",
	"name": "vim-yesod",
	"vim-script-nr": 5486
}