{
	"repository": {
		"file-name": "VimChatBot_v12b.zip",
		"type": "archive",
		"unpack-sequence": [
			"zip"
		],
		"url": "http://www.vim.org/scripts/download_script.php?src_id=18790"
	},
	"version": "1.2b"
}