{
	"author": "Paul Miller",
	"description": "a utility to build and use canned responses in mutt (and indirectly in vim)",
	"homepage": "http://www.vim.org/scripts/script.php?script_id=2718",
	"name": "mutt-canned",
	"vim-script-nr": 2718
}