{
	"author": "Jonathan Palardy",
	"description": "Create and use scratch buffers in useful ways",
	"homepage": "http://www.vim.org/scripts/script.php?script_id=2524",
	"name": "Scratch",
	"vim-script-nr": 2524
}