{
	"repository": {
		"file-name": "pamcrash_syntax_60.tgz",
		"type": "archive",
		"unpack-sequence": [
			"gz",
			"tar"
		],
		"url": "http://www.vim.org/scripts/download_script.php?src_id=24975"
	},
	"version": "6.0"
}