{
	"repository": {
		"file-name": "rainbow_parenthsis-4.0.vba",
		"type": "archive",
		"unpack-sequence": [
			"vmb"
		],
		"url": "http://www.vim.org/scripts/download_script.php?src_id=7770"
	},
	"version": "4.0"
}