{
	"repository": {
		"file-name": "darkdevel-1.1.2.zip",
		"strip-components": 1,
		"type": "archive",
		"unpack-sequence": [
			"zip"
		],
		"url": "http://www.vim.org/scripts/download_script.php?src_id=10291"
	},
	"version": "1.1.2"
}