{
	"repository": {
		"file-name": "tAssert.zip",
		"strip-components": 1,
		"type": "archive",
		"unpack-sequence": [
			"zip"
		],
		"url": "http://www.vim.org/scripts/download_script.php?src_id=6526"
	},
	"version": "0.2"
}