{
	"author": "Michael Brown",
	"description": "Extensible keyword swapper (turn yes to no, True to False and more)",
	"homepage": "http://www.vim.org/scripts/script.php?script_id=2294",
	"name": "SwapIt",
	"vim-script-nr": 2294
}