{
	"repository": {
		"file-name": "vimargumentchec-1.1.tar.gz",
		"type": "archive",
		"unpack-sequence": [
			"gz",
			"tar"
		],
		"url": "http://www.vim.org/scripts/download_script.php?src_id=14535"
	},
	"version": "1.1+"
}