{
	"author": "Xavier Deguillard",
	"description": "Use of Clang for completing C, C++, Objective-C and Objective-C++",
	"homepage": "http://www.vim.org/scripts/script.php?script_id=3302",
	"name": "clang_complete",
	"vim-script-nr": 3302
}