{
	"author": "Johann Giwer",
	"description": "Remote terminal support for vim thanks to python.  ",
	"homepage": "http://www.vim.org/scripts/script.php?script_id=2493",
	"name": "pty",
	"vim-script-nr": 2493
}