{
	"repository": {
		"file-name": "vim-prettier-0.1.3.zip",
		"strip-components": 1,
		"type": "archive",
		"unpack-sequence": [
			"zip"
		],
		"url": "http://www.vim.org/scripts/download_script.php?src_id=25594"
	},
	"version": "0.1.3"
}