{
	"author": "Marko Mahni\u010d",
	"description": "Some utility functions packed in a library",
	"homepage": "http://www.vim.org/scripts/script.php?script_id=3061",
	"name": "VxLib",
	"vim-script-nr": 3061
}