{
	"author": "Tim Pope",
	"description": "Configurable and extensible tab line and status line",
	"homepage": "http://www.vim.org/scripts/script.php?script_id=5199",
	"name": "flagship",
	"vim-script-nr": 5199
}