{
	"repository": {
		"file-name": "rubyjump.vim-0.9.1.zip",
		"strip-components": 1,
		"type": "archive",
		"unpack-sequence": [
			"zip"
		],
		"url": "http://www.vim.org/scripts/download_script.php?src_id=21879"
	},
	"version": "0.9.1"
}