{
	"author": "Aquila Deus",
	"description": "Syntax highlightening for VB.NET (Visual Basic .NET)",
	"homepage": "http://www.vim.org/scripts/script.php?script_id=1102",
	"name": "VB.NET_Syntax",
	"vim-script-nr": 1102
}