{
	"author": "Christian Aichinger",
	"description": "Updates a date stamp within a file whenever it is saved.",
	"homepage": "http://www.vim.org/scripts/script.php?script_id=1124",
	"name": "UpdateModDate",
	"vim-script-nr": 1124
}