{
	"author": "Rudra Banerjee",
	"description": "Dark vim color scheme inspired by Slate.",
	"homepage": "http://www.vim.org/scripts/script.php?script_id=4757",
	"name": "SlateDark",
	"vim-script-nr": 4757
}