{
	"author": "Marcin Sztolcman",
	"description": "ViBlip allows to use Blip! (polish microblogging service)",
	"homepage": "http://www.vim.org/scripts/script.php?script_id=2492",
	"name": "ViBlip",
	"vim-script-nr": 2492
}