{
	"author": "Pradeep Unde",
	"description": "Adds a SCCS menu in GVim to acces SCCS functions.",
	"homepage": "http://www.vim.org/scripts/script.php?script_id=43",
	"name": "sccs-menu",
	"vim-script-nr": 43
}