{
	"repository": {
		"file-name": "AfterColors.tar.gz",
		"type": "archive",
		"unpack-sequence": [
			"gz",
			"tar"
		],
		"url": "http://www.vim.org/scripts/download_script.php?src_id=6473"
	},
	"version": "1.2B"
}