{
	"author": "arno.  ",
	"description": "edit zip files recursively (zip files inside zip files)",
	"homepage": "http://www.vim.org/scripts/script.php?script_id=2206",
	"name": "runzip",
	"vim-script-nr": 2206
}