{
	"author": "Christian Habermann",
	"description": "Ease writing code by expanding statements.",
	"homepage": "http://www.vim.org/scripts/script.php?script_id=1695",
	"name": "StateExp",
	"vim-script-nr": 1695
}