{
	"repository": {
		"file-name": "VimPyServer.zip",
		"type": "archive",
		"unpack-sequence": [
			"zip"
		],
		"url": "http://www.vim.org/scripts/download_script.php?src_id=23057"
	},
	"version": "0.2.1"
}