{
	"repository": {
		"file-name": "iceberg.zip",
		"strip-components": 1,
		"type": "archive",
		"unpack-sequence": [
			"zip"
		],
		"url": "http://www.vim.org/scripts/download_script.php?src_id=21406"
	},
	"version": "0.3"
}