{
	"author": "Lorenz Wegener",
	"description": "syntax definitions for corewars cw-assembler",
	"homepage": "http://www.vim.org/scripts/script.php?script_id=1016",
	"name": "corewars",
	"vim-script-nr": 1016
}