{
	"repository": {
		"file-name": "vimgtd.zip",
		"strip-components": 1,
		"type": "archive",
		"unpack-sequence": [
			"zip"
		],
		"url": "http://www.vim.org/scripts/download_script.php?src_id=15982"
	},
	"version": "1.0"
}