{
	"repository": {
		"file-name": "vim-stylus.zip",
		"type": "archive",
		"unpack-sequence": [
			"zip"
		],
		"url": "http://www.vim.org/scripts/download_script.php?src_id=15555"
	},
	"version": "0.8.1"
}