{
	"author": "eric johnson",
	"description": "View your git log interactively in Vim.  Side by side diffs!",
	"homepage": "http://www.vim.org/scripts/script.php?script_id=4485",
	"name": "vim-git-log",
	"vim-script-nr": 4485
}