{
	"repository": {
		"file-name": "vim-lambdify.tar",
		"type": "archive",
		"unpack-sequence": [
			"tar"
		],
		"url": "http://www.vim.org/scripts/download_script.php?src_id=22449"
	},
	"version": "0.1"
}