{
	"repository": {
		"file-name": "feraltogglecommentify.vim",
		"type": "file",
		"url": "http://www.vim.org/scripts/download_script.php?src_id=2175",
		"vim-directory": "plugin"
	},
	"version": "1.56"
}