{
	"repository": {
		"file-name": "compiler-gfortran.zip",
		"type": "archive",
		"unpack-sequence": [
			"zip"
		],
		"url": "http://www.vim.org/scripts/download_script.php?src_id=15214"
	},
	"version": "0.1.2"
}