{
	"author": "Christian Habermann",
	"description": "Compile Visual Studio 6 projects and search in MSDN help files using VIM",
	"homepage": "http://www.vim.org/scripts/script.php?script_id=1513",
	"name": "VimVS6",
	"vim-script-nr": 1513
}