{
	"repository": {
		"file-name": "session.zip",
		"type": "archive",
		"unpack-sequence": [
			"zip"
		],
		"url": "http://www.vim.org/scripts/download_script.php?src_id=15740"
	},
	"version": "1.4.4"
}