{
	"repository": {
		"file-name": "python_tag_import.vim",
		"type": "file",
		"url": "http://www.vim.org/scripts/download_script.php?src_id=11353",
		"vim-directory": "ftplugin"
	},
	"version": "0.1.1"
}