{
	"repository": {
		"file-name": "vim-rest-console-2.4.0.tgz",
		"strip-components": 1,
		"type": "archive",
		"unpack-sequence": [
			"gz",
			"tar"
		],
		"url": "http://www.vim.org/scripts/download_script.php?src_id=24169"
	},
	"version": "2.4.0"
}