{
	"repository": {
		"file-name": "cream-capitalization.vim",
		"type": "file",
		"url": "http://www.vim.org/scripts/download_script.php?src_id=8195",
		"vim-directory": "plugin"
	},
	"version": "2.4"
}