{
	"repository": {
		"file-name": "DrawIt.tar.gz",
		"type": "archive",
		"unpack-sequence": [
			"gz",
			"tar"
		],
		"url": "http://www.vim.org/scripts/download_script.php?src_id=1764"
	},
	"version": "02242003"
}