{
	"author": "nicolaie george",
	"description": "let the time to rotate your colorschemes",
	"homepage": "http://www.vim.org/scripts/script.php?script_id=696",
	"name": "timecolor",
	"vim-script-nr": 696
}