{
	"author": "Jason Heddings",
	"description": "View the output of a build in progress.",
	"homepage": "http://www.vim.org/scripts/script.php?script_id=1391",
	"name": "BuildWin",
	"vim-script-nr": 1391
}