{
	"repository": {
		"file-name": "vdebug-1.2.tar.gz",
		"type": "archive",
		"unpack-sequence": [
			"tar"
		],
		"url": "http://www.vim.org/scripts/download_script.php?src_id=18749"
	},
	"version": "1.2"
}