{
	"repository": {
		"file-name": "vim-fuzzyfinder.zip",
		"type": "archive",
		"unpack-sequence": [
			"zip"
		],
		"url": "http://www.vim.org/scripts/download_script.php?src_id=11336"
	},
	"version": "3.1"
}