{
	"author": "jonathan hartley",
	"description": "Run Python unit tests asynchronously",
	"homepage": "http://www.vim.org/scripts/script.php?script_id=3281",
	"name": "run_python_tests",
	"vim-script-nr": 3281
}