{
	"repository": {
		"file-name": "easycolour_r1.0.0.zip",
		"type": "archive",
		"unpack-sequence": [
			"zip"
		],
		"url": "http://www.vim.org/scripts/download_script.php?src_id=17517"
	},
	"version": "r1.0.0"
}