{
	"author": "tyru  ",
	"description": "snake_case -> SnakeCase, CamelCase -> camel_case",
	"homepage": "http://www.vim.org/scripts/script.php?script_id=3046",
	"name": "operator-camelize",
	"vim-script-nr": 3046
}