{
	"author": "Benjamin Esham",
	"description": "Colorful text on a light gray background (GUI only)",
	"homepage": "http://www.vim.org/scripts/script.php?script_id=432",
	"name": "biogoo",
	"vim-script-nr": 432
}