{
	"author": "Brendan Molloy",
	"description": "A syntax highlighter for lexc and twolc files.",
	"homepage": "http://www.vim.org/scripts/script.php?script_id=3451",
	"name": "lexctwolc_Syntax_Highlighter",
	"vim-script-nr": 3451
}