{
	"author": "Patrick Meiser-Knosowski",
	"description": "Syntax, indent and more for Kuka industrial robots",
	"homepage": "http://www.vim.org/scripts/script.php?script_id=5344",
	"name": "KRL-Syntax",
	"vim-script-nr": 5344
}