{
	"author": "Neil Vice",
	"description": "Automates folding and unfolding C & C++ comments and code blocks.",
	"homepage": "http://www.vim.org/scripts/script.php?script_id=1145",
	"name": "C-fold",
	"vim-script-nr": 1145
}