{
	"repository": {
		"file-name": "spinner-vim-plugin.vba",
		"type": "archive",
		"unpack-sequence": [
			"vmb"
		],
		"url": "http://www.vim.org/scripts/download_script.php?src_id=11903"
	},
	"version": "1.0"
}