{
	"author": "Sudipta Ghorui",
	"description": "Increment or decrement the number which is under your cursor",
	"homepage": "http://www.vim.org/scripts/script.php?script_id=1882",
	"name": "Increment_and_Decrement_number",
	"vim-script-nr": 1882
}