{
	"author": "John Leimon",
	"description": "Semantic highlighting for C/C++ (v1.0 20140521)",
	"homepage": "http://www.vim.org/scripts/script.php?script_id=4945",
	"name": "SemanticHL",
	"vim-script-nr": 4945
}