{
	"repository": {
		"file-name": "auto_tag_gen_v0.00.08win32.7z",
		"type": "file",
		"url": "http://www.vim.org/scripts/download_script.php?src_id=24020",
		"vim-directory": "other"
	},
	"version": "0.00.08"
}