{
	"author": "Robert Kaltenthaler",
	"description": "A workbench for Oracle databases",
	"homepage": "http://www.vim.org/scripts/script.php?script_id=3254",
	"name": "ora-workbench",
	"vim-script-nr": 3254
}