{
	"author": "jean-christophe clavier",
	"description": "apply a vim command to the files of a directory tree and more (python required)",
	"homepage": "http://www.vim.org/scripts/script.php?script_id=798",
	"name": "Walk",
	"vim-script-nr": 798
}