{
	"author": "Andrew Radev",
	"description": "Perform an interactive diff on two blocks of text",
	"homepage": "http://www.vim.org/scripts/script.php?script_id=3745",
	"name": "linediff",
	"vim-script-nr": 3745
}