{
	"author": "Andy Wokula",
	"description": "allows definition of tiny modes for Normal mode",
	"homepage": "http://www.vim.org/scripts/script.php?script_id=2223",
	"name": "tinymode",
	"vim-script-nr": 2223
}