{
	"repository": {
		"file-name": "thesaurus_query.vim-version0_1_0.zip",
		"strip-components": 1,
		"type": "archive",
		"unpack-sequence": [
			"zip"
		],
		"url": "http://www.vim.org/scripts/download_script.php?src_id=24074"
	},
	"version": "0.1.0-c"
}