{
	"author": "Marius Groleo",
	"description": "Plugin to add tab bar ( derived from miniBufExplorer).",
	"homepage": "http://www.vim.org/scripts/script.php?script_id=1338",
	"name": "TabBar",
	"vim-script-nr": 1338
}