{
	"repository": {
		"file-name": "code_complete.vba",
		"type": "archive",
		"unpack-sequence": [
			"vmb"
		],
		"url": "http://www.vim.org/scripts/download_script.php?src_id=9601"
	},
	"version": "2.8.1"
}