{
	"author": "Maciej Delmanowski",
	"description": "Use VMS style versioned backup with centralized backup directory",
	"homepage": "http://www.vim.org/scripts/script.php?script_id=2476",
	"name": "cbackup",
	"vim-script-nr": 2476
}