{
	"author": "Marc Weber",
	"description": "manage and update plugins easily",
	"homepage": "http://www.vim.org/scripts/script.php?script_id=2905",
	"name": "vim-addon-manager",
	"vim-script-nr": 2905
}