{
	"repository": {
		"file-name": "vxfold.zip",
		"type": "archive",
		"unpack-sequence": [
			"zip"
		],
		"url": "http://www.vim.org/scripts/download_script.php?src_id=14826"
	},
	"version": "0.2"
}