{
	"repository": {
		"file-name": "UnconditionalPaste-3.00.vmb.gz",
		"type": "archive",
		"unpack-sequence": [
			"gz",
			"vmb"
		],
		"url": "http://www.vim.org/scripts/download_script.php?src_id=21659"
	},
	"version": "3.00"
}