{
	"author": "Amal Khailtash",
	"description": "Syntax highlighting for Xilinx Vivado TCL scripts",
	"homepage": "http://www.vim.org/scripts/script.php?script_id=4525",
	"name": "vim-xtcl-syntax",
	"vim-script-nr": 4525
}