{
	"repository": {
		"file-name": "vimwiki_0_5_2.zip",
		"type": "archive",
		"unpack-sequence": [
			"zip",
			"vmb"
		],
		"url": "http://www.vim.org/scripts/download_script.php?src_id=9841"
	},
	"version": "0.5.2"
}