{
	"repository": {
		"file-name": "ywvim.vim_1.4.tar.bz2",
		"type": "archive",
		"unpack-sequence": [
			"bz2",
			"tar"
		],
		"url": "http://www.vim.org/scripts/download_script.php?src_id=10752"
	},
	"version": "1.4"
}