{
	"repository": {
		"file-name": "taghighlight_r2.1.4.zip",
		"type": "archive",
		"unpack-sequence": [
			"zip"
		],
		"url": "http://www.vim.org/scripts/download_script.php?src_id=17066"
	},
	"version": "2.1.4"
}