{
	"author": "mario st-gelais",
	"description": "C highlighting for Phidgets USB sensing and control interfaces",
	"homepage": "http://www.vim.org/scripts/script.php?script_id=3866",
	"name": "phidgets",
	"vim-script-nr": 3866
}