{
	"author": "Stacey Abshire",
	"description": "Provides ASP.NET syntax highlighting.",
	"homepage": "http://www.vim.org/scripts/script.php?script_id=951",
	"name": "aspnet%951",
	"vim-script-nr": 951
}