{
	"repository": {
		"file-name": "vimwiki-2-1.vba.gz",
		"type": "archive",
		"unpack-sequence": [
			"gz",
			"vmb"
		],
		"url": "http://www.vim.org/scripts/download_script.php?src_id=19815"
	},
	"version": "2.1"
}