{
	"author": "vijayandra singh",
	"description": "Cut and Paste vertical",
	"homepage": "http://www.vim.org/scripts/script.php?script_id=2396",
	"name": "Cutting_and_pasting_txt_file_in_middle",
	"vim-script-nr": 2396
}