{
	"author": "Fj\u00f6lnir \u00c1sgeirsson",
	"description": "syntax highlighting for tranquil",
	"homepage": "http://www.vim.org/scripts/script.php?script_id=4318",
	"name": "tranquil",
	"vim-script-nr": 4318
}