{
	"author": "Kyosuke Takayama",
	"description": "A frontend to the namazu command-line client.(not mknmz)",
	"homepage": "http://www.vim.org/scripts/script.php?script_id=1200",
	"name": "namazu",
	"vim-script-nr": 1200
}