{
	"repository": {
		"file-name": "vim-fish.zip",
		"type": "archive",
		"unpack-sequence": [
			"zip"
		],
		"url": "http://www.vim.org/scripts/download_script.php?src_id=20242"
	},
	"version": "4"
}