{
	"author": "Henning Hasemann",
	"description": "Color theme with dark blue background for coding",
	"homepage": "http://www.vim.org/scripts/script.php?script_id=3139",
	"name": "phd",
	"vim-script-nr": 3139
}