{
	"repository": {
		"file-name": "scalpel-0.2.zip",
		"type": "archive",
		"unpack-sequence": [
			"zip"
		],
		"url": "http://www.vim.org/scripts/download_script.php?src_id=24324"
	},
	"version": "0.2"
}