{
	"repository": {
		"file-name": "filtering2.zip",
		"type": "archive",
		"unpack-sequence": [
			"zip"
		],
		"url": "http://www.vim.org/scripts/download_script.php?src_id=16239"
	},
	"version": "2.0alpha2"
}