{
	"repository": {
		"file-name": "doctabs.zip",
		"type": "archive",
		"unpack-sequence": [
			"zip"
		],
		"url": "http://www.vim.org/scripts/download_script.php?src_id=25032"
	},
	"version": "0.7"
}