{
	"author": "S\u00f6ren Andersen",
	"description": "Generate HTML or XHTML+CSS from a Vim buffer using the syntax-hili colorscheme",
	"homepage": "http://www.vim.org/scripts/script.php?script_id=330",
	"name": "code2html",
	"vim-script-nr": 330
}