{
	"author": "Jochen Baier",
	"description": "Use CR-TAB-DEL-SPACE-TAB in Normal Mode like in Insert Mode",
	"homepage": "http://www.vim.org/scripts/script.php?script_id=1579",
	"name": "cr-bs-del-space-tab",
	"vim-script-nr": 1579
}