{
	"repository": {
		"file-name": "debugger.tar.gz",
		"type": "archive",
		"unpack-sequence": [
			"gz",
			"tar"
		],
		"url": "http://www.vim.org/scripts/download_script.php?src_id=11560"
	},
	"version": "0.12"
}