{
	"author": "Dan Janus",
	"description": "OceanBlack color scheme for a 256 color terminal.",
	"homepage": "http://www.vim.org/scripts/script.php?script_id=1844",
	"name": "OceanBlack256",
	"vim-script-nr": 1844
}