{
	"author": "Patrick Meiser-Knosowski",
	"description": "Dark (grey and yellow on black) color scheme based on on torte.vim and motus.vim",
	"homepage": "http://www.vim.org/scripts/script.php?script_id=5390",
	"name": "tortus",
	"vim-script-nr": 5390
}