{
	"author": "Jesse Hallett",
	"description": "Check JavaScript files for errors with JSLint",
	"homepage": "http://www.vim.org/scripts/script.php?script_id=2729",
	"name": "jslint",
	"vim-script-nr": 2729
}