{
	"author": "Christian Br\u00fcssow",
	"description": "Syntax colouring for Basser Lout",
	"homepage": "http://www.vim.org/scripts/script.php?script_id=3926",
	"name": "lout",
	"vim-script-nr": 3926
}