{
	"repository": {
		"file-name": "SrchRplHiGrp_v50.zip",
		"type": "archive",
		"unpack-sequence": [
			"zip"
		],
		"url": "http://www.vim.org/scripts/download_script.php?src_id=14668"
	},
	"version": "5.0"
}