{
	"author": "Fran\u00e7ois Pinard",
	"description": "Tools for handling Allout (outline) files",
	"homepage": "http://www.vim.org/scripts/script.php?script_id=871",
	"name": "allout",
	"vim-script-nr": 871
}