{
	"author": "George V. Reilly",
	"description": "Syntax highlighting and an ftplugin for PBwiki",
	"homepage": "http://www.vim.org/scripts/script.php?script_id=2138",
	"name": "PBwiki_syntax_highlighting",
	"vim-script-nr": 2138
}