{
	"author": "Niels Bo Andersen",
	"description": "A VIM plugin for managing configurations of other plugins.",
	"homepage": "http://www.vim.org/scripts/script.php?script_id=5136",
	"name": "plugconf",
	"vim-script-nr": 5136
}