{
	"repository": {
		"file-name": "nekthuth-vim_0.4.0.tar.gz",
		"type": "archive",
		"unpack-sequence": [
			"gz",
			"tar"
		],
		"url": "http://www.vim.org/scripts/download_script.php?src_id=21621"
	},
	"version": "0.4.0"
}