{
	"repository": {
		"file-name": "perl-completion-vim-1.6.tar.gz",
		"type": "archive",
		"unpack-sequence": [
			"gz",
			"tar"
		],
		"url": "http://www.vim.org/scripts/download_script.php?src_id=11812"
	},
	"version": "1.6"
}