{
	"repository": {
		"file-name": "coq_IDE-0.97b.tgz",
		"type": "archive",
		"unpack-sequence": [
			"gz",
			"tar"
		],
		"url": "http://www.vim.org/scripts/download_script.php?src_id=20750"
	},
	"version": "0.97b"
}