{
	"author": "Tom Link",
	"description": "List, edit, and run/execute registers/clipboards",
	"homepage": "http://www.vim.org/scripts/script.php?script_id=2017",
	"name": "tregisters",
	"vim-script-nr": 2017
}