{
	"author": "Petr Mach",
	"description": "this is result stupid bug in upload script",
	"homepage": "http://www.vim.org/scripts/script.php?script_id=764",
	"name": "dont_click",
	"vim-script-nr": 764
}