{
	"repository": {
		"file-name": "vimen_0_00_0002a.zip",
		"type": "archive",
		"unpack-sequence": [
			"zip"
		],
		"url": "http://www.vim.org/scripts/download_script.php?src_id=4133"
	},
	"version": "0.00.0002a"
}