{
	"repository": {
		"file-name": "changingColor.vba",
		"type": "archive",
		"unpack-sequence": [
			"vmb"
		],
		"url": "http://www.vim.org/scripts/download_script.php?src_id=22667"
	},
	"version": "19.3"
}