{
	"repository": {
		"file-name": "vim-fakeclip-0.2.6.zip",
		"strip-components": 1,
		"type": "archive",
		"unpack-sequence": [
			"zip"
		],
		"url": "http://www.vim.org/scripts/download_script.php?src_id=11739"
	},
	"version": "0.2.6"
}