{
	"repository": {
		"file-name": "VimLite-515.tar.bz2",
		"strip-components": 1,
		"type": "archive",
		"unpack-sequence": [
			"bz2",
			"tar"
		],
		"url": "http://www.vim.org/scripts/download_script.php?src_id=17082"
	},
	"version": "0.8.8.1"
}