{
	"author": "qiming zhao",
	"description": "A git wrapper focus on simplily and usability",
	"homepage": "http://www.vim.org/scripts/script.php?script_id=5304",
	"name": "easygit",
	"vim-script-nr": 5304
}