{
	"author": "Evgeny Podjachev",
	"description": "This script allows to switch between source and header files.",
	"homepage": "http://www.vim.org/scripts/script.php?script_id=742",
	"name": "SwapHeader",
	"vim-script-nr": 742
}