{
	"author": "Kana Natsuno",
	"description": "Text objects for indented blocks of lines",
	"homepage": "http://www.vim.org/scripts/script.php?script_id=2484",
	"name": "textobj-indent",
	"vim-script-nr": 2484
}