{
	"repository": {
		"file-name": "autorepeat.vim.zip",
		"type": "archive",
		"unpack-sequence": [
			"zip"
		],
		"url": "http://www.vim.org/scripts/download_script.php?src_id=22365"
	},
	"version": "0.0.1-1"
}