{
	"author": "Gustaf Sjoberg",
	"description": "A muted vim color scheme for 8- and 256-color terminals, as well as gui vim",
	"homepage": "http://www.vim.org/scripts/script.php?script_id=3534",
	"name": "strange",
	"vim-script-nr": 3534
}