{
	"author": "Marcin Szamotulski",
	"description": "persistent very magic option",
	"homepage": "http://www.vim.org/scripts/script.php?script_id=4849",
	"name": "Enchanted_Vim",
	"vim-script-nr": 4849
}