{
	"author": "Eduardo Sorribas",
	"description": "A plugin for closing duplicate tab pages.",
	"homepage": "http://www.vim.org/scripts/script.php?script_id=4015",
	"name": "close-duplicate-tabs",
	"vim-script-nr": 4015
}