{
	"author": "joey twiddle",
	"description": "Briefly flash the status line of the focused window whenever you change window.",
	"homepage": "http://www.vim.org/scripts/script.php?script_id=4289",
	"name": "blinking_statusline",
	"vim-script-nr": 4289
}