{
	"repository": {
		"file-name": "vim-minscm.zip",
		"type": "archive",
		"unpack-sequence": [
			"zip"
		],
		"url": "http://www.vim.org/scripts/download_script.php?src_id=11367"
	},
	"version": "0.7.2"
}