{
	"repository": {
		"file-name": "swapit-master.zip",
		"strip-components": 1,
		"type": "archive",
		"unpack-sequence": [
			"zip"
		],
		"url": "http://www.vim.org/scripts/download_script.php?src_id=20893"
	},
	"version": "0.3.2"
}