{
	"repository": {
		"file-name": "colorv.vim+galaxy.vim.zip",
		"strip-components": 1,
		"type": "archive",
		"unpack-sequence": [
			"zip"
		],
		"url": "http://www.vim.org/scripts/download_script.php?src_id=17934"
	},
	"version": "2.0.1"
}