{
	"author": "Zefei Xuan",
	"description": "A low contrast, low distraction, dark 256 color scheme",
	"homepage": "http://www.vim.org/scripts/script.php?script_id=3890",
	"name": "simple-dark",
	"vim-script-nr": 3890
}