{
	"repository": {
		"file-name": "sunset-3.0.0.vmb",
		"type": "archive",
		"unpack-sequence": [
			"vmb"
		],
		"url": "http://www.vim.org/scripts/download_script.php?src_id=22933"
	},
	"version": "3.0.0"
}