{
	"repository": {
		"file-name": "vim-bookmarks-1.1.0.zip",
		"type": "archive",
		"unpack-sequence": [
			"zip"
		],
		"url": "http://www.vim.org/scripts/download_script.php?src_id=21857"
	},
	"version": "1.1.0"
}