{
	"author": "Jack Hawk",
	"description": "Syntax file for LDraw (LEGO Draw) models files.",
	"homepage": "http://www.vim.org/scripts/script.php?script_id=366",
	"name": "ldraw",
	"vim-script-nr": 366
}