{
	"repository": {
		"file-name": "vim-coffee-script-f4d2fbf.zip",
		"type": "archive",
		"unpack-sequence": [
			"zip"
		],
		"url": "http://www.vim.org/scripts/download_script.php?src_id=16124"
	},
	"version": "f4d2fbf"
}