{
	"repository": {
		"file-name": "dbext_600.zip",
		"type": "archive",
		"unpack-sequence": [
			"zip"
		],
		"url": "http://www.vim.org/scripts/download_script.php?src_id=8615"
	},
	"version": "6.00"
}