{
	"author": "Alexey Radkov",
	"description": "Right alignment of string under cursor",
	"homepage": "http://www.vim.org/scripts/script.php?script_id=3728",
	"name": "right_align",
	"vim-script-nr": 3728
}