{
	"repository": {
		"file-name": "tsuquyomi-0.3.1.zip",
		"strip-components": 1,
		"type": "archive",
		"unpack-sequence": [
			"zip"
		],
		"url": "http://www.vim.org/scripts/download_script.php?src_id=23163"
	},
	"version": "0.3.1"
}