{
	"repository": {
		"file-name": "proj.tbz",
		"strip-components": 1,
		"type": "archive",
		"unpack-sequence": [
			"bz2",
			"tar"
		],
		"url": "http://www.vim.org/scripts/download_script.php?src_id=12122"
	},
	"version": "1.2"
}