{
	"repository": {
		"file-name": "autohide_v4.zip",
		"strip-components": 1,
		"type": "archive",
		"unpack-sequence": [
			"zip"
		],
		"url": "http://www.vim.org/scripts/download_script.php?src_id=20758"
	},
	"version": "4"
}