{
	"author": "pal nart",
	"description": "The most convenient way navigating opened buffers, incremental search by name",
	"homepage": "http://www.vim.org/scripts/script.php?script_id=2317",
	"name": "QuickName",
	"vim-script-nr": 2317
}