{
	"repository": {
		"file-name": "twitvim-0.5.0.vba",
		"type": "archive",
		"unpack-sequence": [
			"vmb"
		],
		"url": "http://www.vim.org/scripts/download_script.php?src_id=13204"
	},
	"version": "0.5.0"
}