{
	"author": "Eivind Uggedal",
	"description": "Color scheme for use with the 88 color terminals (rxvt-unicode)",
	"homepage": "http://www.vim.org/scripts/script.php?script_id=2211",
	"name": "seoul",
	"vim-script-nr": 2211
}