{
	"repository": {
		"file-name": "vim-gista-2.2.0.zip",
		"type": "archive",
		"unpack-sequence": [
			"tar"
		],
		"url": "http://www.vim.org/scripts/download_script.php?src_id=23934"
	},
	"version": "2.2.0"
}