{
	"repository": {
		"file-name": "histwin-0.22.vba",
		"type": "archive",
		"unpack-sequence": [
			"vmb"
		],
		"url": "http://www.vim.org/scripts/download_script.php?src_id=16158"
	},
	"version": "22"
}