{
	"repository": {
		"file-name": "frawor-0.1.20.tar.gz",
		"type": "archive",
		"unpack-sequence": [
			"gz",
			"tar"
		],
		"url": "http://www.vim.org/scripts/download_script.php?src_id=17493"
	},
	"version": "0.1.20"
}