{
	"author": "Rob O'Dwyer",
	"description": "logstash.vim highlights configuration files for logstash (see http://logstash.ne",
	"homepage": "http://www.vim.org/scripts/script.php?script_id=5001",
	"name": "logstash",
	"vim-script-nr": 5001
}