{
	"repository": {
		"file-name": "usefold.vmb",
		"type": "archive",
		"unpack-sequence": [
			"vmb"
		],
		"url": "http://www.vim.org/scripts/download_script.php?src_id=19471"
	},
	"version": "0.0.3"
}