{
	"repository": {
		"file-name": "perl_vim.zip",
		"type": "archive",
		"unpack-sequence": [
			"zip"
		],
		"url": "http://www.vim.org/scripts/download_script.php?src_id=19995"
	},
	"version": "0.19"
}