{
	"repository": {
		"file-name": "IndentConsistencyCop.vim",
		"type": "file",
		"url": "http://www.vim.org/scripts/download_script.php?src_id=6933",
		"vim-directory": "plugin"
	},
	"version": "1.00.008"
}