{
	"author": "drachen kiraa",
	"description": "The colorscheme \"F\u00fcr die Sexy Elise\".",
	"homepage": "http://www.vim.org/scripts/script.php?script_id=2697",
	"name": "elisex",
	"vim-script-nr": 2697
}