{
	"repository": {
		"file-name": "vim-es6-2.1.zip",
		"type": "archive",
		"unpack-sequence": [
			"zip"
		],
		"url": "http://www.vim.org/scripts/download_script.php?src_id=23685"
	},
	"version": "2.1"
}