{
	"repository": {
		"file-name": "GoldenView.Vim-1.3.0.zip",
		"type": "archive",
		"unpack-sequence": [
			"zip"
		],
		"url": "http://www.vim.org/scripts/download_script.php?src_id=19896"
	},
	"version": "1.3.0"
}