{
	"repository": {
		"file-name": "xpt-0.4.8-r962.tgz",
		"type": "archive",
		"unpack-sequence": [
			"gz",
			"tar"
		],
		"url": "http://www.vim.org/scripts/download_script.php?src_id=13698"
	},
	"version": "0.4.8-r962"
}