{
	"repository": {
		"file-name": "R_with_vim_0.5-38.tar.gz",
		"type": "archive",
		"unpack-sequence": [
			"gz",
			"tar"
		],
		"url": "http://www.vim.org/scripts/download_script.php?src_id=5342"
	},
	"version": "0.5-38"
}