{
	"author": "Caleb Smith",
	"description": "Conceals lambdas as lambda characters in various languages",
	"homepage": "http://www.vim.org/scripts/script.php?script_id=5021",
	"name": "vim-lamdify",
	"vim-script-nr": 5021
}