{
	"author": "Marc Weber",
	"description": "makes svn add /commit much easier from vim",
	"homepage": "http://www.vim.org/scripts/script.php?script_id=2071",
	"name": "yet_another_svn_script",
	"vim-script-nr": 2071
}