{
	"repository": {
		"file-name": "php.tar",
		"strip-components": 1,
		"type": "archive",
		"unpack-sequence": [
			"tar"
		],
		"url": "http://www.vim.org/scripts/download_script.php?src_id=1425"
	},
	"version": ".3"
}