{
	"repository": {
		"file-name": "vim-fileutils-0.7.6.tar.gz",
		"type": "archive",
		"unpack-sequence": [
			"gz",
			"tar"
		],
		"url": "http://www.vim.org/scripts/download_script.php?src_id=14547"
	},
	"version": "0.7.6"
}