{
	"repository": {
		"file-name": "mail_movement-1.54.vmb.gz",
		"type": "archive",
		"unpack-sequence": [
			"gz",
			"vmb"
		],
		"url": "http://www.vim.org/scripts/download_script.php?src_id=20302"
	},
	"version": "1.54"
}