{
	"repository": {
		"file-name": "formatvim-2.2.1.tar.gz",
		"type": "archive",
		"unpack-sequence": [
			"gz",
			"tar"
		],
		"url": "http://www.vim.org/scripts/download_script.php?src_id=13616"
	},
	"version": "2.2.1"
}