{
	"author": "Paul Contreras",
	"description": "Syntax highlight colors change gradually based on minutes of hour",
	"homepage": "http://www.vim.org/scripts/script.php?script_id=2658",
	"name": "Auto_Changing_color_script",
	"vim-script-nr": 2658
}