{
	"repository": {
		"file-name": "vtreeexplorer-1.21.tar.gz",
		"type": "archive",
		"unpack-sequence": [
			"gz",
			"tar"
		],
		"url": "http://www.vim.org/scripts/download_script.php?src_id=4704"
	},
	"version": "1.21"
}