{
	"author": "Ricky Wu",
	"description": "Complete Member Variable For z/OS Enterprise Compiler PLI",
	"homepage": "http://www.vim.org/scripts/script.php?script_id=2642",
	"name": "PLI_Auto_Complete",
	"vim-script-nr": 2642
}