{
	"repository": {
		"file-name": "tumble.vba",
		"type": "archive",
		"unpack-sequence": [
			"vmb"
		],
		"url": "http://www.vim.org/scripts/download_script.php?src_id=13052"
	},
	"version": "24052010"
}