{
	"author": "Michael Brown",
	"description": "a gf tweak for python webapp developers",
	"homepage": "http://www.vim.org/scripts/script.php?script_id=3533",
	"name": "GetFilePlus",
	"vim-script-nr": 3533
}