{
	"author": "Krzysiek Goj",
	"description": "this script allows you to sort python imports alphabetically",
	"homepage": "http://www.vim.org/scripts/script.php?script_id=2225",
	"name": "sort_python_imports",
	"vim-script-nr": 2225
}