{
	"author": "Alexander Anderson",
	"description": "Vim plugin for quickly changing GUI font size",
	"homepage": "http://www.vim.org/scripts/script.php?script_id=593",
	"name": "guifont",
	"vim-script-nr": 593
}