{
	"repository": {
		"file-name": "FeralToggleCommentify.vim",
		"type": "file",
		"url": "http://www.vim.org/scripts/download_script.php?src_id=1404",
		"vim-directory": "plugin"
	},
	"version": "1.52"
}