{
	"repository": {
		"file-name": "patternjump-2.1.1.zip",
		"strip-components": 1,
		"type": "archive",
		"unpack-sequence": [
			"zip"
		],
		"url": "http://www.vim.org/scripts/download_script.php?src_id=23657"
	},
	"version": "2.1.1"
}