{
	"repository": {
		"file-name": "yankring_20_beta1a.zip",
		"type": "archive",
		"unpack-sequence": [
			"zip"
		],
		"url": "http://www.vim.org/scripts/download_script.php?src_id=4512"
	},
	"version": "2.0 Beta1a"
}