{
	"author": "Andrea Bonomi",
	"description": "Easily register commands executed when the current buffer or a given files match",
	"homepage": "http://www.vim.org/scripts/script.php?script_id=5212",
	"name": "vim-on-write",
	"vim-script-nr": 5212
}