{
	"repository": {
		"file-name": "lookupfile-1.6.zip",
		"type": "archive",
		"unpack-sequence": [
			"zip"
		],
		"url": "http://www.vim.org/scripts/download_script.php?src_id=7172"
	},
	"version": "1.6"
}