{
	"author": "Chris Russell",
	"description": "Simple commenting and uncommenting of blocks of code",
	"homepage": "http://www.vim.org/scripts/script.php?script_id=473",
	"name": "BlockComment",
	"vim-script-nr": 473
}