{
	"author": "John Kaul",
	"description": "A light color scheme that looks as though it's been through the wash.",
	"homepage": "http://www.vim.org/scripts/script.php?script_id=4399",
	"name": "color_scheme_Faded-White",
	"vim-script-nr": 4399
}