{
	"author": "Jeroen Budts",
	"description": "Handle movements with j/k as if they were real jumps",
	"homepage": "http://www.vim.org/scripts/script.php?script_id=4395",
	"name": "jk-jumps",
	"vim-script-nr": 4395
}