{
	"repository": {
		"file-name": "LEF_DEF_syntax_for_VIM.rar",
		"type": "file",
		"url": "http://www.vim.org/scripts/download_script.php?src_id=21234",
		"vim-directory": "other"
	},
	"version": "1.0"
}