{
	"author": "Cory Echols",
	"description": "List loaded buffers in a location list.",
	"homepage": "http://www.vim.org/scripts/script.php?script_id=2593",
	"name": "LBufWin",
	"vim-script-nr": 2593
}