{
	"repository": {
		"file-name": "ywchaos-0.5_2.tar.bz2",
		"type": "archive",
		"unpack-sequence": [
			"bz2",
			"tar"
		],
		"url": "http://www.vim.org/scripts/download_script.php?src_id=11704"
	},
	"version": "0.5_2"
}