{
	"author": "Daniel Schemala",
	"description": "Changes width of the NERDTree to see even the longest file names",
	"homepage": "http://www.vim.org/scripts/script.php?script_id=4138",
	"name": "Toggle_NERDTree_width",
	"vim-script-nr": 4138
}