{
	"repository": {
		"file-name": "editorconfig-vim-0.2.0.zip",
		"type": "archive",
		"unpack-sequence": [
			"zip"
		],
		"url": "http://www.vim.org/scripts/download_script.php?src_id=17683"
	},
	"version": "0.2.0"
}