{
	"repository": {
		"file-name": "conque_2.0.zip",
		"type": "archive",
		"unpack-sequence": [
			"zip"
		],
		"url": "http://www.vim.org/scripts/download_script.php?src_id=14280"
	},
	"version": "2.0++"
}