{
	"repository": {
		"file-name": "GtdWithVim-1.0.29.2910.zip",
		"type": "archive",
		"unpack-sequence": [
			"zip"
		],
		"url": "http://www.vim.org/scripts/download_script.php?src_id=5786"
	},
	"version": "1.0.29"
}