{
	"repository": {
		"file-name": "vim-workspace-1.7.3.tar.gz",
		"strip-components": 1,
		"type": "archive",
		"unpack-sequence": [
			"gz",
			"tar"
		],
		"url": "http://www.vim.org/scripts/download_script.php?src_id=24961"
	},
	"version": "1.7.3"
}