{
	"author": "Ignacio Javier",
	"description": "Syntax highlight for apache log files",
	"homepage": "http://www.vim.org/scripts/script.php?script_id=2268",
	"name": "apachelogs",
	"vim-script-nr": 2268
}