{
	"repository": {
		"file-name": "vim-easy-align.zip",
		"type": "archive",
		"unpack-sequence": [
			"zip"
		],
		"url": "http://www.vim.org/scripts/download_script.php?src_id=20577"
	},
	"version": "1.7"
}