{
	"author": "Justin Domingue",
	"description": "Vim code snippets creation made easy",
	"homepage": "http://www.vim.org/scripts/script.php?script_id=4878",
	"name": "Abridge",
	"vim-script-nr": 4878
}