{
	"author": "David Fishburn",
	"description": "Search and/or replace based on a syntax highlight group",
	"homepage": "http://www.vim.org/scripts/script.php?script_id=848",
	"name": "SrchRplcHiGrp",
	"vim-script-nr": 848
}