{
	"repository": {
		"file-name": "tplugin.vba",
		"type": "archive",
		"unpack-sequence": [
			"vmb"
		],
		"url": "http://www.vim.org/scripts/download_script.php?src_id=12831"
	},
	"version": "0.8"
}