{
	"author": "vim pimps",
	"description": "lighter version of original tangoshady",
	"homepage": "http://www.vim.org/scripts/script.php?script_id=3629",
	"name": "tangolight",
	"vim-script-nr": 3629
}