{
	"repository": {
		"file-name": "quickfonts.1.25.tar.gz",
		"type": "archive",
		"unpack-sequence": [
			"gz",
			"tar"
		],
		"url": "http://www.vim.org/scripts/download_script.php?src_id=2477"
	},
	"version": "1.25"
}