{
	"repository": {
		"file-name": "vim-r-plugin-110208.zip",
		"type": "archive",
		"unpack-sequence": [
			"zip"
		],
		"url": "http://www.vim.org/scripts/download_script.php?src_id=14985"
	},
	"version": "110208"
}