{
	"author": "Mark Volkmann",
	"description": "property comments HTML/XML tags",
	"homepage": "http://www.vim.org/scripts/script.php?script_id=5190",
	"name": "vim-tag-comment",
	"vim-script-nr": 5190
}