{
	"repository": {
		"file-name": "aurum-1.4.9.tar.gz",
		"type": "archive",
		"unpack-sequence": [
			"gz",
			"tar"
		],
		"url": "http://www.vim.org/scripts/download_script.php?src_id=17580"
	},
	"version": "1.4.9"
}