{
	"repository": {
		"file-name": "json-ponyfill.vim.zip",
		"strip-components": 1,
		"type": "archive",
		"unpack-sequence": [
			"zip"
		],
		"url": "http://www.vim.org/scripts/download_script.php?src_id=24910"
	},
	"version": "1.0"
}