{
	"author": "Alisue Lambda",
	"description": "Activate python virtualenv within Vim",
	"homepage": "http://www.vim.org/scripts/script.php?script_id=3840",
	"name": "vim-python-virtualenv",
	"vim-script-nr": 3840
}