{
	"author": "richard emberson",
	"description": "Format method arguments",
	"homepage": "http://www.vim.org/scripts/script.php?script_id=3498",
	"name": "Scala_argument_formatter",
	"vim-script-nr": 3498
}