{
	"repository": {
		"file-name": "buf2html.zip",
		"type": "archive",
		"unpack-sequence": [
			"zip"
		],
		"url": "http://www.vim.org/scripts/download_script.php?src_id=9287"
	},
	"version": "2.0b1"
}