{
	"author": "Nicolas Weber",
	"description": "Syntax highlighting for triangle source files",
	"homepage": "http://www.vim.org/scripts/script.php?script_id=1992",
	"name": "triangle",
	"vim-script-nr": 1992
}