{
	"author": "luo chen",
	"description": "select text in v mode, then press n to search next one (N for prev one)",
	"homepage": "http://www.vim.org/scripts/script.php?script_id=4819",
	"name": "select__search",
	"vim-script-nr": 4819
}