{
	"repository": {
		"file-name": "vim-quickhl-0.3.zip",
		"type": "archive",
		"unpack-sequence": [
			"zip"
		],
		"url": "http://www.vim.org/scripts/download_script.php?src_id=16289"
	},
	"version": "0.3"
}