{
	"repository": {
		"file-name": "vim-devicons-v0.5.1.zip",
		"strip-components": 1,
		"type": "archive",
		"unpack-sequence": [
			"zip"
		],
		"url": "http://www.vim.org/scripts/download_script.php?src_id=23486"
	},
	"version": "v0.5.1"
}