{
	"author": "Teemu Likonen",
	"description": "Fast on-the-fly spell-checker based on Enchant",
	"homepage": "http://www.vim.org/scripts/script.php?script_id=2345",
	"name": "Vimchant",
	"vim-script-nr": 2345
}