{
	"repository": {
		"file-name": "ZoomWin.vim.bz2",
		"type": "file",
		"unpack-sequence": [
			"bz2"
		],
		"url": "http://www.vim.org/scripts/download_script.php?src_id=3063",
		"vim-directory": "other"
	},
	"version": "19"
}