{
	"repository": {
		"file-name": "selectbuf-3.3.zip",
		"type": "archive",
		"unpack-sequence": [
			"zip"
		],
		"url": "http://www.vim.org/scripts/download_script.php?src_id=3265"
	},
	"version": "3.3"
}