{
	"author": "Andreas Politz",
	"description": "hide certain lines of a buffer",
	"homepage": "http://www.vim.org/scripts/script.php?script_id=2038",
	"name": "narrow_region",
	"vim-script-nr": 2038
}