{
	"repository": {
		"file-name": "vim-textobj-user-0.3.7.zip",
		"strip-components": 1,
		"type": "archive",
		"unpack-sequence": [
			"zip"
		],
		"url": "http://www.vim.org/scripts/download_script.php?src_id=9391"
	},
	"version": "0.3.7"
}