{
	"repository": {
		"file-name": "delimitMate.vba.gz",
		"type": "archive",
		"unpack-sequence": [
			"gz",
			"vmb"
		],
		"url": "http://www.vim.org/scripts/download_script.php?src_id=13447"
	},
	"version": "2.4.1"
}