{
	"author": "Serge van den Boom",
	"description": "automatically maps buffers to function keys",
	"homepage": "http://www.vim.org/scripts/script.php?script_id=1422",
	"name": "bufmap",
	"vim-script-nr": 1422
}