{
	"author": "omi taku",
	"description": "Bring all remote Vim window buffers together in one Vim window.",
	"homepage": "http://www.vim.org/scripts/script.php?script_id=1445",
	"name": "AllBuffersToOneWindow",
	"vim-script-nr": 1445
}