{
	"repository": {
		"file-name": "command-t-1.6.1.vba",
		"type": "archive",
		"unpack-sequence": [
			"vmb"
		],
		"url": "http://www.vim.org/scripts/download_script.php?src_id=21225"
	},
	"version": "1.6.1"
}