{
	"repository": {
		"file-name": "HTML.zip",
		"type": "archive",
		"unpack-sequence": [
			"zip"
		],
		"url": "http://www.vim.org/scripts/download_script.php?src_id=6279"
	},
	"version": "0.21.2"
}