{
	"repository": {
		"file-name": "advancer-abbreviation-v1.0.2.tar.gz",
		"strip-components": 1,
		"type": "archive",
		"unpack-sequence": [
			"gz",
			"tar"
		],
		"url": "http://www.vim.org/scripts/download_script.php?src_id=15722"
	},
	"version": "1.0.2"
}