{
	"repository": {
		"file-name": "tla+-gvim.zip",
		"strip-components": 1,
		"type": "archive",
		"unpack-sequence": [
			"zip"
		],
		"url": "http://www.vim.org/scripts/download_script.php?src_id=20137"
	},
	"version": "7.0"
}