{
	"author": "Angus Salkeld",
	"description": "This is a mainly green on black color scheme (Gui & term)",
	"homepage": "http://www.vim.org/scripts/script.php?script_id=1086",
	"name": "Black_Angus",
	"vim-script-nr": 1086
}