{
	"author": "Britt Selvitelle",
	"description": "Syntax Highlighting for Puppet (Conf Mang.)",
	"homepage": "http://www.vim.org/scripts/script.php?script_id=2094",
	"name": "Puppet_Syntax_Highlighting",
	"vim-script-nr": 2094
}