{
	"repository": {
		"file-name": "EasyGrep.zip",
		"type": "archive",
		"unpack-sequence": [
			"zip"
		],
		"url": "http://www.vim.org/scripts/download_script.php?src_id=9869"
	},
	"version": "0.9"
}