{
	"author": "Ingo Karkat",
	"description": "Insert mode completion for matches of queried / last search pattern.",
	"homepage": "http://www.vim.org/scripts/script.php?script_id=4248",
	"name": "PatternComplete",
	"vim-script-nr": 4248
}