{
	"repository": {
		"file-name": "vim-coffee-script-v003.zip",
		"type": "archive",
		"unpack-sequence": [
			"zip"
		],
		"url": "http://www.vim.org/scripts/download_script.php?src_id=22513"
	},
	"version": "v003"
}