{
	"author": "Kartik Shenoy",
	"description": "Plugin to toggle, display and navigate marks and signs",
	"homepage": "http://www.vim.org/scripts/script.php?script_id=4118",
	"name": "vim-signature",
	"vim-script-nr": 4118
}