{
	"author": "Mahlon Smith",
	"description": "Display Mercurial revision info in the Vim statusline.",
	"homepage": "http://www.vim.org/scripts/script.php?script_id=3144",
	"name": "hgrev",
	"vim-script-nr": 3144
}