{
	"repository": {
		"file-name": "CSApprox.zip",
		"type": "archive",
		"unpack-sequence": [
			"zip"
		],
		"url": "http://www.vim.org/scripts/download_script.php?src_id=9525"
	},
	"version": "1.50"
}