{
	"author": "Masaaki Nakamura",
	"description": "The textobject plugin to do well with each delimited part of a string.",
	"homepage": "http://www.vim.org/scripts/script.php?script_id=4977",
	"name": "textobj-delimited",
	"vim-script-nr": 4977
}