{
	"repository": {
		"file-name": "vim-sql-workbench.tar.gz",
		"strip-components": 1,
		"type": "archive",
		"unpack-sequence": [
			"gz",
			"tar"
		],
		"url": "http://www.vim.org/scripts/download_script.php?src_id=25482"
	},
	"version": "7.1.1"
}