{
	"author": "richard emberson",
	"description": "Jump to source file associated with class name",
	"homepage": "http://www.vim.org/scripts/script.php?script_id=3512",
	"name": "Scala_Java_Edit",
	"vim-script-nr": 3512
}