{
	"repository": {
		"file-name": "vimwiki_0_7_1.zip",
		"type": "archive",
		"unpack-sequence": [
			"zip",
			"vmb"
		],
		"url": "http://www.vim.org/scripts/download_script.php?src_id=10061"
	},
	"version": "0.7.1"
}