{
	"repository": {
		"file-name": "vim-gencode-cpp-1.3.2.tar.gz",
		"strip-components": 1,
		"type": "archive",
		"unpack-sequence": [
			"gz",
			"tar"
		],
		"url": "http://www.vim.org/scripts/download_script.php?src_id=24325"
	},
	"version": "1.3.2"
}