{
	"author": "kaika  yuhi",
	"description": "A plug-in for insert completion of emoji.",
	"homepage": "http://www.vim.org/scripts/script.php?script_id=5058",
	"name": "emoji_complete",
	"vim-script-nr": 5058
}