{
	"author": "Gregor M\u00fcllegger",
	"description": "Allows you to use django management commands from within vim",
	"homepage": "http://www.vim.org/scripts/script.php?script_id=2392",
	"name": "Django_Projects",
	"vim-script-nr": 2392
}