{
	"author": "Tamir Lavi",
	"description": "A simple snippets manager for 'snipMate' Vim plugin",
	"homepage": "http://www.vim.org/scripts/script.php?script_id=3664",
	"name": "SnipMgr",
	"vim-script-nr": 3664
}