{
	"author": "James Kolb",
	"description": "Autoshare yank registers across vim instances.",
	"homepage": "http://www.vim.org/scripts/script.php?script_id=4734",
	"name": "united-front",
	"vim-script-nr": 4734
}