{
	"repository": {
		"file-name": "vimwiki_0_5_1.zip",
		"type": "file",
		"unpack-sequence": [
			"zip"
		],
		"url": "http://www.vim.org/scripts/download_script.php?src_id=9604",
		"vim-directory": "other"
	},
	"version": "0.5.1"
}