{
	"author": "Alexander Rodin",
	"description": "Generates implimentations for C/C++ function prototypes",
	"homepage": "http://www.vim.org/scripts/script.php?script_id=1960",
	"name": "cimpl",
	"vim-script-nr": 1960
}