{
	"repository": {
		"file-name": "vim-qthelp-v1.0.0.zip",
		"strip-components": 1,
		"type": "archive",
		"unpack-sequence": [
			"zip"
		],
		"url": "http://www.vim.org/scripts/download_script.php?src_id=14453"
	},
	"version": "1.0.0"
}