{
	"repository": {
		"file-name": "octave_with_vim_0.01-6.tar.gz",
		"type": "archive",
		"unpack-sequence": [
			"gz",
			"tar"
		],
		"url": "http://www.vim.org/scripts/download_script.php?src_id=3282"
	},
	"version": "0.01"
}