{
	"author": "Greg Hurrell",
	"description": "Convenient re-run of last recorded Vim macro",
	"homepage": "http://www.vim.org/scripts/script.php?script_id=5483",
	"name": "Replay%5483",
	"vim-script-nr": 5483
}