{
	"repository": {
		"file-name": "quickfixsigns.vba",
		"type": "archive",
		"unpack-sequence": [
			"vmb"
		],
		"url": "http://www.vim.org/scripts/download_script.php?src_id=15669"
	},
	"version": "0.14"
}