{
	"author": "Ajit Thakkar",
	"description": "Soft colors on a light grey background (GUI only)",
	"homepage": "http://www.vim.org/scripts/script.php?script_id=577",
	"name": "dawn",
	"vim-script-nr": 577
}