{
	"author": "Michael Brown",
	"description": "htmldjango filetype omnicomplete - completes template tags/filters/variables ",
	"homepage": "http://www.vim.org/scripts/script.php?script_id=4027",
	"name": "vim-htmldjango_omnicomplete",
	"vim-script-nr": 4027
}