{
	"repository": {
		"file-name": "VOoM-4.0b3.zip",
		"strip-components": 1,
		"type": "archive",
		"unpack-sequence": [
			"zip"
		],
		"url": "http://www.vim.org/scripts/download_script.php?src_id=14681"
	},
	"version": "4.0b3"
}