{
	"repository": {
		"file-name": "eightheader.vmb",
		"type": "archive",
		"unpack-sequence": [
			"vmb"
		],
		"url": "http://www.vim.org/scripts/download_script.php?src_id=21887"
	},
	"version": "1.0++"
}