{
	"repository": {
		"file-name": "VimDebug-0.3.5.tar.gz",
		"strip-components": 1,
		"type": "archive",
		"unpack-sequence": [
			"gz",
			"tar"
		],
		"url": "http://www.vim.org/scripts/download_script.php?src_id=8111"
	},
	"version": "0.3.5"
}