{
	"author": "simeji n",
	"description": "very simple vim plugin for easy resizing of your vim windows",
	"homepage": "http://www.vim.org/scripts/script.php?script_id=4591",
	"name": "winresizer",
	"vim-script-nr": 4591
}