{
	"repository": {
		"file-name": "command-t-0.6.vba",
		"type": "archive",
		"unpack-sequence": [
			"vmb"
		],
		"url": "http://www.vim.org/scripts/download_script.php?src_id=12914"
	},
	"version": "0.6"
}