{
	"author": "Benjamin Schnitzler",
	"description": "Vim plugin to simulate a simple database Table",
	"homepage": "http://www.vim.org/scripts/script.php?script_id=2304",
	"name": "vimdb",
	"vim-script-nr": 2304
}