{
	"repository": {
		"file-name": "Lokaltog-vim-powerline-f2acebb.tar.gz",
		"strip-components": 1,
		"type": "archive",
		"unpack-sequence": [
			"gz",
			"tar"
		],
		"url": "http://www.vim.org/scripts/download_script.php?src_id=17296"
	},
	"version": "&#946;+"
}