{
	"author": "Sandeep CR",
	"description": "This plugin makes it easy to navigate between functions in a long file.",
	"homepage": "http://www.vim.org/scripts/script.php?script_id=3681",
	"name": "functionlist",
	"vim-script-nr": 3681
}