{
	"repository": {
		"file-name": "python_ifold-2.8.3.6.zip",
		"type": "archive",
		"unpack-sequence": [
			"zip"
		],
		"url": "http://www.vim.org/scripts/download_script.php?src_id=8576"
	},
	"version": "2.8.3.6"
}