{
	"repository": {
		"file-name": "tabula.zip",
		"type": "archive",
		"unpack-sequence": [
			"zip"
		],
		"url": "http://www.vim.org/scripts/download_script.php?src_id=12787"
	},
	"version": "1.4.2"
}