{
	"author": "Kana Natsuno",
	"description": "Text objects for Japanese braces",
	"homepage": "http://www.vim.org/scripts/script.php?script_id=2276",
	"name": "textobj-jabraces",
	"vim-script-nr": 2276
}