{
	"author": "Rogerz Zhang",
	"description": "Convert highlighted text into ansi control sequence",
	"homepage": "http://www.vim.org/scripts/script.php?script_id=1127",
	"name": "vim2ansi",
	"vim-script-nr": 1127
}