{
	"author": "Christian Br\u00fcssow",
	"description": "Only slightly modified version of the evening color scheme.",
	"homepage": "http://www.vim.org/scripts/script.php?script_id=2220",
	"name": "bensday",
	"vim-script-nr": 2220
}