{
	"author": "Bidit Mazumder",
	"description": "A dark colorscheme inspired by desert.vim.",
	"homepage": "http://www.vim.org/scripts/script.php?script_id=3685",
	"name": "werks",
	"vim-script-nr": 3685
}