{
	"repository": {
		"file-name": "vimcalc-1.1.zip",
		"type": "archive",
		"unpack-sequence": [
			"zip"
		],
		"url": "http://www.vim.org/scripts/download_script.php?src_id=15044"
	},
	"version": "v1.1"
}