{
	"author": "zeb ulon",
	"description": "a color scheme mimicking google-code-prettify",
	"homepage": "http://www.vim.org/scripts/script.php?script_id=3751",
	"name": "google_prettify",
	"vim-script-nr": 3751
}