{
	"author": "Sebastian Tramp",
	"description": "Syntax definition for EasyChair review files",
	"homepage": "http://www.vim.org/scripts/script.php?script_id=3727",
	"name": "easychair",
	"vim-script-nr": 3727
}