{
	"author": "Sply Splyeff",
	"description": "remembers the cursor position relative to the window",
	"homepage": "http://www.vim.org/scripts/script.php?script_id=1485",
	"name": "StickyCursor",
	"vim-script-nr": 1485
}