{
	"author": "kamil stachowski",
	"description": "A simple line-based comment toggler.",
	"homepage": "http://www.vim.org/scripts/script.php?script_id=2431",
	"name": "commentToggle",
	"vim-script-nr": 2431
}