{
	"repository": {
		"file-name": "vimwiki_0_3_2.vba",
		"type": "archive",
		"unpack-sequence": [
			"vmb"
		],
		"url": "http://www.vim.org/scripts/download_script.php?src_id=8696"
	},
	"version": "0.3.2"
}