{
	"author": "Linda Rhysd",
	"description": "A vim plugin for unite.vim to look in N3337 quickly.",
	"homepage": "http://www.vim.org/scripts/script.php?script_id=4709",
	"name": "unite-n3337",
	"vim-script-nr": 4709
}