{
	"author": "Darren Cole",
	"description": "vim file type plugin to run an xquery against a MarkLogic server",
	"homepage": "http://www.vim.org/scripts/script.php?script_id=4255",
	"name": "xqmarklogic",
	"vim-script-nr": 4255
}