{
	"author": "Tim Allen",
	"description": "Mappings primarily intended to ease preparing of USENET/eMail articles",
	"homepage": "http://www.vim.org/scripts/script.php?script_id=851",
	"name": "Posting%851",
	"vim-script-nr": 851
}