{
	"repository": {
		"file-name": "Vim-R-plugin.vmb",
		"type": "archive",
		"unpack-sequence": [
			"vmb"
		],
		"url": "http://www.vim.org/scripts/download_script.php?src_id=22981"
	},
	"version": "1.2.1"
}