{
	"repository": {
		"file-name": "DeleteTrailingWhitespace-1.04.vmb.gz",
		"type": "archive",
		"unpack-sequence": [
			"gz",
			"vmb"
		],
		"url": "http://www.vim.org/scripts/download_script.php?src_id=21194"
	},
	"version": "1.04"
}