{
	"repository": {
		"file-name": "formatvim-3.2.tar.gz",
		"type": "archive",
		"unpack-sequence": [
			"gz",
			"tar"
		],
		"url": "http://www.vim.org/scripts/download_script.php?src_id=18616"
	},
	"version": "3.2"
}