{
	"author": "tyru  ",
	"description": "syntax file for kirikiri (\u5409\u91cc\u5409\u91cc)",
	"homepage": "http://www.vim.org/scripts/script.php?script_id=3273",
	"name": "kirikiri",
	"vim-script-nr": 3273
}