{
	"author": "Jia Sui",
	"description": "Async plugin for vim and neovim to ease the use of ctags/gtags",
	"homepage": "http://www.vim.org/scripts/script.php?script_id=5499",
	"name": "gen_tags",
	"vim-script-nr": 5499
}