{
	"repository": {
		"file-name": "rapid_for_vim_v150_20170815.zip",
		"type": "archive",
		"unpack-sequence": [
			"zip"
		],
		"url": "http://www.vim.org/scripts/download_script.php?src_id=25509"
	},
	"version": "1.5.0"
}