{
	"repository": {
		"file-name": "vimstuff-1.0.4.tar.gz",
		"type": "archive",
		"unpack-sequence": [
			"gz",
			"tar"
		],
		"url": "http://www.vim.org/scripts/download_script.php?src_id=13700"
	},
	"version": "1.0.4"
}