{
	"author": "Ned Konz",
	"description": "Ruby filetype plugin with matchit, lots more",
	"homepage": "http://www.vim.org/scripts/script.php?script_id=303",
	"name": "ftpluginruby",
	"vim-script-nr": 303
}