{
	"author": "Gaofeng Dong",
	"description": "Highlight files for CPF, UPF and SDC",
	"homepage": "http://www.vim.org/scripts/script.php?script_id=5420",
	"name": "cpf_upf_sdc",
	"vim-script-nr": 5420
}