{
	"author": "Lior Elia",
	"description": "New version - everything indents correctly",
	"homepage": "http://www.vim.org/scripts/script.php?script_id=2800",
	"name": "Windows_PowerShell_indent_enhanced",
	"vim-script-nr": 2800
}