{
	"author": "Rapha\u00ebl Haberer-Proust",
	"description": "syntaxic coloration for Scala code",
	"homepage": "http://www.vim.org/scripts/script.php?script_id=1780",
	"name": "scala",
	"vim-script-nr": 1780
}