{
	"repository": {
		"file-name": "writebackupToAdjacentDir-2.00.vmb.gz",
		"type": "archive",
		"unpack-sequence": [
			"gz",
			"vmb"
		],
		"url": "http://www.vim.org/scripts/download_script.php?src_id=20590"
	},
	"version": "2.00"
}