{
	"author": "Vít Kotačka",
	"description": "The purpose of this project is to maintain missing Gradle capabilities in Vim.",
	"homepage": "http://www.vim.org/scripts/script.php?script_id=5258",
	"name": "vim-gradle",
	"vim-script-nr": 5258
}