{
	"author": "Armin Ronacher",
	"description": "colorscheme in the colors of the django webpage",
	"homepage": "http://www.vim.org/scripts/script.php?script_id=1870",
	"name": "django%1870",
	"vim-script-nr": 1870
}