{
	"author": "binary runner",
	"description": "syntax higlighting for LDIF (LDAP serialization)",
	"homepage": "http://www.vim.org/scripts/script.php?script_id=654",
	"name": "ldif",
	"vim-script-nr": 654
}