{
	"repository": {
		"file-name": "mark-3.0.0.vmb.gz",
		"type": "archive",
		"unpack-sequence": [
			"gz",
			"vmb"
		],
		"url": "http://www.vim.org/scripts/download_script.php?src_id=25574"
	},
	"version": "3.0.0"
}