{
	"repository": {
		"file-name": "simple_comments.vba.zip",
		"type": "archive",
		"unpack-sequence": [
			"zip",
			"vmb"
		],
		"url": "http://www.vim.org/scripts/download_script.php?src_id=10089"
	},
	"version": "253"
}