{
	"repository": {
		"file-name": "TextTransform-1.03.vmb.gz",
		"type": "archive",
		"unpack-sequence": [
			"gz",
			"vmb"
		],
		"url": "http://www.vim.org/scripts/download_script.php?src_id=18550"
	},
	"version": "1.03"
}