{
	"repository": {
		"file-name": "GtdWithVim-1.0.36.7284.zip",
		"type": "archive",
		"unpack-sequence": [
			"zip"
		],
		"url": "http://www.vim.org/scripts/download_script.php?src_id=5947"
	},
	"version": "1.0.36"
}