{
	"author": "Narayanan Iyer",
	"description": "A soft mellow colorscheme",
	"homepage": "http://www.vim.org/scripts/script.php?script_id=1335",
	"name": "A_soft_mellow_color_scheme",
	"vim-script-nr": 1335
}