{
	"repository": {
		"file-name": "VOoM-4.2.zip",
		"strip-components": 1,
		"type": "archive",
		"unpack-sequence": [
			"zip"
		],
		"url": "http://www.vim.org/scripts/download_script.php?src_id=17720"
	},
	"version": "4.2"
}