{
	"repository": {
		"file-name": "dbext_410.zip",
		"type": "archive",
		"unpack-sequence": [
			"zip"
		],
		"url": "http://www.vim.org/scripts/download_script.php?src_id=6499"
	},
	"version": "4.10"
}