{
	"author": "David Terei",
	"description": "Vim version of TextMates Cobalt colour scheme",
	"homepage": "http://www.vim.org/scripts/script.php?script_id=2828",
	"name": "Cobalt_Colour_scheme",
	"vim-script-nr": 2828
}