{
	"author": "Rainer Thierfelder",
	"description": "Syntaxfile for TWiki-Syntax",
	"homepage": "http://www.vim.org/scripts/script.php?script_id=1113",
	"name": "TWiki-Syntax",
	"vim-script-nr": 1113
}