{
	"repository": {
		"file-name": "quilt.tar.gz",
		"type": "archive",
		"unpack-sequence": [
			"gz",
			"tar"
		],
		"url": "http://www.vim.org/scripts/download_script.php?src_id=6215"
	},
	"version": "0.6"
}