{
	"repository": {
		"file-name": "diffchar7.1.zip",
		"type": "archive",
		"unpack-sequence": [
			"zip"
		],
		"url": "http://www.vim.org/scripts/download_script.php?src_id=25622"
	},
	"version": "7.1"
}