{
	"repository": {
		"file-name": "vim-quickrun-0.4.1.zip",
		"type": "archive",
		"unpack-sequence": [
			"zip"
		],
		"url": "http://www.vim.org/scripts/download_script.php?src_id=13321"
	},
	"version": "0.4.1"
}