{
	"author": "Romain Lafourcade",
	"description": "A dark low-contrast colorscheme.",
	"homepage": "http://www.vim.org/scripts/script.php?script_id=4905",
	"name": "apprentice",
	"vim-script-nr": 4905
}