{
	"repository": {
		"file-name": "vim-gtkfilechooser_20040519.diff",
		"type": "file",
		"url": "http://www.vim.org/scripts/download_script.php?src_id=3036",
		"vim-directory": "other"
	},
	"version": "0.2"
}