{
	"author": "Tom Link",
	"description": "Set options specific for the syntax group under cursor",
	"homepage": "http://www.vim.org/scripts/script.php?script_id=2076",
	"name": "setsyntax",
	"vim-script-nr": 2076
}