{
	"author": "Mathias Gumz",
	"description": "syntaxhighlighting for key-files of fluxbox",
	"homepage": "http://www.vim.org/scripts/script.php?script_id=882",
	"name": "fluxkeys",
	"vim-script-nr": 882
}