{
	"repository": {
		"file-name": "far.vim-beta2.zip",
		"strip-components": 1,
		"type": "archive",
		"unpack-sequence": [
			"zip"
		],
		"url": "http://www.vim.org/scripts/download_script.php?src_id=24781"
	},
	"version": "beta 2"
}