{
	"repository": {
		"file-name": "phpunitqf-0.2.tar.gz",
		"type": "archive",
		"unpack-sequence": [
			"tar"
		],
		"url": "http://www.vim.org/scripts/download_script.php?src_id=17907"
	},
	"version": "0.2"
}