{
	"repository": {
		"file-name": "bookmarking.vba",
		"strip-components": 1,
		"type": "archive",
		"unpack-sequence": [
			"vmb"
		],
		"url": "http://www.vim.org/scripts/download_script.php?src_id=16885"
	},
	"version": "2.2"
}