{
	"author": "vineeth n",
	"description": "Light Grey Tango color theme based on Morning",
	"homepage": "http://www.vim.org/scripts/script.php?script_id=2640",
	"name": "tango-morning",
	"vim-script-nr": 2640
}