{
	"author": "Matthias Vogelgesang",
	"description": "Move lines and selected text up and down",
	"homepage": "http://www.vim.org/scripts/script.php?script_id=4687",
	"name": "move",
	"vim-script-nr": 4687
}