{
	"repository": {
		"file-name": "splitjoin.zip",
		"type": "archive",
		"unpack-sequence": [
			"zip"
		],
		"url": "http://www.vim.org/scripts/download_script.php?src_id=16290"
	},
	"version": "0.2.2"
}