{
	"author": "Petr Broz",
	"description": "Utilities for WebGL/GLSL/Three.js developers.",
	"homepage": "http://www.vim.org/scripts/script.php?script_id=5468",
	"name": "glsl%5468",
	"vim-script-nr": 5468
}