{
	"author": "Mathias Hasselmann",
	"description": "Collection of syntax files for C, C#, Java, NSIS and Doxygen",
	"homepage": "http://www.vim.org/scripts/script.php?script_id=996",
	"name": "tbf-vimfiles",
	"vim-script-nr": 996
}