{
	"repository": {
		"file-name": "vim-xblogger.zip",
		"type": "archive",
		"unpack-sequence": [
			"zip"
		],
		"url": "http://www.vim.org/scripts/download_script.php?src_id=22561"
	},
	"version": "1.0"
}