{
	"repository": {
		"file-name": "WinWalker.1.2.1.zip",
		"type": "archive",
		"unpack-sequence": [
			"zip"
		],
		"url": "http://www.vim.org/scripts/download_script.php?src_id=5596"
	},
	"version": "1.2.1"
}