{
	"author": "rohit seth",
	"description": "Start your own Autoresponder Hosting service",
	"homepage": "http://www.vim.org/scripts/script.php?script_id=2306",
	"name": "_Autoresponder_Hosting_service",
	"vim-script-nr": 2306
}