{
	"repository": {
		"file-name": "PerfectDark.vim",
		"type": "file",
		"url": "http://www.vim.org/scripts/download_script.php?src_id=22923",
		"vim-directory": "colors"
	},
	"version": "1.0-noterm"
}