{
	"repository": {
		"file-name": "krl_for_vim_v138_20161008.zip",
		"type": "archive",
		"unpack-sequence": [
			"zip"
		],
		"url": "http://www.vim.org/scripts/download_script.php?src_id=24601"
	},
	"version": "1.3.8"
}