{
	"author": "Ingo Karkat",
	"description": "Browse and re-insert previous (commit, status) messages.",
	"homepage": "http://www.vim.org/scripts/script.php?script_id=4116",
	"name": "MessageRecall",
	"vim-script-nr": 4116
}