{
	"author": "Ken Bloom",
	"description": "Reorder the items in natural language lists",
	"homepage": "http://www.vim.org/scripts/script.php?script_id=2598",
	"name": "reorder",
	"vim-script-nr": 2598
}