{
	"author": "Michael Kamensky",
	"description": "A mode that helps get rid of the habit of using evil cursor keys, mouse, and GUI",
	"homepage": "http://www.vim.org/scripts/script.php?script_id=4715",
	"name": "Hardcore_Mode",
	"vim-script-nr": 4715
}