{
	"repository": {
		"file-name": "cream-showinvisibles.vim",
		"type": "file",
		"url": "http://www.vim.org/scripts/download_script.php?src_id=2847",
		"vim-directory": "plugin"
	},
	"version": "3.01"
}