{
	"author": "Bill Odom",
	"description": "Vim plugin that transforms text with the Accentuate.us web service",
	"homepage": "http://www.vim.org/scripts/script.php?script_id=3518",
	"name": "accentuate",
	"vim-script-nr": 3518
}