{
	"author": "Vahagn Khachatryan",
	"description": "Compile files right from vim.",
	"homepage": "http://www.vim.org/scripts/script.php?script_id=5075",
	"name": "cf5-compile",
	"vim-script-nr": 5075
}