{
	"author": "winterTTr Wang",
	"description": "Accelerate your inputing during coding,with auto-complete the function prototype",
	"homepage": "http://www.vim.org/scripts/script.php?script_id=1754",
	"name": "TTrCodeAssistor",
	"vim-script-nr": 1754
}