{
	"author": "Bruce Who",
	"description": "This script is used to load templates to buffers with different filetypes",
	"homepage": "http://www.vim.org/scripts/script.php?script_id=1411",
	"name": "bwTemplate",
	"vim-script-nr": 1411
}