{
	"author": "Yakov Lerner",
	"description": "Prompt-driven replace(substitute) for console vim, also in multiple files.",
	"homepage": "http://www.vim.org/scripts/script.php?script_id=1903",
	"name": "REPL",
	"vim-script-nr": 1903
}