{
	"author": "Anders Schau Knatten",
	"description": "Inserts named snippets from various other files into a file",
	"homepage": "http://www.vim.org/scripts/script.php?script_id=3717",
	"name": "SnippetySnip",
	"vim-script-nr": 3717
}