{
	"repository": {
		"file-name": "vim-closing-brackets.vim",
		"type": "file",
		"url": "http://www.vim.org/scripts/download_script.php?src_id=24297",
		"vim-directory": "plugin"
	},
	"version": "1.0.0"
}