{
	"repository": {
		"file-name": "utags.tbz",
		"type": "archive",
		"unpack-sequence": [
			"bz2",
			"tar"
		],
		"url": "http://www.vim.org/scripts/download_script.php?src_id=16710"
	},
	"version": "1.0"
}