{
	"repository": {
		"file-name": "vim-steam.zip",
		"type": "archive",
		"unpack-sequence": [
			"zip"
		],
		"url": "http://www.vim.org/scripts/download_script.php?src_id=19235"
	},
	"version": "0.1.0"
}