{
	"repository": {
		"file-name": "outlookvim_v8.zip",
		"type": "archive",
		"unpack-sequence": [
			"zip"
		],
		"url": "http://www.vim.org/scripts/download_script.php?src_id=19460"
	},
	"version": "8.0"
}