{
	"author": "hyke jekyll",
	"description": "Improved C++ STL syntax highlighting",
	"homepage": "http://www.vim.org/scripts/script.php?script_id=2224",
	"name": "STL_improved",
	"vim-script-nr": 2224
}