{
	"author": "Robert Rowsome",
	"description": "A compiler plugin for the onsgmls (or nsgmls) SGML/XML validator",
	"homepage": "http://www.vim.org/scripts/script.php?script_id=983",
	"name": "onsgmls",
	"vim-script-nr": 983
}