{
	"repository": {
		"file-name": "GuiBox.vba",
		"type": "archive",
		"unpack-sequence": [
			"vmb"
		],
		"url": "http://www.vim.org/scripts/download_script.php?src_id=13102"
	},
	"version": "0.5.1"
}