{
	"repository": {
		"file-name": "syntax_expander.tar",
		"type": "archive",
		"unpack-sequence": [
			"tar"
		],
		"url": "http://www.vim.org/scripts/download_script.php?src_id=803"
	},
	"version": "0.91"
}