{
	"author": "MingZhi Li",
	"description": "Verilog HDL/SystemVerilog HDVL indent file",
	"homepage": "http://www.vim.org/scripts/script.php?script_id=2091",
	"name": "verilog",
	"vim-script-nr": 2091
}