{
	"repository": {
		"file-name": "nerdtree-wget.tgz",
		"strip-components": 1,
		"type": "archive",
		"unpack-sequence": [
			"gz",
			"tar"
		],
		"url": "http://www.vim.org/scripts/download_script.php?src_id=21346"
	},
	"version": "1"
}