{
	"repository": {
		"file-name": "simple-javascript-indenter-v1.0.1.tar.gz",
		"strip-components": 1,
		"type": "archive",
		"unpack-sequence": [
			"gz",
			"tar"
		],
		"url": "http://www.vim.org/scripts/download_script.php?src_id=13760"
	},
	"version": "1.0.1"
}