{
	"author": "Dmitry Maluka",
	"description": "Finely tuned, 256 color, light-grey background colorscheme",
	"homepage": "http://www.vim.org/scripts/script.php?script_id=2730",
	"name": "donbass",
	"vim-script-nr": 2730
}