{
	"repository": {
		"file-name": "vim-sass-colors.zip",
		"type": "archive",
		"unpack-sequence": [
			"zip"
		],
		"url": "http://www.vim.org/scripts/download_script.php?src_id=25183"
	},
	"version": "0.6.1"
}