{
	"author": "Juan Pedro Fisanotti",
	"description": "ctrlp extension to search and execute vim commands",
	"homepage": "http://www.vim.org/scripts/script.php?script_id=4737",
	"name": "ctrlp-cmdpalette",
	"vim-script-nr": 4737
}