{
	"repository": {
		"file-name": "diffchar6.6.zip",
		"type": "archive",
		"unpack-sequence": [
			"zip"
		],
		"url": "http://www.vim.org/scripts/download_script.php?src_id=25390"
	},
	"version": "6.6"
}