{
	"repository": {
		"file-name": "CompleteParameter.vim-0.2.0.1.tar.gz",
		"strip-components": 1,
		"type": "archive",
		"unpack-sequence": [
			"gz",
			"tar"
		],
		"url": "http://www.vim.org/scripts/download_script.php?src_id=25363"
	},
	"version": "0.2.0.1"
}