{
	"repository": {
		"file-name": "php.tar.gz",
		"type": "archive",
		"unpack-sequence": [
			"gz",
			"tar"
		],
		"url": "http://www.vim.org/scripts/download_script.php?src_id=8651"
	},
	"version": "0.9.7"
}