{
	"repository": {
		"file-name": "sort_python_imports.vim",
		"type": "file",
		"url": "http://www.vim.org/scripts/download_script.php?src_id=8703",
		"vim-directory": "plugin"
	},
	"version": "1.2"
}