{
	"author": "Peter Odding",
	"description": "Context-sensitive documentation for Python source code",
	"homepage": "http://www.vim.org/scripts/script.php?script_id=3104",
	"name": "pyref",
	"vim-script-nr": 3104
}