{
	"repository": {
		"file-name": "VOoM-5.0.zip",
		"strip-components": 1,
		"type": "archive",
		"unpack-sequence": [
			"zip"
		],
		"url": "http://www.vim.org/scripts/download_script.php?src_id=21112"
	},
	"version": "5.0"
}