{
	"author": "Toru Iwashita",
	"description": "Automatically save and load vim session based on switching of git branch.",
	"homepage": "http://www.vim.org/scripts/script.php?script_id=5446",
	"name": "git-switcher",
	"vim-script-nr": 5446
}