{
	"repository": {
		"file-name": "linediff.zip",
		"type": "archive",
		"unpack-sequence": [
			"zip"
		],
		"url": "http://www.vim.org/scripts/download_script.php?src_id=16527"
	},
	"version": "0.1.0"
}