{
	"repository": {
		"file-name": "ReplaceWithRegister-1.31.vmb.gz",
		"type": "archive",
		"unpack-sequence": [
			"gz",
			"vmb"
		],
		"url": "http://www.vim.org/scripts/download_script.php?src_id=19058"
	},
	"version": "1.31"
}