{
	"repository": {
		"file-name": "edp-0.1.2.tar.gz",
		"type": "archive",
		"unpack-sequence": [
			"gz",
			"tar"
		],
		"url": "http://www.vim.org/scripts/download_script.php?src_id=7246"
	},
	"version": "0.1.2"
}