{
	"repository": {
		"file-name": "vim-wwdc16-theme-1.0.1.tar.gz",
		"strip-components": 1,
		"type": "archive",
		"unpack-sequence": [
			"gz",
			"tar"
		],
		"url": "http://www.vim.org/scripts/download_script.php?src_id=24502"
	},
	"version": "v1.0.1"
}