{
	"repository": {
		"file-name": "command-t-2.0.zip",
		"type": "archive",
		"unpack-sequence": [
			"zip"
		],
		"url": "http://www.vim.org/scripts/download_script.php?src_id=23834"
	},
	"version": "2.0"
}