{
	"repository": {
		"file-name": "modeleasy-vim-plugin-1.2.vba",
		"type": "archive",
		"unpack-sequence": [
			"vmb"
		],
		"url": "http://www.vim.org/scripts/download_script.php?src_id=18998"
	},
	"version": "1.2"
}