{
	"author": "Pavan Kumar Sunkara",
	"description": "Syntax highlighting for dasm & dasm16",
	"homepage": "http://www.vim.org/scripts/script.php?script_id=4038",
	"name": "vim-dasm",
	"vim-script-nr": 4038
}