{
	"repository": {
		"file-name": "SudoEdit-0.10.vmb",
		"type": "archive",
		"unpack-sequence": [
			"vmb"
		],
		"url": "http://www.vim.org/scripts/download_script.php?src_id=16897"
	},
	"version": "10"
}