{
	"repository": {
		"file-name": "emacscommandline.zip",
		"type": "archive",
		"unpack-sequence": [
			"zip"
		],
		"url": "http://www.vim.org/scripts/download_script.php?src_id=25647"
	},
	"version": "1.3"
}