{
	"author": "Joel Nothman",
	"description": "Source .vimrc file from git repository's root",
	"homepage": "http://www.vim.org/scripts/script.php?script_id=3993",
	"name": "gitvimrc",
	"vim-script-nr": 3993
}