{
	"repository": {
		"file-name": "riv.vim-0.65.zip",
		"strip-components": 1,
		"type": "archive",
		"unpack-sequence": [
			"zip"
		],
		"url": "http://www.vim.org/scripts/download_script.php?src_id=18200"
	},
	"version": "0.65"
}