{
	"author": "Steve Hall",
	"description": "Convert Vim script command and option names between full and abbreviated forms",
	"homepage": "http://www.vim.org/scripts/script.php?script_id=471",
	"name": "cream-vimabbrev",
	"vim-script-nr": 471
}