{
	"author": "Ton van den Heuvel",
	"description": "Plugin for navigating buffers webbrowser style.",
	"homepage": "http://www.vim.org/scripts/script.php?script_id=3241",
	"name": "bufsurf",
	"vim-script-nr": 3241
}