{
	"repository": {
		"file-name": "chapa.tar.gz",
		"strip-components": 1,
		"type": "archive",
		"unpack-sequence": [
			"gz",
			"tar"
		],
		"url": "http://www.vim.org/scripts/download_script.php?src_id=15007"
	},
	"version": "1.1.2"
}