{
	"author": "Peter Odding",
	"description": "Automatic reloading of Vim scripts ((file-type) plug-ins, auto-load/syntax/inden",
	"homepage": "http://www.vim.org/scripts/script.php?script_id=3148",
	"name": "reload",
	"vim-script-nr": 3148
}