{
	"author": "David Schweikert",
	"description": "Colors good for dark and light background",
	"homepage": "http://www.vim.org/scripts/script.php?script_id=786",
	"name": "delek",
	"vim-script-nr": 786
}