{
	"repository": {
		"file-name": "xdebug.tar.gz",
		"type": "archive",
		"unpack-sequence": [
			"tar"
		],
		"url": "http://www.vim.org/scripts/download_script.php?src_id=17990"
	},
	"version": "1.0"
}