{
	"author": "Thiago Arruda",
	"description": "Use vim as a command editor for REPL programs",
	"homepage": "http://www.vim.org/scripts/script.php?script_id=4222",
	"name": "conque-repl",
	"vim-script-nr": 4222
}