{
	"author": "Christian Brabandt",
	"description": "Record and Replay your editing Session",
	"homepage": "http://www.vim.org/scripts/script.php?script_id=3216",
	"name": "Replay",
	"vim-script-nr": 3216
}