{
	"repository": {
		"file-name": "slimv086.zip",
		"type": "archive",
		"unpack-sequence": [
			"zip"
		],
		"url": "http://www.vim.org/scripts/download_script.php?src_id=16353"
	},
	"version": "0.8.6"
}