{
	"author": "Krzysztof Luks",
	"description": "Patch that adds GtkFileChooser support to gvim (GTK 2.4+)",
	"homepage": "http://www.vim.org/scripts/script.php?script_id=981",
	"name": "GtkFileChooser",
	"vim-script-nr": 981
}