{
	"repository": {
		"file-name": "ruscmd.zip",
		"type": "archive",
		"unpack-sequence": [
			"zip"
		],
		"url": "http://www.vim.org/scripts/download_script.php?src_id=20907"
	},
	"version": "1.4+"
}