{
	"author": "Brandon Low",
	"description": "Matching ANSI colorscheme for gVim and vim",
	"homepage": "http://www.vim.org/scripts/script.php?script_id=2562",
	"name": "ansi_blows",
	"vim-script-nr": 2562
}