{
	"author": "Dan Woodward",
	"description": "Syntax coloring for FitNesse Wiki Pages",
	"homepage": "http://www.vim.org/scripts/script.php?script_id=2651",
	"name": "fitnesse",
	"vim-script-nr": 2651
}