{
	"author": "Alisue Lambda",
	"description": "A simple compiler for using Python unittest with VIM",
	"homepage": "http://www.vim.org/scripts/script.php?script_id=3949",
	"name": "pyunit%3949",
	"vim-script-nr": 3949
}