{
	"author": "Henning Hasemann",
	"description": "4 Vim Themes I use for programming (GUI only)",
	"homepage": "http://www.vim.org/scripts/script.php?script_id=1412",
	"name": "vim_colors",
	"vim-script-nr": 1412
}