{
	"author": "Tim Pope",
	"description": "Use the repeat command (.) with supported plugins",
	"homepage": "http://www.vim.org/scripts/script.php?script_id=2136",
	"name": "repeat",
	"vim-script-nr": 2136
}