{
	"author": "Aristotle Pagaltzis",
	"description": "Load filetype templates for new files",
	"homepage": "http://www.vim.org/scripts/script.php?script_id=1172",
	"name": "templates",
	"vim-script-nr": 1172
}