{
	"repository": {
		"file-name": "PERLDOC2.zip",
		"type": "archive",
		"unpack-sequence": [
			"zip"
		],
		"url": "http://www.vim.org/scripts/download_script.php?src_id=10322"
	},
	"version": "0.2"
}