{
	"author": "Ahmed Fasih",
	"description": "Syntax highlight for NUWEB (Literate Programming), multi-language version",
	"homepage": "http://www.vim.org/scripts/script.php?script_id=2746",
	"name": "nuweb_multi-language",
	"vim-script-nr": 2746
}