{
	"repository": {
		"file-name": "node-0.8.1.zip",
		"type": "archive",
		"unpack-sequence": [
			"zip"
		],
		"url": "http://www.vim.org/scripts/download_script.php?src_id=21777"
	},
	"version": "0.8.1"
}