{
	"author": "Helder Correia",
	"description": "Dark blue background with high-contrast text",
	"homepage": "http://www.vim.org/scripts/script.php?script_id=2232",
	"name": "h80",
	"vim-script-nr": 2232
}