{
	"author": "Robert KellyIV",
	"description": "FORK of lastchange.vim; Automatic update of timestamp line in file.",
	"homepage": "http://www.vim.org/scripts/script.php?script_id=680",
	"name": "ferallastchange",
	"vim-script-nr": 680
}