{
	"repository": {
		"file-name": "gist-vim.zip",
		"type": "archive",
		"unpack-sequence": [
			"zip"
		],
		"url": "http://www.vim.org/scripts/download_script.php?src_id=16692"
	},
	"version": "5.5"
}