{
	"repository": {
		"file-name": "bash-support.zip",
		"type": "archive",
		"unpack-sequence": [
			"zip"
		],
		"url": "http://www.vim.org/scripts/download_script.php?src_id=7552"
	},
	"version": "2.3"
}