{
	"author": "john gilmore",
	"description": "group rename files from the command prompt with vim",
	"homepage": "http://www.vim.org/scripts/script.php?script_id=2285",
	"name": "vmv",
	"vim-script-nr": 2285
}