{
	"author": "Jack Atkinson",
	"description": "Search for keywords with the Google Desktop Search engine from inside VIM",
	"homepage": "http://www.vim.org/scripts/script.php?script_id=2311",
	"name": "GoogleSearchVIM",
	"vim-script-nr": 2311
}