{
	"author": "Felix Ingram",
	"description": "An attempt to emulate TextMate's snippet expansion",
	"homepage": "http://www.vim.org/scripts/script.php?script_id=1318",
	"name": "snippetsEmu",
	"vim-script-nr": 1318
}