{
	"repository": {
		"file-name": "timstamp.zip",
		"type": "archive",
		"unpack-sequence": [
			"zip"
		],
		"url": "http://www.vim.org/scripts/download_script.php?src_id=1110"
	},
	"version": "0.91"
}