{
	"repository": {
		"file-name": "Lokaltog-vim-distinguished-1.0-0-gc786fb0.zip",
		"type": "archive",
		"unpack-sequence": [
			"zip"
		],
		"url": "http://www.vim.org/scripts/download_script.php?src_id=15326"
	},
	"version": "1.0"
}