{
	"author": "Amal Khailtash",
	"description": "Syntax highlighting for Synopsys Register Abstraction Layer ralf files",
	"homepage": "http://www.vim.org/scripts/script.php?script_id=4943",
	"name": "vim-ralf-syntax",
	"vim-script-nr": 4943
}