{
	"repository": {
		"file-name": "bufReminderRemake.vim",
		"type": "file",
		"url": "http://www.vim.org/scripts/download_script.php?src_id=17457",
		"vim-directory": "plugin"
	},
	"version": "0.72"
}