{
	"author": "Tamas Kovacs",
	"description": "Paredit Mode: Structured Editing of Lisp S-expressions",
	"homepage": "http://www.vim.org/scripts/script.php?script_id=3998",
	"name": "paredit",
	"vim-script-nr": 3998
}