{
	"repository": {
		"file-name": "vim-coffee-script-v002.zip",
		"type": "archive",
		"unpack-sequence": [
			"zip"
		],
		"url": "http://www.vim.org/scripts/download_script.php?src_id=17028"
	},
	"version": "v002"
}