{
	"author": "M K",
	"description": "My very own _vimrc.",
	"homepage": "http://www.vim.org/scripts/script.php?script_id=1224",
	"name": "my__vimrc_for_Windows_2000XP7_users",
	"vim-script-nr": 1224
}