{
	"author": "lilydjwg  ",
	"description": "Python script that add 256-color terminal support to GUI only colorschemes.",
	"homepage": "http://www.vim.org/scripts/script.php?script_id=2778",
	"name": "gui2term.py",
	"vim-script-nr": 2778
}