{
	"repository": {
		"file-name": "evp-1.0.tar.gz",
		"type": "archive",
		"unpack-sequence": [
			"gz",
			"tar"
		],
		"url": "http://www.vim.org/scripts/download_script.php?src_id=4053"
	},
	"version": "v1.0"
}