{
	"repository": {
		"file-name": "thesaurus_query.vim-0.6.1.tar.gz",
		"strip-components": 1,
		"type": "archive",
		"unpack-sequence": [
			"gz",
			"tar"
		],
		"url": "http://www.vim.org/scripts/download_script.php?src_id=24932"
	},
	"version": "v0.6.1"
}