{
	"author": "John Kaul",
	"description": "A dark color scheme that looks as though it's been through the wash.",
	"homepage": "http://www.vim.org/scripts/script.php?script_id=4398",
	"name": "color_scheme_Faded-Black",
	"vim-script-nr": 4398
}