{
	"repository": {
		"file-name": "vimargumentchec-1.0.6.tar.gz",
		"type": "archive",
		"unpack-sequence": [
			"gz",
			"tar"
		],
		"url": "http://www.vim.org/scripts/download_script.php?src_id=13732"
	},
	"version": "1.0.6"
}