{
	"author": "Gnosis Ouroubouros",
	"description": "Syntax highlighting for Plan 9 plumbing files",
	"homepage": "http://www.vim.org/scripts/script.php?script_id=2661",
	"name": "plumbing",
	"vim-script-nr": 2661
}