{
	"repository": {
		"file-name": "toggle_local_marks.vim",
		"type": "file",
		"url": "http://www.vim.org/scripts/download_script.php?src_id=12113",
		"vim-directory": "plugin"
	},
	"version": "1.0"
}