{
	"repository": {
		"file-name": "tex_turkce.vim",
		"type": "file",
		"url": "http://www.vim.org/scripts/download_script.php?src_id=20891",
		"vim-directory": "ftplugin"
	},
	"version": "2013-10-06"
}