{
	"repository": {
		"file-name": "vim_django-0.3.tgz",
		"type": "archive",
		"unpack-sequence": [
			"gz",
			"tar"
		],
		"url": "http://www.vim.org/scripts/download_script.php?src_id=16619"
	},
	"version": "0.3"
}