{
	"repository": {
		"file-name": "debugger.zip",
		"type": "archive",
		"unpack-sequence": [
			"zip"
		],
		"url": "http://www.vim.org/scripts/download_script.php?src_id=17753"
	},
	"version": "0.51"
}