{
	"repository": {
		"file-name": "vim_javaimports.tar.gz",
		"strip-components": 1,
		"type": "archive",
		"unpack-sequence": [
			"gz",
			"tar"
		],
		"url": "http://www.vim.org/scripts/download_script.php?src_id=5599"
	},
	"version": "0.0.2"
}