{
	"author": "Martin Tournoij",
	"description": "Warn when using the undofile.",
	"homepage": "http://www.vim.org/scripts/script.php?script_id=5207",
	"name": "undofile_warn",
	"vim-script-nr": 5207
}