{
	"author": "Tom Link",
	"description": "Tag list browser (List, filter, preview, jump to tags)",
	"homepage": "http://www.vim.org/scripts/script.php?script_id=2018",
	"name": "ttags",
	"vim-script-nr": 2018
}