{
	"author": "Vincent T.",
	"description": "This is a Vim plugin for Fanfou (\u996d\u5426)",
	"homepage": "http://www.vim.org/scripts/script.php?script_id=3596",
	"name": "Fanfou",
	"vim-script-nr": 3596
}