{
	"author": "Jason Duell",
	"description": "basic cscope settings and key mappings",
	"homepage": "http://www.vim.org/scripts/script.php?script_id=51",
	"name": "cscope_macros",
	"vim-script-nr": 51
}