{
	"repository": {
		"file-name": "ywtxt_0.15_3.tar.bz2",
		"type": "archive",
		"unpack-sequence": [
			"bz2",
			"tar"
		],
		"url": "http://www.vim.org/scripts/download_script.php?src_id=12777"
	},
	"version": "0.15_3"
}