{
	"repository": {
		"file-name": "autosess.zip",
		"type": "archive",
		"unpack-sequence": [
			"zip"
		],
		"url": "http://www.vim.org/scripts/download_script.php?src_id=24738"
	},
	"version": "1.2.2+"
}