{
	"author": "Nate Peterson",
	"description": "A better whitespace highlighter for Vim",
	"homepage": "http://www.vim.org/scripts/script.php?script_id=4859",
	"name": "better-whitespace",
	"vim-script-nr": 4859
}