{
	"repository": {
		"file-name": "xpt-0.4.8.110705-eb168de.tgz",
		"type": "archive",
		"unpack-sequence": [
			"gz",
			"tar"
		],
		"url": "http://www.vim.org/scripts/download_script.php?src_id=16034"
	},
	"version": "0.4.8.0705"
}