{
	"repository": {
		"file-name": "unite-spell-suggest.vba",
		"type": "archive",
		"unpack-sequence": [
			"vmb"
		],
		"url": "http://www.vim.org/scripts/download_script.php?src_id=21833"
	},
	"version": "1.0.3"
}