{
	"repository": {
		"file-name": "mbbill-undotree-rel_2.2-0-gc8b7adb.zip",
		"type": "archive",
		"unpack-sequence": [
			"zip"
		],
		"url": "http://www.vim.org/scripts/download_script.php?src_id=18447"
	},
	"version": "2.2"
}