{
	"repository": {
		"file-name": "vim-addon-sql-0.2.3.zip",
		"type": "archive",
		"unpack-sequence": [
			"zip"
		],
		"url": "http://www.vim.org/scripts/download_script.php?src_id=15225"
	},
	"version": "0.2.3"
}