{
	"repository": {
		"file-name": "pydiction-0.3.tar.gz",
		"strip-components": 1,
		"type": "archive",
		"unpack-sequence": [
			"gz",
			"tar"
		],
		"url": "http://www.vim.org/scripts/download_script.php?src_id=2600"
	},
	"version": "0.3"
}