{
	"repository": {
		"file-name": "underlinetag.zip",
		"type": "archive",
		"unpack-sequence": [
			"zip"
		],
		"url": "http://www.vim.org/scripts/download_script.php?src_id=15196"
	},
	"version": "0.5"
}