{
	"repository": {
		"file-name": "vim-ku-quickfix-0.1.0.zip",
		"strip-components": 1,
		"type": "archive",
		"unpack-sequence": [
			"zip"
		],
		"url": "http://www.vim.org/scripts/download_script.php?src_id=10478"
	},
	"version": "0.1.0"
}