{
	"repository": {
		"file-name": "cssbaseline.vim.zip",
		"type": "archive",
		"unpack-sequence": [
			"zip"
		],
		"url": "http://www.vim.org/scripts/download_script.php?src_id=16352"
	},
	"version": "1.0.2"
}