{
	"author": "Arun E",
	"description": "Utility script to autonumber lines while editing",
	"homepage": "http://www.vim.org/scripts/script.php?script_id=580",
	"name": "autonumbering_in_vim",
	"vim-script-nr": 580
}