{
	"author": "David Bowers",
	"description": "Automatically decompiles java class files and displays java code.",
	"homepage": "http://www.vim.org/scripts/script.php?script_id=446",
	"name": "JavaDecompiler",
	"vim-script-nr": 446
}