{
	"author": "Gary Willoughby",
	"description": "A dark color scheme with warm colors.",
	"homepage": "http://www.vim.org/scripts/script.php?script_id=4239",
	"name": "Freya",
	"vim-script-nr": 4239
}