{
	"repository": {
		"file-name": "vim-fetch-2.0.1.vmb",
		"type": "archive",
		"unpack-sequence": [
			"vmb"
		],
		"url": "http://www.vim.org/scripts/download_script.php?src_id=23015"
	},
	"version": "2.0.1"
}