{
	"repository": {
		"file-name": "lawrencium-0.3.1.tar.gz",
		"strip-components": 1,
		"type": "archive",
		"unpack-sequence": [
			"gz",
			"tar"
		],
		"url": "http://www.vim.org/scripts/download_script.php?src_id=21496"
	},
	"version": "0.3.1"
}