{
	"repository": {
		"file-name": "vim-update-time-0.1.1.zip",
		"type": "archive",
		"unpack-sequence": [
			"zip"
		],
		"url": "http://www.vim.org/scripts/download_script.php?src_id=21153"
	},
	"version": "0.1.1"
}