{
	"author": "Mark Woodward",
	"description": "Preview current file in selected browser.",
	"homepage": "http://www.vim.org/scripts/script.php?script_id=797",
	"name": "preview",
	"vim-script-nr": 797
}