{
	"repository": {
		"file-name": "debugger.tgz",
		"type": "archive",
		"unpack-sequence": [
			"gz",
			"tar"
		],
		"url": "http://www.vim.org/scripts/download_script.php?src_id=3688"
	},
	"version": "0.1"
}