{
	"repository": {
		"file-name": "vcsnursery.zip",
		"type": "archive",
		"unpack-sequence": [
			"zip"
		],
		"url": "http://www.vim.org/scripts/download_script.php?src_id=7116"
	},
	"version": "1"
}