{
	"repository": {
		"file-name": "jmcantrell-vim-diffchanges-dedd1ba.zip",
		"strip-components": 1,
		"type": "archive",
		"unpack-sequence": [
			"zip"
		],
		"url": "http://www.vim.org/scripts/download_script.php?src_id=15296"
	},
	"version": "0.4"
}