{
	"repository": {
		"file-name": "woim.vba",
		"type": "archive",
		"unpack-sequence": [
			"vmb"
		],
		"url": "http://www.vim.org/scripts/download_script.php?src_id=16492"
	},
	"version": "1.5.2"
}