{
	"author": "Alex Yatskov",
	"description": "Wrap and unwrap function arguments, lists and dictionaries in Vim",
	"homepage": "http://www.vim.org/scripts/script.php?script_id=5062",
	"name": "argwrap",
	"vim-script-nr": 5062
}