{
	"repository": {
		"file-name": "code-snippet-2007-12-02.zip",
		"type": "archive",
		"unpack-sequence": [
			"zip"
		],
		"url": "http://www.vim.org/scripts/download_script.php?src_id=8016"
	},
	"version": "071202"
}