{
	"author": "scott urban",
	"description": "uses perl and tree to create a tree file explorer",
	"homepage": "http://www.vim.org/scripts/script.php?script_id=183",
	"name": "treeexplorer",
	"vim-script-nr": 183
}