{
	"author": "gi1242 gi1242",
	"description": "An adjustable contrast color scheme for GUI and 8, 16 or 256 color terminals.",
	"homepage": "http://www.vim.org/scripts/script.php?script_id=795",
	"name": "xterm16",
	"vim-script-nr": 795
}