{
	"repository": {
		"file-name": "bufexplorer-7.4.19.zip",
		"type": "archive",
		"unpack-sequence": [
			"zip"
		],
		"url": "http://www.vim.org/scripts/download_script.php?src_id=25593"
	},
	"version": "7.4.19"
}