{
	"author": "Yan Shoshitaishvili",
	"description": "Make life feasible in the presense of crazy space-hippies.",
	"homepage": "http://www.vim.org/scripts/script.php?script_id=4867",
	"name": "fuckpep8",
	"vim-script-nr": 4867
}