{
	"author": "Hari Krishna Dara",
	"description": "Array library that uses patterns as separators",
	"homepage": "http://www.vim.org/scripts/script.php?script_id=171",
	"name": "multvals",
	"vim-script-nr": 171
}