{
	"repository": {
		"file-name": "directoryBrowser.vim",
		"type": "file",
		"url": "http://www.vim.org/scripts/download_script.php?src_id=19004",
		"vim-directory": "plugin"
	},
	"version": "4.4.3"
}