{
	"repository": {
		"file-name": "unicode-0.14.vmb",
		"type": "archive",
		"unpack-sequence": [
			"vmb"
		],
		"url": "http://www.vim.org/scripts/download_script.php?src_id=19074"
	},
	"version": "14"
}