{
	"repository": {
		"file-name": "neocomplcache-7.0.zip",
		"type": "archive",
		"unpack-sequence": [
			"zip"
		],
		"url": "http://www.vim.org/scripts/download_script.php?src_id=17867"
	},
	"version": "7.0"
}