{
	"repository": {
		"file-name": "rdoc-1.1.0.vba.gz",
		"type": "archive",
		"unpack-sequence": [
			"gz",
			"vmb"
		],
		"url": "http://www.vim.org/scripts/download_script.php?src_id=11940"
	},
	"version": "1.1.0"
}