{
	"author": "Sebastian Kusnier",
	"description": "Completion for the XP-Framework (php)",
	"homepage": "http://www.vim.org/scripts/script.php?script_id=3126",
	"name": "xpcomplete",
	"vim-script-nr": 3126
}