{
	"author": "Dinesh .",
	"description": "My color scheme based on \"PeachPuff\" color scheme",
	"homepage": "http://www.vim.org/scripts/script.php?script_id=1850",
	"name": "carrot",
	"vim-script-nr": 1850
}