{
	"author": "Patrick Seewald",
	"description": "Generic folding mechanism and motion based on indentation",
	"homepage": "http://www.vim.org/scripts/script.php?script_id=5435",
	"name": "AnyFold",
	"vim-script-nr": 5435
}