{
	"author": "uu 59",
	"description": "Color scheme inspired Heroku documentation colors",
	"homepage": "http://www.vim.org/scripts/script.php?script_id=4260",
	"name": "vim-herokudoc-theme",
	"vim-script-nr": 4260
}