{
	"repository": {
		"file-name": "camelcasemotion.vim",
		"type": "file",
		"url": "http://www.vim.org/scripts/download_script.php?src_id=8612",
		"vim-directory": "plugin"
	},
	"version": "1.40.016"
}