{
	"repository": {
		"file-name": "gsession-vim-0.21.tar.gz",
		"type": "archive",
		"unpack-sequence": [
			"gz",
			"tar"
		],
		"url": "http://www.vim.org/scripts/download_script.php?src_id=11888"
	},
	"version": "0.21"
}