{
	"author": "Francis Grizzly Smit",
	"description": "Tabstuff is a plugin to sulplies various tabrelated stuff",
	"homepage": "http://www.vim.org/scripts/script.php?script_id=5281",
	"name": "Tabstuff",
	"vim-script-nr": 5281
}