{
	"repository": {
		"file-name": "bufexplorer.zip",
		"type": "archive",
		"unpack-sequence": [
			"zip"
		],
		"url": "http://www.vim.org/scripts/download_script.php?src_id=1822"
	},
	"version": "6.1.4"
}