{
	"repository": {
		"file-name": "vim-buffergator-v1.1.0.tar.gz",
		"strip-components": 1,
		"type": "archive",
		"unpack-sequence": [
			"gz",
			"tar"
		],
		"url": "http://www.vim.org/scripts/download_script.php?src_id=15858"
	},
	"version": "1.1.0"
}