{
	"repository": {
		"file-name": "vimwiki-1-1-1.vba.gz",
		"type": "archive",
		"unpack-sequence": [
			"gz",
			"vmb"
		],
		"url": "http://www.vim.org/scripts/download_script.php?src_id=13756"
	},
	"version": "1.1.1"
}