{
	"author": "Justin Randall",
	"description": "automatically set time-stamp on modification",
	"homepage": "http://www.vim.org/scripts/script.php?script_id=1341",
	"name": "last_change%1341",
	"vim-script-nr": 1341
}