{
	"author": "Ingo Karkat",
	"description": " Cascade the writing of a file to another location.",
	"homepage": "http://www.vim.org/scripts/script.php?script_id=4722",
	"name": "DuplicateWrite",
	"vim-script-nr": 4722
}