{
	"repository": {
		"file-name": "VOoM-5.3.zip",
		"strip-components": 1,
		"type": "archive",
		"unpack-sequence": [
			"zip"
		],
		"url": "http://www.vim.org/scripts/download_script.php?src_id=25011"
	},
	"version": "5.3"
}