{
	"author": "Jakukyo Friel",
	"description": "syntax highlight file for the rc shell scripting language",
	"homepage": "http://www.vim.org/scripts/script.php?script_id=2880",
	"name": "rcshell",
	"vim-script-nr": 2880
}