{
	"author": "Eugene Minkovskii",
	"description": "NOTE: this only for russian users! Spell YO letter in the buffer.",
	"homepage": "http://www.vim.org/scripts/script.php?script_id=841",
	"name": "yo-speller",
	"vim-script-nr": 841
}