{
	"repository": {
		"file-name": "vim-xkbswitch-0.14.tgz",
		"type": "archive",
		"unpack-sequence": [
			"gz",
			"tar"
		],
		"url": "http://www.vim.org/scripts/download_script.php?src_id=23964"
	},
	"version": "0.14"
}