{
	"author": "tenfy zhong",
	"description": "complete parameter after select the completion.",
	"homepage": "http://www.vim.org/scripts/script.php?script_id=5577",
	"name": "CompleteParameter",
	"vim-script-nr": 5577
}