{
	"author": "Idan Arye",
	"description": "Fugitive extention to manage and merge Git branches",
	"homepage": "http://www.vim.org/scripts/script.php?script_id=4955",
	"name": "Merginal",
	"vim-script-nr": 4955
}