{
	"author": "x misao",
	"description": "Vim plugin for ruby editing. Quick jump to method, class, module defenitions.",
	"homepage": "http://www.vim.org/scripts/script.php?script_id=4937",
	"name": "RubyJump",
	"vim-script-nr": 4937
}