{
	"repository": {
		"file-name": "tplugin.vba.gz",
		"type": "archive",
		"unpack-sequence": [
			"gz",
			"vmb"
		],
		"url": "http://www.vim.org/scripts/download_script.php?src_id=12275"
	},
	"version": "0.5"
}