{
	"author": "Edward Ash",
	"description": "system verilog indent, syntax, and ftdetect",
	"homepage": "http://www.vim.org/scripts/script.php?script_id=4806",
	"name": "vim-systemverilog",
	"vim-script-nr": 4806
}