{
	"author": "Tony Dunsworth",
	"description": "Another light colour scheme based off of legiblelight",
	"homepage": "http://www.vim.org/scripts/script.php?script_id=3111",
	"name": "leglight2",
	"vim-script-nr": 3111
}