{
	"author": "Meikel Brandmeyer",
	"description": "Chimp talks to external interpreters from inside Vim",
	"homepage": "http://www.vim.org/scripts/script.php?script_id=2348",
	"name": "Chimp",
	"vim-script-nr": 2348
}