{
	"author": "Shuhei Kubota",
	"description": "A simple simultaneous search script.",
	"homepage": "http://www.vim.org/scripts/script.php?script_id=2205",
	"name": "CoremoSearch",
	"vim-script-nr": 2205
}