{
	"author": "Luca Pette",
	"description": "A text-object for quoted text",
	"homepage": "http://www.vim.org/scripts/script.php?script_id=3581",
	"name": "vim-textobj-quoted",
	"vim-script-nr": 3581
}