{
	"author": "Martin Krischik",
	"description": "Syntax Plugin for Ada (inactive, replaced by vimscript#1609)",
	"homepage": "http://www.vim.org/scripts/script.php?script_id=1353",
	"name": "syntaxada",
	"vim-script-nr": 1353
}