{
	"repository": {
		"file-name": "pybreak-1.1.tar.gz",
		"type": "archive",
		"unpack-sequence": [
			"gz",
			"tar"
		],
		"url": "http://www.vim.org/scripts/download_script.php?src_id=18472"
	},
	"version": "1.1"
}