{
	"repository": {
		"file-name": "css.vim.zip",
		"type": "archive",
		"unpack-sequence": [
			"zip"
		],
		"url": "http://www.vim.org/scripts/download_script.php?src_id=15146"
	},
	"version": "20110302"
}