{
	"author": "Luc Hermitte",
	"description": "Compiler plugin for cygwin-tools used from the win32 native version of Vim",
	"homepage": "http://www.vim.org/scripts/script.php?script_id=722",
	"name": "cygwin",
	"vim-script-nr": 722
}