{
	"repository": {
		"file-name": "jmcantrell-vim-lastmod-ae98597.zip",
		"strip-components": 1,
		"type": "archive",
		"unpack-sequence": [
			"zip"
		],
		"url": "http://www.vim.org/scripts/download_script.php?src_id=15684"
	},
	"version": "0.2"
}