{
	"repository": {
		"file-name": "php-refactoring-toolbox.vim",
		"type": "file",
		"url": "http://www.vim.org/scripts/download_script.php?src_id=25155",
		"vim-directory": "plugin"
	},
	"version": "1.0.3"
}