{
	"repository": {
		"file-name": "fastfileselector.zip",
		"type": "archive",
		"unpack-sequence": [
			"zip"
		],
		"url": "http://www.vim.org/scripts/download_script.php?src_id=21209"
	},
	"version": "0.3.3"
}