{
	"author": "lilydjwg  ",
	"description": "A light-green background color scheme.",
	"homepage": "http://www.vim.org/scripts/script.php?script_id=2516",
	"name": "lilydjwg_green",
	"vim-script-nr": 2516
}