{
	"author": "Ingo Karkat",
	"description": "Append system clipboard changes to current buffer. ",
	"homepage": "http://www.vim.org/scripts/script.php?script_id=3246",
	"name": "CaptureClipboard",
	"vim-script-nr": 3246
}