{
	"author": "H\u00e5kan Wikstr\u00f6m",
	"description": "Smooth and colorful yellowish theme",
	"homepage": "http://www.vim.org/scripts/script.php?script_id=881",
	"name": "buttercream",
	"vim-script-nr": 881
}