{
	"author": "Adam Bellaire",
	"description": "Search within fixed width data column-by-column, rather than row-by-row",
	"homepage": "http://www.vim.org/scripts/script.php?script_id=2543",
	"name": "SearchCols",
	"vim-script-nr": 2543
}