{
	"repository": {
		"file-name": "openbrowser.zip",
		"type": "archive",
		"unpack-sequence": [
			"zip"
		],
		"url": "http://www.vim.org/scripts/download_script.php?src_id=15180"
	},
	"version": "0.0.3"
}