{
	"author": "Ingo Karkat",
	"description": "Mappings to exchange text with the previously deleted text. ",
	"homepage": "http://www.vim.org/scripts/script.php?script_id=4971",
	"name": "SwapText",
	"vim-script-nr": 4971
}