{
	"repository": {
		"file-name": "add-to-word-search-0.2.1.zip",
		"strip-components": 1,
		"type": "archive",
		"unpack-sequence": [
			"zip"
		],
		"url": "http://www.vim.org/scripts/download_script.php?src_id=17592"
	},
	"version": "0.2.1"
}