{
	"author": "Geir Isene",
	"description": "Syntax highlighting for HP-41 calculator programs",
	"homepage": "http://www.vim.org/scripts/script.php?script_id=1360",
	"name": "HP-41_syntax_file",
	"vim-script-nr": 1360
}