{
	"repository": {
		"file-name": "cream-statusline-prototype.vim",
		"type": "file",
		"url": "http://www.vim.org/scripts/download_script.php?src_id=3505",
		"vim-directory": "plugin"
	},
	"version": "1.0"
}