{
	"repository": {
		"file-name": "luainspect.zip",
		"type": "archive",
		"unpack-sequence": [
			"zip"
		],
		"url": "http://www.vim.org/scripts/download_script.php?src_id=15725"
	},
	"version": "0.4.10"
}