{
	"author": "Christian J. Robinson",
	"description": "Convert to/from various numeric bases",
	"homepage": "http://www.vim.org/scripts/script.php?script_id=54",
	"name": "ConvertBase",
	"vim-script-nr": 54
}