{
	"author": "Mikolaj Machowski",
	"description": "Specification of RTF in easy and fast Vim help format.",
	"homepage": "http://www.vim.org/scripts/script.php?script_id=834",
	"name": "RTF_1.6_Spec_in_Vim_Help_Format",
	"vim-script-nr": 834
}