{
	"author": "Patricio Toledo",
	"description": "Syntax highlight for NUWEB (Literate Programming)",
	"homepage": "http://www.vim.org/scripts/script.php?script_id=543",
	"name": "nuweb",
	"vim-script-nr": 543
}