{
	"author": "Khoa Le",
	"description": "easy toggle between different numbering modes in vim",
	"homepage": "http://www.vim.org/scripts/script.php?script_id=5249",
	"name": "togglenumber",
	"vim-script-nr": 5249
}