{
	"author": "\u041c\u0438\u0445\u0430\u0438&#108 \u0428\u0432\u0430\u0440\u0446",
	"description": "Map keys ')' and ']' to perform automatic formatting of parentheses content",
	"homepage": "http://www.vim.org/scripts/script.php?script_id=1497",
	"name": "Align%1497",
	"vim-script-nr": 1497
}