{
	"repository": {
		"file-name": "axiom.vim.tgz",
		"strip-components": 1,
		"type": "archive",
		"unpack-sequence": [
			"gz",
			"tar"
		],
		"url": "http://www.vim.org/scripts/download_script.php?src_id=21075"
	},
	"version": "2.0.0"
}