{
	"repository": {
		"file-name": "vim-auto-save-0.1.9.tar.gz",
		"type": "archive",
		"unpack-sequence": [
			"gz",
			"tar"
		],
		"url": "http://www.vim.org/scripts/download_script.php?src_id=24894"
	},
	"version": "0.1.9"
}