{
	"repository": {
		"file-name": "yankstack.zip",
		"strip-components": 1,
		"type": "archive",
		"unpack-sequence": [
			"zip"
		],
		"url": "http://www.vim.org/scripts/download_script.php?src_id=18288"
	},
	"version": "1.0.5"
}