{
	"author": "Robert KellyIV",
	"description": "Convert range or visual to titlecase.",
	"homepage": "http://www.vim.org/scripts/script.php?script_id=439",
	"name": "titlecase",
	"vim-script-nr": 439
}