{
	"repository": {
		"file-name": "vim-packer-1.0.0.tar.gz",
		"strip-components": 1,
		"type": "archive",
		"unpack-sequence": [
			"gz",
			"tar"
		],
		"url": "http://www.vim.org/scripts/download_script.php?src_id=22684"
	},
	"version": "1.0.0"
}