{
	"author": "tPenguinLTG  ",
	"description": "A dead-simple Vim plugin to automatically insert closing brackets",
	"homepage": "http://www.vim.org/scripts/script.php?script_id=5397",
	"name": "Closing_Brackets",
	"vim-script-nr": 5397
}