{
	"author": "Joe Schmoe",
	"description": "Highlights C syntax like the elvis vi clone",
	"homepage": "http://www.vim.org/scripts/script.php?script_id=531",
	"name": "elvis_c_highlighting",
	"vim-script-nr": 531
}