{
	"repository": {
		"file-name": "vcscommand.zip",
		"type": "archive",
		"unpack-sequence": [
			"zip"
		],
		"url": "http://www.vim.org/scripts/download_script.php?src_id=12026"
	},
	"version": "1.99.32"
}