{
	"repository": {
		"file-name": "rainbow_parentheses.vim",
		"type": "file",
		"url": "http://www.vim.org/scripts/download_script.php?src_id=18452",
		"vim-directory": "plugin"
	},
	"version": "2.01"
}