{
	"author": "Vincent Driessen",
	"description": "Toggles the mouse focus on or off.",
	"homepage": "http://www.vim.org/scripts/script.php?script_id=3166",
	"name": "toggle_mouse",
	"vim-script-nr": 3166
}