{
	"author": "Pierre-Antoine Lacaze",
	"description": "Colorful scheme using HSL colorspace, S and L can be defined globally.",
	"homepage": "http://www.vim.org/scripts/script.php?script_id=1484",
	"name": "spectro",
	"vim-script-nr": 1484
}