{
	"repository": {
		"file-name": "proj.tgz",
		"strip-components": 1,
		"type": "archive",
		"unpack-sequence": [
			"gz",
			"tar"
		],
		"url": "http://www.vim.org/scripts/download_script.php?src_id=14001"
	},
	"version": "1.5.1"
}