{
	"author": "zhao chang",
	"description": "to quickly jump to file in current or sub directory",
	"homepage": "http://www.vim.org/scripts/script.php?script_id=4980",
	"name": "quick-file",
	"vim-script-nr": 4980
}