{
	"author": "Hongli Gao",
	"description": "Read csv file (comma or tab, choosable), easy to move to every column in color.",
	"homepage": "http://www.vim.org/scripts/script.php?script_id=2108",
	"name": "csv_reader",
	"vim-script-nr": 2108
}