{
	"repository": {
		"file-name": "unite-spell-suggest.vmb",
		"type": "archive",
		"unpack-sequence": [
			"vmb"
		],
		"url": "http://www.vim.org/scripts/download_script.php?src_id=22434"
	},
	"version": "1.1.2"
}