{
	"author": "Linus Clau\u00dfnitzer",
	"description": "This plugin paste a base frame in your new html- or php-file.",
	"homepage": "http://www.vim.org/scripts/script.php?script_id=4845",
	"name": "Html_Template",
	"vim-script-nr": 4845
}