{
	"repository": {
		"file-name": "fontsize-0.2.0.vba",
		"type": "archive",
		"unpack-sequence": [
			"vmb"
		],
		"url": "http://www.vim.org/scripts/download_script.php?src_id=11568"
	},
	"version": "0.2.0"
}