{
	"repository": {
		"file-name": "ExtractMatches-1.32.vmb.gz",
		"type": "archive",
		"unpack-sequence": [
			"gz",
			"vmb"
		],
		"url": "http://www.vim.org/scripts/download_script.php?src_id=24787"
	},
	"version": "1.32"
}