{
	"repository": {
		"file-name": "SingleCompile.zip",
		"type": "archive",
		"unpack-sequence": [
			"zip"
		],
		"url": "http://www.vim.org/scripts/download_script.php?src_id=14889"
	},
	"version": "2.3.2"
}