{
	"repository": {
		"file-name": "vcscommand-1.99.39.zip",
		"type": "archive",
		"unpack-sequence": [
			"zip"
		],
		"url": "http://www.vim.org/scripts/download_script.php?src_id=12736"
	},
	"version": "1.99.39"
}